﻿<?xml version="1.0" encoding="utf-8"?>
<!DOCTYPE svg PUBLIC "-//W3C//DTD SVG 1.0//EN" "http://www.w3.org/TR/2001/REC-SVG-20010904/DTD/svg10.dtd"[
	<!ENTITY ns_flows "http://ns.adobe.com/Flows/1.0/">
	<!ENTITY ns_svg "http://www.w3.org/2000/svg">
	<!ENTITY ns_xlink "http://www.w3.org/1999/xlink">
	<!ENTITY st0 "font-size:7px;font-family:'MS-PGothic';adobe-font-script:japanese;">
	<!ENTITY st1 "font-size:6px;font-family:'ArialMT';">
	<!-- White fill  -->
	<!ENTITY st2 "fill:#FFFFFF;stroke:#000000; stroke-width:1.41;stroke-linecap:round;stroke-linejoin:round;">
	<!-- Yellow fill  -->
	<!ENTITY st3 "fill:#FFFFCC;stroke:#FFFFCC; stroke-width:0.1;stroke-linecap:round;stroke-linejoin:round;">
	<!-- Gray fill  -->
	<!ENTITY st4 "fill:#CCCCCC;stroke:#CCCCCC; stroke-width:0.1;stroke-linecap:round;stroke-linejoin:round;">
	<!-- Light-blue fill -->
	<!ENTITY st5 "fill:#CCECF4;stroke:#000000; stroke-width:1.133;stroke-linecap:round;stroke-linejoin:round;">
	<!ENTITY st6 "fill:none;stroke-linecap:butt; stroke-linejoin:round;">
	<!ENTITY st7 "fill:none;stroke:#000000;stroke-linecap:round;stroke-linejoin:round;">
	<!ENTITY st8 "enable-background:new    ;">
	<!-- Black fill -->
	<!ENTITY st9 "fill:#000000;stroke:#000000; stroke-linecap:round;stroke-linejoin:round;">
	<!-- SRS note   -->
	<!ENTITY st10 "font-size:9px;font-family:'ArialMT';">
	<!ENTITY st11 "font-size:9px;font-family:'Svg Symbol';">
	<!ENTITY st12 "font-size:6px;font-family:'Svg Symbol';">
	<!ENTITY st13 "fill:none;stroke:#ff0000;stroke-linecap:round;stroke-linejoin:round;">
	<!-- Yellow fill  -->
	<!ENTITY st14 "fill:#FFFF00;stroke:#FFFF00; stroke-width:0.1;stroke-linecap:round;stroke-linejoin:round;">
	<!ENTITY st15 "font-size:6px;font-family:'MS-PGothic';adobe-font-script:japanese;">
	<!ENTITY st16 "1.00 0.00 0.00 1.00">
	<!ENTITY st17 "0.00 -1.00 1.00 0.00">
	<!ENTITY st18 "font-size:6px;font-family:'Arial';">
	<!ENTITY st19 "font-size:9px;font-family:'Arial';">
	<!ENTITY st20 "font-size:6px;font-family:'MS-PGothic','MS PGothic';adobe-font-script:japanese;">
	<!ENTITY st21 "font-size:7px;font-family:'MS-PGothic','MS PGothic';adobe-font-script:japanese;">
	<!ATTLIST svg
		xmlns:ewd CDATA #FIXED "http://shcl.co.jp/ewd"
		xmlns:a CDATA #FIXED "http://ns.adobe.com/AdobeSVGViewerExtensions/3.0/"
		ewd:ver CDATA #IMPLIED
	>
	<!ATTLIST a
		ewd:lineID CDATA #IMPLIED
		ewd:groupID CDATA #IMPLIED
		ewd:figtype CDATA #IMPLIED
		ewd:code CDATA #IMPLIED
		ewd:figID CDATA #IMPLIED
		ewd:pinNo CDATA #IMPLIED
		ewd:comment CDATA #IMPLIED >
	<!ATTLIST g
		ewd:lineID CDATA #IMPLIED
		ewd:groupID CDATA #IMPLIED
		ewd:figtype CDATA #IMPLIED
		ewd:code CDATA #IMPLIED
		ewd:figID CDATA #IMPLIED
		ewd:pinNo CDATA #IMPLIED
		ewd:comment CDATA #IMPLIED >
	<!ATTLIST text
		ewd:textID CDATA #IMPLIED >
	<!ATTLIST title
		ewd:textID CDATA #IMPLIED >
]>
<!-- Generator: Shintec Hozumi YS   -->
<svg onload="call_execInitLoadProc_svg('system')" style="overflow:visible;  enable-background:new 0 0 3530.283 710.000" viewBox="0 0 3530.283 710.000" height="710.000" width="3530.283" xml:space="preserve" ewd:ver="2.1.2.7" xmlns="&ns_svg;" xmlns:a="http://ns.adobe.com/AdobeSVGViewerExtensions/3.0/" xmlns:ewd="http://shcl.co.jp/ewd" xmlns:xlink="&ns_xlink;">
<text style="&st18;" transform="matrix(&st17;  591.2  479.67 )">G</text><text style="&st18;" transform="matrix(&st17;  591.2  538.88 )">B</text><text style="&st18;" transform="matrix(&st17;  676.19  539.66 )">W</text><text style="&st18;" transform="matrix(&st17;  676.19  479.32 )">R</text><text style="&st18;" transform="matrix(&st17;  993.73  310.63 )">A42</text><text style="&st18;" transform="matrix(&st17;  829.17  201.04 )">LG</text><text style="&st18;" transform="matrix(&st17;  761.18  198.82 )">L</text><text style="&st18;" transform="matrix(&st17;  659.19  198.75 )">P</text><text style="&st18;" transform="matrix(&st17;  591.2  198.82 )">L</text><text style="&st18;" transform="matrix(&st17;  591.2  343.69 )">G</text><text style="&st18;" transform="matrix(&st17;  676.19  343.34 )">R</text><text style="&st18;" transform="matrix(&st17;  761.18  344.19 )">W</text><text style="&st18;" transform="matrix(&st17;  846.16  343.42 )">B</text><text style="&st18;" transform="matrix(&st17;  591.2  403.18 )">G</text><text style="&st18;" transform="matrix(&st17;  676.19  402.83 )">R</text><text style="&st18;" transform="matrix(&st17;  761.18  403.68 )">W</text><text style="&st18;" transform="matrix(&st17;  846.16  402.91 )">B</text><text style="&st18;" transform="matrix(&st17;  761.18  479.39 )">B</text><text style="&st18;" transform="matrix(&st17;  846.16  480.17 )">W</text><path style="stroke-width: 1.42 ;&st7;  " d=" M   586.40,   503.20  L   594.90,   503.20  " /><path style="stroke-width: 1.42 ;&st7;  " d=" M   671.39,   503.20  L   679.89,   503.20  " /><path style="stroke-width: 1.42 ;&st7;  " d=" M   841.36,   435.21  L   849.86,   435.21  " /><path style="stroke-width: 1.42 ;&st7;  " d=" M   756.37,   435.21  L   764.87,   435.21  " /><path style="stroke-width: 1.42 ;&st7;  " d=" M   858.36,   375.72  L   849.86,   375.72  " /><path style="stroke-width: 1.42 ;&st7;  " d=" M   773.37,   375.72  L   764.87,   375.72  " /><path style="stroke-width: 1.42 ;&st7;  " d=" M   688.38,   375.72  L   679.89,   375.72  " /><path style="stroke-width: 1.42 ;&st7;  " d=" M   603.40,   375.72  L   594.90,   375.72  " /><text style="&st18;" transform="matrix(&st17;  965.14  343.53 )">V</text><text style="&st18;" transform="matrix(&st17;  931.15  344.19 )">W</text><path style="stroke-width: 1.42 ;&st7;  " d=" M   688.38,   443.71  L   679.89,   443.71  " /><path style="stroke-width: 1.42 ;&st7;  " d=" M   603.40,   443.71  L   594.90,   443.71  " /><g ewd:figtype="conn" ewd:figID="1" ewd:code="j1"><path style="stroke-width: 1.42 ;&st7;  " d=" M   815.86,   554.19  L   807.37,   554.19  " /><path style="stroke-width: 0.85 ;&st7;   " d=" M   815.86,   562.69  C   815.86    560.74    814.28    559.15    812.32    559.15  " /><path style="stroke-width: 0.85 ;&st7;   " d=" M   812.32,   559.15  C   810.37    559.15    808.78    560.74    808.78    562.69  " /><path style="stroke-width: 0.85 ;&st7;   " d=" M   808.78,   562.69  C   808.78    563.68    809.14    564.53    809.84    565.22  " /><path style="stroke-width: 0.85 ;&st7;   " d=" M   809.84,   565.22  C   811.24    563.85    811.26    561.61    809.89    560.21  " /><path style="stroke-width: 0.85 ;&st7;   " d=" M   809.89,   560.21  C   808.53    558.82    806.28    558.79    804.89    560.16  " /><path style="stroke-width: 0.85 ;&st7;   " d=" M   804.89,   560.16  C   803.49    561.53    803.47    563.77    804.84    565.17  " /><path style="stroke-width: 0.85 ;&st7;   " d=" M   804.84,   565.17  C   804.85    565.19    804.87    565.20    804.89    565.22  " /><path style="stroke-width: 0.85 ;&st7;   " d=" M   804.89,   565.22  C   806.28    563.85    806.31    561.61    804.94    560.21  " /><path style="stroke-width: 0.85 ;&st7;   " d=" M   804.94,   560.21  C   803.57    558.82    801.33    558.79    799.93    560.16  " /><path style="stroke-width: 0.85 ;&st7;   " d=" M   799.93,   560.16  C   799.22    560.85    798.87    561.70    798.87    562.69  " /><path style="stroke-width: 1.42 ;&st7;   " d=" M   815.86,   571.19  C   820.56    571.19    824.36    567.38    824.36    562.69  " /><path style="stroke-width: 1.42 ;&st7;   " d=" M   824.36,   562.69  C   824.36    558.00    820.56    554.19    815.86    554.19  " /><path style="stroke-width: 1.42 ;&st7;   " d=" M   798.87,   554.19  C   794.17    554.19    790.37    558.00    790.37    562.69  " /><path style="stroke-width: 1.42 ;&st7;   " d=" M   790.37,   562.69  C   790.37    567.38    794.17    571.19    798.87    571.19  " /><path style="stroke-width: 0.85 ;&st7;  " d=" M   815.86,   562.69  L   824.36,   562.69  " /><path style="stroke-width: 0.85 ;&st7;  " d=" M   790.37,   562.69  L   798.87,   562.69  " /><path style="stroke-width: 1.42 ;&st7;  " d=" M   815.86,   571.19  L   807.37,   571.19  " /><path style="stroke-width: 1.42 ;&st7;  " d=" M   798.87,   554.19  L   807.37,   554.19  " /><path style="stroke-width: 1.42 ;&st7;  " d=" M   798.87,   571.19  L   807.37,   571.19  " /><text style="&st18;" transform="matrix(&st16;  784.18  559.0 )">1</text><text style="&st18;" transform="matrix(&st16;  826.95  559.0 )">2</text><g ewd:figtype="title"><text style="&st18;" transform="matrix(&st16;  786.96  578.8 )">j1</text><text style="&st18;" transform="matrix(&st16;  786.96  585.91 )" ewd:textID="17">Rear Speed Sensor LH <tspan x="0 " dy="6.0">(Rear Axle Hub &amp;</tspan><tspan x="0 " dy="6.0"> Bearing Assembly LH)</tspan></text></g></g><g ewd:figtype="conn" ewd:figID="5" ewd:code="A42"><g ewd:lineID="13"><text style="&st18;" transform="matrix(&st16;  585.61  315.93 )">16</text><text style="&st18;" transform="matrix(&st16;  589.38  304.04 )">RR-</text></g><g ewd:lineID="14"><text style="&st18;" transform="matrix(&st16;  588.72  253.05 )">6</text><text style="&st18;" transform="matrix(&st16;  589.38  264.38 )">FR-</text></g><g ewd:lineID="15"><text style="&st18;" transform="matrix(&st16;  656.7  253.05 )">7</text><text style="&st18;" transform="matrix(&st16;  657.37  264.38 )">FR+</text></g><g ewd:lineID="19"><text style="&st18;" transform="matrix(&st16;  670.6  315.93 )">17</text><text style="&st18;" transform="matrix(&st16;  674.36  304.04 )">RR+</text></g><g ewd:lineID="22"><text style="&st18;" transform="matrix(&st16;  758.69  315.93 )">4</text><text style="&st18;" transform="matrix(&st16;  759.39  304.04 )">RL-</text></g><g ewd:lineID="23"><text style="&st18;" transform="matrix(&st16;  755.59  253.05 )">18</text><text style="&st18;" transform="matrix(&st16;  759.39  264.38 )">FL-</text></g><g ewd:lineID="24"><text style="&st18;" transform="matrix(&st16;  823.57  253.05 )">19</text><text style="&st18;" transform="matrix(&st16;  827.38  264.38 )">FL+</text></g><g ewd:lineID="27"><text style="&st18;" transform="matrix(&st16;  843.67  315.93 )">5</text><text style="&st18;" transform="matrix(&st16;  844.37  304.04 )">RL+</text></g><g ewd:lineID="28"><text style="&st18;" transform="matrix(&st16;  925.56  315.93 )">14</text><text style="&st18;" transform="matrix(&st16;  926.49  304.04 )">CANL</text></g><g ewd:lineID="29"><text style="&st18;" transform="matrix(&st16;  959.55  315.93 )">25</text><text style="&st18;" transform="matrix(&st16;  960.06  304.04 )">CANH</text></g></g><g ewd:figtype="conn" ewd:figID="7" ewd:code="h1"><path style="stroke-width: 0.85 ;&st7;   " d=" M   645.89,   562.69  C   645.89    560.74    644.31    559.15    642.35    559.15  " /><path style="stroke-width: 0.85 ;&st7;   " d=" M   642.35,   559.15  C   640.40    559.15    638.81    560.74    638.81    562.69  " /><path style="stroke-width: 0.85 ;&st7;   " d=" M   638.81,   562.69  C   638.81    563.68    639.17    564.53    639.87    565.22  " /><path style="stroke-width: 0.85 ;&st7;   " d=" M   639.87,   565.22  C   641.27    563.85    641.29    561.61    639.92    560.21  " /><path style="stroke-width: 0.85 ;&st7;   " d=" M   639.92,   560.21  C   638.55    558.82    636.31    558.79    634.91    560.16  " /><path style="stroke-width: 0.85 ;&st7;   " d=" M   634.91,   560.16  C   633.52    561.53    633.49    563.77    634.86    565.17  " /><path style="stroke-width: 0.85 ;&st7;   " d=" M   634.86,   565.17  C   634.88    565.19    634.90    565.20    634.91    565.22  " /><path style="stroke-width: 0.85 ;&st7;   " d=" M   634.91,   565.22  C   636.31    563.85    636.33    561.61    634.97    560.21  " /><path style="stroke-width: 0.85 ;&st7;   " d=" M   634.97,   560.21  C   633.60    558.82    631.35    558.79    629.96    560.16  " /><path style="stroke-width: 0.85 ;&st7;   " d=" M   629.96,   560.16  C   629.25    560.85    628.89    561.70    628.89    562.69  " /><path style="stroke-width: 1.42 ;&st7;   " d=" M   645.89,   571.19  C   650.59    571.19    654.39    567.38    654.39    562.69  " /><path style="stroke-width: 1.42 ;&st7;   " d=" M   654.39,   562.69  C   654.39    558.00    650.59    554.19    645.89    554.19  " /><path style="stroke-width: 1.42 ;&st7;   " d=" M   628.89,   554.19  C   624.20    554.19    620.40    558.00    620.40    562.69  " /><path style="stroke-width: 1.42 ;&st7;   " d=" M   620.40,   562.69  C   620.40    567.38    624.20    571.19    628.89    571.19  " /><path style="stroke-width: 0.85 ;&st7;  " d=" M   645.89,   562.69  L   654.39,   562.69  " /><path style="stroke-width: 0.85 ;&st7;  " d=" M   620.40,   562.69  L   628.89,   562.69  " /><path style="stroke-width: 1.42 ;&st7;  " d=" M   645.89,   554.19  L   637.39,   554.19  " /><path style="stroke-width: 1.42 ;&st7;  " d=" M   645.89,   571.19  L   637.39,   571.19  " /><path style="stroke-width: 1.42 ;&st7;  " d=" M   628.89,   554.19  L   637.39,   554.19  " /><path style="stroke-width: 1.42 ;&st7;  " d=" M   628.89,   571.19  L   637.39,   571.19  " /><text style="&st18;" transform="matrix(&st16;  614.21  559.0 )">1</text><text style="&st18;" transform="matrix(&st16;  656.97  559.0 )">2</text><g ewd:figtype="title"><text style="&st18;" transform="matrix(&st16;  616.98  578.8 )">h1</text><text style="&st18;" transform="matrix(&st16;  616.99  585.91 )" ewd:textID="18">Rear Speed Sensor RH <tspan x="0 " dy="6.0">(Rear Axle Hub &amp;</tspan><tspan x="0 " dy="6.0"> Bearing Assembly RH)</tspan></text></g></g><g ewd:figtype="conn" ewd:figID="10" ewd:code="A22"><path style="stroke:#000000;stroke-width: 5.10 ;&st6;" d=" M   611.90,   120.77  L   594.90,   120.77  L   594.90,   154.76  " /> d=" M   645.89,   120.77  L   662.89,   120.77  L   662.89,   154.76 
	
		<path style="stroke:#000000;stroke-width: 5.10 ;&st6;" d=" M   645.89,   120.77  L   662.89,   120.77  L   662.89,   154.76  " /><path style="stroke:#FFFFFF;stroke-width: 4.53 ;&st6;" d=" M   645.89,   120.77  L   662.89,   120.77  L   662.89,   154.76  " /><text style="&st18;" transform="matrix(&st17;  591.2  139.45 )">B</text><text style="&st18;" transform="matrix(&st17;  659.19  140.23 )">W</text><text style="&st18;" transform="matrix(&st16;  597.48  151.07 )">FR-</text><text style="&st18;" transform="matrix(&st16;  665.47  151.07 )">FR+</text><path style="stroke-width: 1.42 ;&st7;  " d=" M   611.90,   112.27  L   611.90,   129.26  L   645.89,   129.26  L   645.89,   112.27  L   611.90,   112.27  " /><path style="stroke-width: 1.42 ;&st7;  " d=" M   577.90,   103.77  L   577.90,   154.76  L   688.38,   154.76  L   688.38,   103.77  L   577.90,   103.77  " /><text style="&st18;" transform="matrix(&st16;  588.72  162.95 )">1</text><text style="&st18;" transform="matrix(&st16;  656.7  162.95 )">2</text><g ewd:figtype="title"><text style="&st18;" transform="matrix(&st16;  574.5  100.07 )" ewd:textID="9">Front Speed Sensor RH</text><text style="&st18;" transform="matrix(&st16;  574.49  92.96 )">A22</text></g></g><g ewd:figtype="conn" ewd:figID="13" ewd:code="A23"><path style="stroke:#000000;stroke-width: 5.10 ;&st6;" d=" M   781.87,   120.77  L   764.87,   120.77  L   764.87,   154.76  " /> d=" M   815.86,   120.77  L   832.86,   120.77  L   832.86,   154.76 
	
		<path style="stroke:#000000;stroke-width: 5.10 ;&st6;" d=" M   815.86,   120.77  L   832.86,   120.77  L   832.86,   154.76  " /><path style="stroke:#FFFFFF;stroke-width: 4.53 ;&st6;" d=" M   815.86,   120.77  L   832.86,   120.77  L   832.86,   154.76  " /><text style="&st18;" transform="matrix(&st17;  761.18  139.45 )">B</text><text style="&st18;" transform="matrix(&st17;  829.16  140.23 )">W</text><text style="&st18;" transform="matrix(&st16;  767.46  151.07 )">FL-</text><text style="&st18;" transform="matrix(&st16;  835.44  151.07 )">FL+</text><path style="stroke-width: 1.42 ;&st7;  " d=" M   781.87,   112.27  L   781.87,   129.26  L   815.86,   129.26  L   815.86,   112.27  L   781.87,   112.27  " /><path style="stroke-width: 1.42 ;&st7;  " d=" M   747.87,   103.77  L   747.87,   154.76  L   858.36,   154.76  L   858.36,   103.77  L   747.87,   103.77  " /><text style="&st18;" transform="matrix(&st16;  758.69  162.95 )">1</text><text style="&st18;" transform="matrix(&st16;  826.68  162.95 )">2</text><g ewd:figtype="title"><text style="&st18;" transform="matrix(&st16;  744.47  100.07 )" ewd:textID="8">Front Speed Sensor LH</text><text style="&st18;" transform="matrix(&st16;  744.46  92.96 )">A23</text></g></g><g ewd:figtype="w2w" ewd:figID="36" ewd:code="hL1"><text style="&st18;" transform="matrix(&st16;  582.27  509.42 )">2</text><path style="stroke-width: 1.42 ;&st7;  " d=" M   599.15,   497.54  L   594.90,   501.78  L   590.65,   497.54  " /><path style="stroke-width: 1.42 ;&st7;  " d=" M   590.65,   494.14  L   594.90,   498.39  L   599.15,   494.14  " /></g><g ewd:figtype="w2w" ewd:figID="37" ewd:code="EL2"><path style="stroke-width: 1.42 ;&st7;  " d=" M   599.15,   452.78  L   594.90,   448.53  L   590.65,   452.78  " /><path style="stroke-width: 1.42 ;&st7;  " d=" M   599.15,   449.38  L   594.90,   445.13  L   590.65,   449.38  " /><text style="&st18;" transform="matrix(&st16;  579.17  441.43 )">11</text></g><g ewd:figtype="w2w" ewd:figID="38" ewd:code="AE6"><text style="&st18;" transform="matrix(&st16;  579.17  373.44 )">11</text><path style="stroke-width: 1.42 ;&st7;  " d=" M   599.15,   384.79  L   594.90,   380.54  L   590.65,   384.79  " /><path style="stroke-width: 1.42 ;&st7;  " d=" M   599.15,   381.39  L   594.90,   377.14  L   590.65,   381.39  " /></g><g ewd:figtype="w2w" ewd:figID="39" ewd:code="hL1"><text style="&st18;" transform="matrix(&st16;  667.25  509.42 )">1</text><path style="stroke-width: 1.42 ;&st7;  " d=" M   684.14,   497.54  L   679.89,   501.78  L   675.64,   497.54  " /><path style="stroke-width: 1.42 ;&st7;  " d=" M   675.64,   494.14  L   679.89,   498.39  L   684.14,   494.14  " /></g><g ewd:figtype="w2w" ewd:figID="40" ewd:code="EL2"><path style="stroke-width: 1.42 ;&st7;  " d=" M   684.14,   452.78  L   679.89,   448.53  L   675.64,   452.78  " /><path style="stroke-width: 1.42 ;&st7;  " d=" M   684.14,   449.38  L   679.89,   445.13  L   675.64,   449.38  " /><text style="&st18;" transform="matrix(&st16;  664.15  441.43 )">10</text></g><g ewd:figtype="w2w" ewd:figID="41" ewd:code="AE6"><text style="&st18;" transform="matrix(&st16;  664.15  373.44 )">10</text><path style="stroke-width: 1.42 ;&st7;  " d=" M   684.14,   384.79  L   679.89,   380.54  L   675.64,   384.79  " /><path style="stroke-width: 1.42 ;&st7;  " d=" M   684.14,   381.39  L   679.89,   377.14  L   675.64,   381.39  " /></g><g ewd:figtype="w2w" ewd:figID="42" ewd:code="jL1"><text style="&st18;" transform="matrix(&st16;  752.24  441.43 )">2</text><path style="stroke-width: 1.42 ;&st7;  " d=" M   760.62,   426.15  L   764.87,   430.40  L   769.12,   426.15  " /><path style="stroke-width: 1.42 ;&st7;  " d=" M   769.12,   429.55  L   764.87,   433.80  L   760.62,   429.55  " /></g><g ewd:figtype="w2w" ewd:figID="43" ewd:code="AL1"><text style="&st18;" transform="matrix(&st16;  752.24  373.44 )">6</text><path style="stroke-width: 1.42 ;&st7;  " d=" M   769.12,   384.79  L   764.87,   380.54  L   760.62,   384.79  " /><path style="stroke-width: 1.42 ;&st7;  " d=" M   769.12,   381.39  L   764.87,   377.14  L   760.62,   381.39  " /></g><g ewd:figtype="w2w" ewd:figID="44" ewd:code="jL1"><text style="&st18;" transform="matrix(&st16;  837.23  441.43 )">1</text><path style="stroke-width: 1.42 ;&st7;  " d=" M   845.61,   426.15  L   849.86,   430.40  L   854.11,   426.15  " /><path style="stroke-width: 1.42 ;&st7;  " d=" M   854.11,   429.55  L   849.86,   433.80  L   845.61,   429.55  " /></g><g ewd:figtype="w2w" ewd:figID="45" ewd:code="AL1"><text style="&st18;" transform="matrix(&st16;  837.23  373.44 )">5</text><path style="stroke-width: 1.42 ;&st7;  " d=" M   854.11,   384.79  L   849.86,   380.54  L   845.61,   384.79  " /><path style="stroke-width: 1.42 ;&st7;  " d=" M   854.11,   381.39  L   849.86,   377.14  L   845.61,   381.39  " /></g></svg>