﻿<?xml version="1.0" encoding="utf-8"?>
<!DOCTYPE svg PUBLIC "-//W3C//DTD SVG 1.0//EN" "http://www.w3.org/TR/2001/REC-SVG-20010904/DTD/svg10.dtd"[
	<!ENTITY ns_flows "http://ns.adobe.com/Flows/1.0/">
	<!ENTITY ns_svg "http://www.w3.org/2000/svg">
	<!ENTITY ns_xlink "http://www.w3.org/1999/xlink">
	<!ENTITY st0 "font-size:7px;font-family:'MS-PGothic';adobe-font-script:japanese;">
	<!ENTITY st1 "font-size:6px;font-family:'ArialMT';">
	<!-- White fill  -->
	<!ENTITY st2 "fill:#FFFFFF;stroke:#000000; stroke-width:1.41;stroke-linecap:round;stroke-linejoin:round;">
	<!-- Yellow fill  -->
	<!ENTITY st3 "fill:#FFFFCC;stroke:#FFFFCC; stroke-width:0.1;stroke-linecap:round;stroke-linejoin:round;">
	<!-- Gray fill  -->
	<!ENTITY st4 "fill:#CCCCCC;stroke:#CCCCCC; stroke-width:0.1;stroke-linecap:round;stroke-linejoin:round;">
	<!-- Light-blue fill -->
	<!ENTITY st5 "fill:#CCECF4;stroke:#000000; stroke-width:1.133;stroke-linecap:round;stroke-linejoin:round;">
	<!ENTITY st6 "fill:none;stroke-linecap:butt; stroke-linejoin:round;">
	<!ENTITY st7 "fill:none;stroke:#000000;stroke-linecap:round;stroke-linejoin:round;">
	<!ENTITY st8 "enable-background:new    ;">
	<!-- Black fill -->
	<!ENTITY st9 "fill:#000000;stroke:#000000; stroke-linecap:round;stroke-linejoin:round;">
	<!-- SRS note   -->
	<!ENTITY st10 "font-size:9px;font-family:'ArialMT';">
	<!ENTITY st11 "font-size:9px;font-family:'Svg Symbol';">
	<!ENTITY st12 "font-size:6px;font-family:'Svg Symbol';">
	<!ENTITY st13 "fill:none;stroke:#ff0000;stroke-linecap:round;stroke-linejoin:round;">
	<!-- Yellow fill  -->
	<!ENTITY st14 "fill:#FFFF00;stroke:#FFFF00; stroke-width:0.1;stroke-linecap:round;stroke-linejoin:round;">
	<!ENTITY st15 "font-size:6px;font-family:'MS-PGothic';adobe-font-script:japanese;">
	<!ENTITY st16 "1.00 0.00 0.00 1.00">
	<!ENTITY st17 "0.00 -1.00 1.00 0.00">
	<!ENTITY st18 "font-size:6px;font-family:'Arial';">
	<!ENTITY st19 "font-size:9px;font-family:'Arial';">
	<!ENTITY st20 "font-size:6px;font-family:'MS-PGothic','MS PGothic';adobe-font-script:japanese;">
	<!ENTITY st21 "font-size:7px;font-family:'MS-PGothic','MS PGothic';adobe-font-script:japanese;">
	<!ATTLIST svg
		xmlns:ewd CDATA #FIXED "http://shcl.co.jp/ewd"
		xmlns:a CDATA #FIXED "http://ns.adobe.com/AdobeSVGViewerExtensions/3.0/"
		ewd:ver CDATA #IMPLIED
	>
	<!ATTLIST a
		ewd:lineID CDATA #IMPLIED
		ewd:groupID CDATA #IMPLIED
		ewd:figtype CDATA #IMPLIED
		ewd:code CDATA #IMPLIED
		ewd:figID CDATA #IMPLIED
		ewd:pinNo CDATA #IMPLIED
		ewd:comment CDATA #IMPLIED >
	<!ATTLIST g
		ewd:lineID CDATA #IMPLIED
		ewd:groupID CDATA #IMPLIED
		ewd:figtype CDATA #IMPLIED
		ewd:code CDATA #IMPLIED
		ewd:figID CDATA #IMPLIED
		ewd:pinNo CDATA #IMPLIED
		ewd:comment CDATA #IMPLIED >
	<!ATTLIST text
		ewd:textID CDATA #IMPLIED >
	<!ATTLIST title
		ewd:textID CDATA #IMPLIED >
]>
<!-- Generator: Shintec Hozumi YS   -->
<svg onload="call_execInitLoadProc_svg('system')" style="overflow:visible;  enable-background:new 0 0 901.622 710.000" viewBox="0 0 901.622 710.000" height="710.000" width="901.622" xml:space="preserve" ewd:ver="2.1.2.7" xmlns="&ns_svg;" xmlns:a="http://ns.adobe.com/AdobeSVGViewerExtensions/3.0/" xmlns:ewd="http://shcl.co.jp/ewd" xmlns:xlink="&ns_xlink;"><script type="text/javascript" xlink:href="../../../../../system/js/ewd/fig/svgfig.js" xmlns:xlink="http://www.w3.org/1999/xlink" />
<g id="ewd_top"><a ewd:figtype="conn" style="cursor:pointer;" ewd:code="B14" ewd:figID="1"><path style="fill:#CCECF4;stroke:#000000; stroke-width:1.133; stroke-linecap:round;stroke-linejoin:round; " d=" M   348.44,   426.71  L   348.44,   460.71  L   399.43,   460.71  L   399.43,   426.71  L   348.44,   426.71 " /><title ewd:textID="9">Park/Neutral Position Switch Assembly</title></a><a ewd:figtype="conn" style="cursor:pointer;" ewd:code="L31" ewd:figID="2"><path style="fill:#CCECF4;stroke:#000000; stroke-width:1.133; stroke-linecap:round;stroke-linejoin:round; " d=" M   671.39,   469.21  L   722.38,   469.21  L   722.38,   418.22  L   671.39,   418.22  L   671.39,   469.21 " /><title ewd:textID="11">Rear Light Assembly RH</title></a><a ewd:figtype="conn" style="cursor:pointer;" ewd:code="L30" ewd:figID="3"><path style="fill:#CCECF4;stroke:#000000; stroke-width:1.133; stroke-linecap:round;stroke-linejoin:round; " d=" M   764.87,   469.21  L   815.86,   469.21  L   815.86,   418.22  L   764.87,   418.22  L   764.87,   469.21 " /><title ewd:textID="10">Rear Light Assembly LH</title></a><a ewd:figtype="conn" style="cursor:pointer;" ewd:code="B6" ewd:figID="4"><path style="fill:#CCECF4;stroke:#000000; stroke-width:1.133; stroke-linecap:round;stroke-linejoin:round; " d=" M   297.45,   460.71  L   297.45,   426.71  L   280.45,   426.71  L   280.45,   460.71  L   297.45,   460.71 " /><title ewd:textID="6">Back-Up Light Switch Assembly</title></a><a ewd:figtype="rb" style="cursor:pointer;" ewd:code="1" ewd:figID="5"><path style="fill:#CCECF4;stroke:#000000; stroke-width:0; stroke-linecap:round;stroke-linejoin:round; " d=" M   152.97,   426.71  L   110.48,   426.71  L   110.48,   460.71  L   152.97,   460.71  L   152.97,   426.71 " /></a><a ewd:figtype="conn" style="cursor:pointer;" ewd:code="E52" ewd:figID="6"><path style="fill:#CCECF4;stroke:#000000; stroke-width:1.133; stroke-linecap:round;stroke-linejoin:round; " d=" M   271.95,   146.26  L   348.44,   146.26  L   348.44,    86.77  L   271.95,    86.77  L   271.95,   146.26 " /><title ewd:textID="7">Diode (Back-Up Light)</title></a><a ewd:figtype="conn" style="cursor:pointer;" ewd:code="A38" ewd:figID="7"><path style="fill:#CCECF4;stroke:#000000; stroke-width:1.133; stroke-linecap:round;stroke-linejoin:round; " d=" M   135.98,   299.24  L   195.47,   299.24  L   195.47,   282.24  L   135.98,   282.24  L   135.98,   299.24 " /><title ewd:textID="8">No. 1 Junction Connector</title></a><a ewd:figtype="conn" style="cursor:pointer;" ewd:code="A38" ewd:figID="8"><path style="fill:#CCECF4;stroke:#000000; stroke-width:1.133; stroke-linecap:round;stroke-linejoin:round; " d=" M   416.43,   239.75  L   416.43,   256.74  L   433.43,   256.74  L   433.43,   239.75  L   416.43,   239.75 " /><title ewd:textID="8">No. 1 Junction Connector</title></a><a ewd:figtype="jb" style="cursor:pointer;" ewd:code="3" ewd:figID="10"><path style="&st4; " d=" M   127.48,    35.78  L   127.48,   103.77  L   186.97,   103.77  L   186.97,    35.78  L   127.48,    35.78  " /></a><a ewd:figtype="jb" style="cursor:pointer;" ewd:code="3" ewd:figID="11"><path style="&st4; " d=" M   441.93,    35.78  L   441.93,   103.77  L   501.42,   103.77  L   501.42,    35.78  L   441.93,    35.78  " /></a><a ewd:figtype="jb" style="cursor:pointer;" ewd:code="3" ewd:figID="12"><path style="&st4; " d=" M   586.40,   579.69  L   654.39,   579.69  L   654.39,   528.70  L   586.40,   528.70  L   586.40,   579.69  " /></a><a ewd:figtype="fuse" style="cursor:pointer;" ewd:code="FUSE48" ewd:figID="23"><path style="&st7; stroke-width:0;" d=" M   131.73,    35.78  L   131.73,    78.27  L   157.22,    78.27  L   157.22,    35.78  L   131.73,    35.78 " /></a><a ewd:figtype="fuse" style="cursor:pointer;" ewd:code="FUSE41" ewd:figID="24"><path style="&st7; stroke-width:0;" d=" M   446.18,    35.78  L   446.18,    78.27  L   471.67,    78.27  L   471.67,    35.78  L   446.18,    35.78 " /></a><a ewd:comment="2" style="cursor:pointer;" ewd:lineID="1"><path style="stroke:#FF0000;stroke-width: 5.10 ;&st6;" d=" M    59.49,   358.73  L    59.49,   367.22  L    84.99,   392.72  L    84.99,   562.69  L   288.95,   562.69  L   288.95,   460.71  " /></a><a ewd:comment="1" style="cursor:pointer;" ewd:lineID="2"><path style="stroke:#FF0000;stroke-width: 5.10 ;&st6;" d=" M    59.49,   358.73  L    59.49,   579.69  L   390.93,   579.69  L   390.93,   554.19  " /></a><a ewd:comment="2" style="cursor:pointer;" ewd:lineID="3"><path style="stroke:#FF0000;stroke-width: 5.10 ;&st6;" d=" M    59.49,   343.99  L    59.49,   341.73  L    42.49,   324.73  L    25.50,   324.73  L    25.50,   622.18  L   603.40,   622.18  L   603.40,   579.69  " /></a><a ewd:comment="1" style="cursor:pointer;" ewd:lineID="4"><path style="stroke:#000000;stroke-width: 5.10 ;&st6;" d=" M   118.98,   681.67  L   118.98,   545.69  " /><path style="stroke:#FFFFFF;stroke-width: 4.53 ;&st6;" d=" M   118.98,   681.67  L   118.98,   545.69  " /><path style="stroke:#000000;stroke-width: 1.13 ;&st6;" d=" M   118.98,   681.67  L   118.98,   545.69  " /></a><a ewd:comment="1" style="cursor:pointer;" ewd:lineID="5"><path style="stroke:#000000;stroke-width: 5.10 ;&st6;" d=" M   118.98,   528.70  L   118.98,   494.70  " /><path style="stroke:#FFFFFF;stroke-width: 4.53 ;&st6;" d=" M   118.98,   528.70  L   118.98,   494.70  " /><path style="stroke:#000000;stroke-width: 1.13 ;&st6;" d=" M   118.98,   528.70  L   118.98,   494.70  " /></a><a ewd:comment="1" style="cursor:pointer;" ewd:lineID="6"><path style="stroke:#000000;stroke-width: 5.10 ;&st6;" d=" M   118.98,   392.72  L   118.98,   324.73  L    59.49,   324.73  L    59.49,   343.99  " /></a><a ewd:comment="1" style="cursor:pointer;" ewd:lineID="7"><path style="stroke:#FF0000;stroke-width: 5.10 ;&st6;" d=" M   144.48,   494.70  L   144.48,   596.69  L   594.90,   596.69  L   603.40,   588.19  L   603.40,   579.69  " /></a><a ewd:comment="1" style="cursor:pointer;" ewd:lineID="8"><path style="stroke:#008837;stroke-width: 5.10 ;&st6;" d=" M   144.48,   392.72  L   144.48,   299.24  " /></a><a style="cursor:pointer;" ewd:lineID="9"><path style="stroke:#008837;stroke-width: 5.10 ;&st6;" d=" M   144.48,   103.77  L   144.48,   282.24  " /></a><a ewd:comment="1" style="cursor:pointer;" ewd:lineID="10"><path style="stroke:#008837;stroke-width: 5.10 ;&st6;" d=" M   195.47,   290.74  L   229.46,   290.74  L   229.46,   154.76  " /></a><a ewd:comment="2" style="cursor:pointer;" ewd:lineID="11"><path style="stroke:#008837;stroke-width: 5.10 ;&st6;" d=" M   288.95,   341.73  L   288.95,   426.71  " /></a><a ewd:comment="1" style="cursor:pointer;" ewd:lineID="12"><path style="stroke:#008837;stroke-width: 5.10 ;&st6;" d=" M   288.95,   341.73  L   288.95,   350.23  L   297.45,   358.73  L   373.94,   358.73  L   373.94,   408.58  " /></a><a ewd:comment="2" style="cursor:pointer;" ewd:lineID="13"><path style="stroke:#008837;stroke-width: 5.10 ;&st6;" d=" M   288.95,   327.00  L   288.95,   324.73  L   271.95,   307.73  L   220.96,   307.73  L   203.97,   290.74  L   195.47,   290.74  " /></a><a ewd:comment="1" style="cursor:pointer;" ewd:lineID="14"><path style="stroke:#00A0C6;stroke-width: 5.10 ;&st6;" d=" M   288.95,   327.00  L   288.95,   222.75  " /></a><a ewd:comment="1" style="cursor:pointer;" ewd:lineID="15"><path style="stroke:#00A0C6;stroke-width: 5.10 ;&st6;" d=" M   288.95,   208.02  L   288.95,   146.26  " /></a><a ewd:comment="1" style="cursor:pointer;" ewd:lineID="16"><path style="stroke:#008837;stroke-width: 5.10 ;&st6;" d=" M   288.95,    86.77  L   288.95,    61.28  L   229.46,    61.28  L   229.46,   140.03  " /></a><a ewd:comment="1" style="cursor:pointer;" ewd:lineID="17"><path style="stroke:#FF0000;stroke-width: 5.10 ;&st6;" d=" M   390.93,   537.20  L   390.93,   478.84  " /></a><a ewd:comment="5" style="cursor:pointer;" ewd:lineID="18"><path style="stroke:#999999;stroke-width: 5.10 ;&st6;" d=" M   390.93,   154.76  L   390.93,   163.26  L   382.44,   171.76  L   365.44,   171.76  L   365.44,   248.24  L   416.43,   248.24  " /></a><a ewd:comment="7" style="cursor:pointer;" ewd:lineID="19"><path style="stroke:#999999;stroke-width: 5.10 ;&st6;" d=" M   390.93,   140.03  L   390.93,    61.28  L   322.95,    61.28  L   322.95,    86.77  " /></a><a ewd:comment="6,7" style="cursor:pointer;" ewd:lineID="20"><path style="stroke:#999999;stroke-width: 5.10 ;&st6;" d=" M   458.92,   103.77  L   458.92,   205.75  L   390.93,   205.75  L   390.93,   154.76  " /></a><a ewd:comment="5" style="cursor:pointer;" ewd:lineID="21"><path style="stroke:#999999;stroke-width: 5.10 ;&st6;" d=" M   458.92,   103.77  L   458.92,   112.27  L   467.42,   120.77  L   484.42,   120.77  L   484.42,   248.24  L   433.43,   248.24  " /></a><a style="cursor:pointer;" ewd:lineID="22"><path style="stroke:#FF0000;stroke-width: 5.10 ;&st6;" d=" M   645.89,   528.70  L   645.89,   358.73  L   696.88,   358.73  L   696.88,   418.22  " /></a><a style="cursor:pointer;" ewd:lineID="23"><path style="stroke:#000000;stroke-width: 5.10 ;&st6;" d=" M   696.88,   605.18  L   696.88,   681.67  " /><path style="stroke:#FFFFFF;stroke-width: 4.53 ;&st6;" d=" M   696.88,   605.18  L   696.88,   681.67  " /><path style="stroke:#000000;stroke-width: 1.13 ;&st6;" d=" M   696.88,   605.18  L   696.88,   681.67  " /></a><a style="cursor:pointer;" ewd:lineID="24"><path style="stroke:#000000;stroke-width: 5.10 ;&st6;" d=" M   696.88,   588.19  L   696.88,   469.21  " /><path style="stroke:#FFFFFF;stroke-width: 4.53 ;&st6;" d=" M   696.88,   588.19  L   696.88,   469.21  " /><path style="stroke:#000000;stroke-width: 1.13 ;&st6;" d=" M   696.88,   588.19  L   696.88,   469.21  " /></a><a style="cursor:pointer;" ewd:lineID="25"><path style="stroke:#000000;stroke-width: 5.10 ;&st6;" d=" M   790.37,   469.21  L   790.37,   596.69  L   705.38,   596.69  " /><path style="stroke:#FFFFFF;stroke-width: 4.53 ;&st6;" d=" M   790.37,   469.21  L   790.37,   596.69  L   705.38,   596.69  " /><path style="stroke:#000000;stroke-width: 1.13 ;&st6;" d=" M   790.37,   469.21  L   790.37,   596.69  L   705.38,   596.69  " /></a><a style="cursor:pointer;" ewd:lineID="26"><path style="stroke:#FF0000;stroke-width: 5.10 ;&st6;" d=" M   790.37,   418.22  L   790.37,   341.73  L   603.40,   341.73  L   603.40,   528.70  " /></a><a ewd:figtype="w2w" style="cursor:pointer;" ewd:pinNo="12" ewd:code="BA2" ewd:figID="13"><path style="&st2;" d=" M    67.99,   350.23  L    50.99,   350.23  L    50.99,   358.73  L    67.99,   358.73  L    67.99,   350.23 " /><text style="&st8;" transform="matrix(&st16;  54.11  356.6 )"><tspan x="0" style="&st18;" y="0">BA2</tspan></text></a><a ewd:figtype="w2w" style="cursor:pointer;" ewd:pinNo="16" ewd:code="AE2" ewd:figID="14"><path style="&st2;" d=" M   237.96,   146.26  L   220.96,   146.26  L   220.96,   154.76  L   237.96,   154.76  L   237.96,   146.26 " /><text style="&st8;" transform="matrix(&st16;  224.16  152.63 )"><tspan x="0" style="&st18;" y="0">AE2</tspan></text></a><a ewd:figtype="w2w" style="cursor:pointer;" ewd:pinNo="2" ewd:code="BA2" ewd:figID="15"><path style="&st2;" d=" M   297.45,   333.23  L   280.45,   333.23  L   280.45,   341.73  L   297.45,   341.73  L   297.45,   333.23 " /><text style="&st8;" transform="matrix(&st16;  283.57  339.6 )"><tspan x="0" style="&st18;" y="0">BA2</tspan></text></a><a ewd:figtype="w2w" style="cursor:pointer;" ewd:pinNo="9" ewd:code="AE2" ewd:figID="16"><path style="&st2;" d=" M   297.45,   214.25  L   280.45,   214.25  L   280.45,   222.75  L   297.45,   222.75  L   297.45,   214.25 " /><text style="&st8;" transform="matrix(&st16;  283.65  220.62 )"><tspan x="0" style="&st18;" y="0">AE2</tspan></text></a><a ewd:figtype="w2w" style="cursor:pointer;" ewd:pinNo="17" ewd:code="AE2" ewd:figID="17"><path style="&st2;" d=" M   399.43,   146.26  L   382.44,   146.26  L   382.44,   154.76  L   399.43,   154.76  L   399.43,   146.26 " /><text style="&st8;" transform="matrix(&st16;  385.63  152.63 )"><tspan x="0" style="&st18;" y="0">AE2</tspan></text></a><a ewd:figtype="gp" style="cursor:pointer;" ewd:code="AB" ewd:figID="18"><path style="&st2;" d=" M   108.36,   681.67  L   129.60,   681.67  L   118.98,   697.25  L   108.36,   681.67 " /><text style="&st8;" transform="matrix(&st16;  115.1  689.46 )"><tspan x="0" style="&st18;" y="0">AB</tspan></text></a><a ewd:figtype="gp" style="cursor:pointer;" ewd:code="LB" ewd:figID="19"><path style="&st2;" d=" M   686.26,   681.67  L   707.51,   681.67  L   696.88,   697.25  L   686.26,   681.67 " /><text style="&st8;" transform="matrix(&st16;  693.23  689.46 )"><tspan x="0" style="&st18;" y="0">LB</tspan></text></a><a ewd:figtype="sp" style="cursor:pointer;" ewd:code="SP3" ewd:figID="20"><path style="&st2;" d=" M   114.73,   528.70  L   123.23,   528.70  L   127.48,   532.95  L   127.48,   541.44  L   123.23,   545.69  L   114.73,   545.69  L   110.48,   541.44  L   110.48,   532.95  L   114.73,   528.70 " /></a><a ewd:figtype="sp" style="cursor:pointer;" ewd:code="SP10" ewd:figID="21"><path style="&st2;" d=" M   386.69,   537.20  L   395.18,   537.20  L   399.43,   541.44  L   399.43,   549.94  L   395.18,   554.19  L   386.69,   554.19  L   382.44,   549.94  L   382.44,   541.44  L   386.69,   537.20 " /></a><a ewd:figtype="sp" style="cursor:pointer;" ewd:code="SP39" ewd:figID="22"><path style="&st2;" d=" M   692.63,   588.19  L   701.13,   588.19  L   705.38,   592.44  L   705.38,   600.93  L   701.13,   605.18  L   692.63,   605.18  L   688.38,   600.93  L   688.38,   592.44  L   692.63,   588.19 " /></a></g></svg>