﻿<?xml version="1.0" encoding="utf-8"?>
<!DOCTYPE svg PUBLIC "-//W3C//DTD SVG 1.0//EN" "http://www.w3.org/TR/2001/REC-SVG-20010904/DTD/svg10.dtd"[
	<!ENTITY ns_flows "http://ns.adobe.com/Flows/1.0/">
	<!ENTITY ns_svg "http://www.w3.org/2000/svg">
	<!ENTITY ns_xlink "http://www.w3.org/1999/xlink">
	<!ENTITY st0 "font-size:7px;font-family:'MS-PGothic';adobe-font-script:japanese;">
	<!ENTITY st1 "font-size:6px;font-family:'ArialMT';">
	<!-- White fill  -->
	<!ENTITY st2 "fill:#FFFFFF;stroke:#000000; stroke-width:1.41;stroke-linecap:round;stroke-linejoin:round;">
	<!-- Yellow fill  -->
	<!ENTITY st3 "fill:#FFFFCC;stroke:#FFFFCC; stroke-width:0.1;stroke-linecap:round;stroke-linejoin:round;">
	<!-- Gray fill  -->
	<!ENTITY st4 "fill:#CCCCCC;stroke:#CCCCCC; stroke-width:0.1;stroke-linecap:round;stroke-linejoin:round;">
	<!-- Light-blue fill -->
	<!ENTITY st5 "fill:#CCECF4;stroke:#000000; stroke-width:1.133;stroke-linecap:round;stroke-linejoin:round;">
	<!ENTITY st6 "fill:none;stroke-linecap:butt; stroke-linejoin:round;">
	<!ENTITY st7 "fill:none;stroke:#000000;stroke-linecap:round;stroke-linejoin:round;">
	<!ENTITY st8 "enable-background:new    ;">
	<!-- Black fill -->
	<!ENTITY st9 "fill:#000000;stroke:#000000; stroke-linecap:round;stroke-linejoin:round;">
	<!-- SRS note   -->
	<!ENTITY st10 "font-size:9px;font-family:'ArialMT';">
	<!ENTITY st11 "font-size:9px;font-family:'Svg Symbol';">
	<!ENTITY st12 "font-size:6px;font-family:'Svg Symbol';">
	<!ENTITY st13 "fill:none;stroke:#ff0000;stroke-linecap:round;stroke-linejoin:round;">
	<!-- Yellow fill  -->
	<!ENTITY st14 "fill:#FFFF00;stroke:#FFFF00; stroke-width:0.1;stroke-linecap:round;stroke-linejoin:round;">
	<!ENTITY st15 "font-size:6px;font-family:'MS-PGothic';adobe-font-script:japanese;">
	<!ENTITY st16 "1.00 0.00 0.00 1.00">
	<!ENTITY st17 "0.00 -1.00 1.00 0.00">
	<!ENTITY st18 "font-size:6px;font-family:'Arial';">
	<!ENTITY st19 "font-size:9px;font-family:'Arial';">
	<!ENTITY st20 "font-size:6px;font-family:'MS-PGothic','MS PGothic';adobe-font-script:japanese;">
	<!ENTITY st21 "font-size:7px;font-family:'MS-PGothic','MS PGothic';adobe-font-script:japanese;">
	<!ATTLIST svg
		xmlns:ewd CDATA #FIXED "http://shcl.co.jp/ewd"
		xmlns:a CDATA #FIXED "http://ns.adobe.com/AdobeSVGViewerExtensions/3.0/"
		ewd:ver CDATA #IMPLIED
	>
	<!ATTLIST a
		ewd:lineID CDATA #IMPLIED
		ewd:groupID CDATA #IMPLIED
		ewd:figtype CDATA #IMPLIED
		ewd:code CDATA #IMPLIED
		ewd:figID CDATA #IMPLIED
		ewd:pinNo CDATA #IMPLIED
		ewd:comment CDATA #IMPLIED >
	<!ATTLIST g
		ewd:lineID CDATA #IMPLIED
		ewd:groupID CDATA #IMPLIED
		ewd:figtype CDATA #IMPLIED
		ewd:code CDATA #IMPLIED
		ewd:figID CDATA #IMPLIED
		ewd:pinNo CDATA #IMPLIED
		ewd:comment CDATA #IMPLIED >
	<!ATTLIST text
		ewd:textID CDATA #IMPLIED >
	<!ATTLIST title
		ewd:textID CDATA #IMPLIED >
]>
<!-- Generator: Shintec Hozumi YS   -->
<svg onload="call_execInitLoadProc_svg('system')" style="overflow:visible;  enable-background:new 0 0 7111.895 710.000" viewBox="0 0 7111.895 710.000" height="710.000" width="7111.895" xml:space="preserve" ewd:ver="2.1.2.7" xmlns="&ns_svg;" xmlns:a="http://ns.adobe.com/AdobeSVGViewerExtensions/3.0/" xmlns:ewd="http://shcl.co.jp/ewd" xmlns:xlink="&ns_xlink;">
<path style="stroke-width: 1.42 ;&st7;  " d=" M  6900.85,   248.24  L  6892.35,   248.24  " /><text style="&st18;" transform="matrix(&st17;  6693.19  523.75 )">BR</text><text style="&st18;" transform="matrix(&st17;  6888.65  285.48 )">SB</text><text style="&st18;" transform="matrix(&st16;  6761.13  643.98 )">SB</text><text style="&st18;" transform="matrix(&st17;  6888.65  217.49 )">SB</text><text style="&st18;" transform="matrix(&st16;  6710.14  643.98 )">SB</text><text style="&st18;" transform="matrix(&st17;  6642.19  523.98 )">LG</text><text style="&st18;" transform="matrix(&st17;  6608.2  522.66 )">W</text><g ewd:figtype="conn" ewd:figID="2" ewd:code="z6"><path style="stroke-width: 1.42 ;&st7;  " d=" M  6978.75,   571.19  L  6956.09,   565.52  " /><path style="stroke-width: 0.85 ;&st7;  " d=" M  6985.83,   571.19  L  6981.58,   571.19  " /><path style="stroke-width: 0.85 ;&st7;  " d=" M  6956.09,   571.19  L  6951.84,   571.19  " /><path style="stroke-width: 1.42 ;&st7;  " d=" M  6978.75,   537.20  L  6956.09,   531.53  " /><path style="stroke-width: 0.85 ;&st7;  " d=" M  6985.83,   537.20  L  6981.58,   537.20  " /><path style="stroke-width: 0.85 ;&st7;  " d=" M  6956.09,   537.20  L  6951.84,   537.20  " /><path style="stroke-width: 1.42 ;&st7;  " d=" M  6978.75,   503.20  L  6956.09,   497.54  " /><path style="stroke-width: 0.85 ;&st7;  " d=" M  6985.83,   503.20  L  6981.58,   503.20  " /><path style="stroke-width: 0.85 ;&st7;  " d=" M  6956.09,   503.20  L  6951.84,   503.20  " /><path style="stroke-width: 1.42 ;&st7;  " d=" M  6978.75,   469.21  L  6956.09,   463.54  " /><path style="stroke-width: 0.85 ;&st7;  " d=" M  6985.83,   469.21  L  6981.58,   469.21  " /><path style="stroke-width: 0.85 ;&st7;  " d=" M  6956.09,   469.21  L  6951.84,   469.21  " /><path style="stroke-width: 0.85 ;&st7;   " d=" M  6981.58,   571.19  C  6981.58    570.41   6980.95    569.77   6980.17    569.77  " /><path style="stroke-width: 0.85 ;&st7;   " d=" M  6980.17,   569.77  C  6979.38    569.77   6978.75    570.41   6978.75    571.19  " /><path style="stroke-width: 0.85 ;&st7;   " d=" M  6978.75,   571.19  C  6978.75    571.97   6979.38    572.61   6980.17    572.61  " /><path style="stroke-width: 0.85 ;&st7;   " d=" M  6980.17,   572.61  C  6980.95    572.61   6981.58    571.97   6981.58    571.19  " /><path style="stroke-width: 0.85 ;&st7;   " d=" M  6958.92,   571.19  C  6958.92    570.41   6958.29    569.77   6957.50    569.77  " /><path style="stroke-width: 0.85 ;&st7;   " d=" M  6957.50,   569.77  C  6956.72    569.77   6956.09    570.41   6956.09    571.19  " /><path style="stroke-width: 0.85 ;&st7;   " d=" M  6956.09,   571.19  C  6956.09    571.97   6956.72    572.61   6957.50    572.61  " /><path style="stroke-width: 0.85 ;&st7;   " d=" M  6957.50,   572.61  C  6958.29    572.61   6958.92    571.97   6958.92    571.19  " /><path style="stroke-width: 0.85 ;&st7;   " d=" M  6981.58,   537.20  C  6981.58    536.41   6980.95    535.78   6980.17    535.78  " /><path style="stroke-width: 0.85 ;&st7;   " d=" M  6980.17,   535.78  C  6979.38    535.78   6978.75    536.41   6978.75    537.20  " /><path style="stroke-width: 0.85 ;&st7;   " d=" M  6978.75,   537.20  C  6978.75    537.98   6979.38    538.61   6980.17    538.61  " /><path style="stroke-width: 0.85 ;&st7;   " d=" M  6980.17,   538.61  C  6980.95    538.61   6981.58    537.98   6981.58    537.20  " /><path style="stroke-width: 0.85 ;&st7;   " d=" M  6958.92,   537.20  C  6958.92    536.41   6958.29    535.78   6957.50    535.78  " /><path style="stroke-width: 0.85 ;&st7;   " d=" M  6957.50,   535.78  C  6956.72    535.78   6956.09    536.41   6956.09    537.20  " /><path style="stroke-width: 0.85 ;&st7;   " d=" M  6956.09,   537.20  C  6956.09    537.98   6956.72    538.61   6957.50    538.61  " /><path style="stroke-width: 0.85 ;&st7;   " d=" M  6957.50,   538.61  C  6958.29    538.61   6958.92    537.98   6958.92    537.20  " /><path style="stroke-width: 0.85 ;&st7;   " d=" M  6981.58,   503.20  C  6981.58    502.42   6980.95    501.78   6980.17    501.78  " /><path style="stroke-width: 0.85 ;&st7;   " d=" M  6980.17,   501.78  C  6979.38    501.78   6978.75    502.42   6978.75    503.20  " /><path style="stroke-width: 0.85 ;&st7;   " d=" M  6978.75,   503.20  C  6978.75    503.98   6979.38    504.62   6980.17    504.62  " /><path style="stroke-width: 0.85 ;&st7;   " d=" M  6980.17,   504.62  C  6980.95    504.62   6981.58    503.98   6981.58    503.20  " /><path style="stroke-width: 0.85 ;&st7;   " d=" M  6958.92,   503.20  C  6958.92    502.42   6958.29    501.78   6957.50    501.78  " /><path style="stroke-width: 0.85 ;&st7;   " d=" M  6957.50,   501.78  C  6956.72    501.78   6956.09    502.42   6956.09    503.20  " /><path style="stroke-width: 0.85 ;&st7;   " d=" M  6956.09,   503.20  C  6956.09    503.98   6956.72    504.62   6957.50    504.62  " /><path style="stroke-width: 0.85 ;&st7;   " d=" M  6957.50,   504.62  C  6958.29    504.62   6958.92    503.98   6958.92    503.20  " /><path style="stroke-width: 0.85 ;&st7;   " d=" M  6981.58,   469.21  C  6981.58    468.42   6980.95    467.79   6980.17    467.79  " /><path style="stroke-width: 0.85 ;&st7;   " d=" M  6980.17,   467.79  C  6979.38    467.79   6978.75    468.42   6978.75    469.21  " /><path style="stroke-width: 0.85 ;&st7;   " d=" M  6978.75,   469.21  C  6978.75    469.99   6979.38    470.62   6980.17    470.62  " /><path style="stroke-width: 0.85 ;&st7;   " d=" M  6980.17,   470.62  C  6980.95    470.62   6981.58    469.99   6981.58    469.21  " /><path style="stroke-width: 0.85 ;&st7;   " d=" M  6958.92,   469.21  C  6958.92    468.42   6958.29    467.79   6957.50    467.79  " /><path style="stroke-width: 0.85 ;&st7;   " d=" M  6957.50,   467.79  C  6956.72    467.79   6956.09    468.42   6956.09    469.21  " /><path style="stroke-width: 0.85 ;&st7;   " d=" M  6956.09,   469.21  C  6956.09    469.99   6956.72    470.62   6957.50    470.62  " /><path style="stroke-width: 0.85 ;&st7;   " d=" M  6957.50,   470.62  C  6958.29    470.62   6958.92    469.99   6958.92    469.21  " /><path style="stroke-width: 1.42 ;&st7;  " d=" M  7045.32,   435.21  L  6875.35,   435.21  L  6875.35,   605.18  L  7045.32,   605.18  L  7045.32,   435.21  " /><path style="stroke-width: 0.85 ;&st7;  " d=" M  6985.83,   503.20  L  7011.33,   503.20  " /><path style="stroke-width: 0.85 ;&st7;  " d=" M  6985.83,   469.21  L  7011.33,   469.21  " /><path style="stroke-width: 0.85 ;&st7;  " d=" M  6985.83,   537.20  L  7011.33,   537.20  " /><path style="stroke-width: 0.85 ;&st7;  " d=" M  7010.13,   468.20  L  7009.86,   468.67  L  7009.77,   469.21  L  7009.86,   469.74  L  7010.13,   470.21  L  7010.55,   470.56  L  7011.06,   470.74  L  7011.59,   470.74  L  7012.10,   470.56  L  7012.52,   470.21  L  7012.79,   469.74  L  7012.88,   469.21  L  7012.79,   468.67  L  7012.52,   468.20  L  7012.10,   467.86  L  7011.59,   467.67  L  7011.06,   467.67  L  7010.55,   467.86  L  7010.13,   468.20  L  7010.53,   468.92  L  7010.53,   469.50  L  7010.90,   469.94  L  7011.47,   470.04  L  7011.98,   469.75  L  7012.18,   469.21  L  7011.98,   468.66  L  7011.47,   468.37  L  7010.90,   468.47  L  7011.33,   469.21  " /><path style="stroke-width: 0.85 ;&st7;  " d=" M  7010.13,   502.20  L  7009.86,   502.67  L  7009.77,   503.20  L  7009.86,   503.73  L  7010.13,   504.20  L  7010.55,   504.55  L  7011.06,   504.74  L  7011.59,   504.74  L  7012.10,   504.55  L  7012.52,   504.20  L  7012.79,   503.73  L  7012.88,   503.20  L  7012.79,   502.67  L  7012.52,   502.20  L  7012.10,   501.85  L  7011.59,   501.67  L  7011.06,   501.67  L  7010.55,   501.85  L  7010.13,   502.20  L  7010.53,   502.91  L  7010.53,   503.49  L  7010.90,   503.94  L  7011.47,   504.04  L  7011.98,   503.75  L  7012.18,   503.20  L  7011.98,   502.65  L  7011.47,   502.37  L  7010.90,   502.46  L  7011.33,   503.20  " /><path style="stroke-width: 0.85 ;&st7;  " d=" M  7010.13,   536.19  L  7009.86,   536.66  L  7009.77,   537.20  L  7009.86,   537.73  L  7010.13,   538.20  L  7010.55,   538.54  L  7011.06,   538.73  L  7011.59,   538.73  L  7012.10,   538.54  L  7012.52,   538.20  L  7012.79,   537.73  L  7012.88,   537.20  L  7012.79,   536.66  L  7012.52,   536.19  L  7012.10,   535.85  L  7011.59,   535.66  L  7011.06,   535.66  L  7010.55,   535.85  L  7010.13,   536.19  L  7010.53,   536.90  L  7010.53,   537.49  L  7010.90,   537.93  L  7011.47,   538.03  L  7011.98,   537.74  L  7012.18,   537.20  L  7011.98,   536.65  L  7011.47,   536.36  L  7010.90,   536.46  L  7011.33,   537.20  " /><path style="stroke-width: 0.85 ;&st7;  " d=" M  6951.84,   469.21  L  6926.34,   469.21  " /><path style="stroke-width: 0.85 ;&st7;  " d=" M  6926.34,   503.20  L  6926.34,   494.70  L  6923.51,   493.29  L  6929.17,   490.45  L  6923.51,   487.62  L  6929.17,   484.79  L  6923.51,   481.95  L  6929.17,   479.12  L  6926.34,   477.71  L  6926.34,   469.21  " /><path style="stroke-width: 0.85 ;&st7;  " d=" M  6926.34,   537.20  L  6926.34,   528.70  L  6923.51,   527.28  L  6929.17,   524.45  L  6923.51,   521.61  L  6929.17,   518.78  L  6923.51,   515.95  L  6929.17,   513.12  L  6926.34,   511.70  L  6926.34,   503.20  " /><path style="stroke-width: 0.85 ;&st7;  " d=" M  6926.34,   571.19  L  6926.34,   562.69  L  6923.51,   561.27  L  6929.17,   558.44  L  6923.51,   555.61  L  6929.17,   552.78  L  6923.51,   549.94  L  6929.17,   547.11  L  6926.34,   545.69  L  6926.34,   537.20  " /><path style="stroke-width: 0.85 ;&st7;  " d=" M  6925.15,   570.19  L  6924.88,   570.66  L  6924.78,   571.19  L  6924.88,   571.72  L  6925.15,   572.19  L  6925.56,   572.54  L  6926.07,   572.73  L  6926.61,   572.73  L  6927.12,   572.54  L  6927.53,   572.19  L  6927.80,   571.72  L  6927.90,   571.19  L  6927.80,   570.66  L  6927.53,   570.19  L  6927.12,   569.84  L  6926.61,   569.65  L  6926.07,   569.65  L  6925.56,   569.84  L  6925.15,   570.19  L  6925.54,   570.90  L  6925.54,   571.48  L  6925.91,   571.93  L  6926.49,   572.03  L  6926.99,   571.74  L  6927.19,   571.19  L  6926.99,   570.64  L  6926.49,   570.35  L  6925.91,   570.45  L  6926.34,   571.19  " /><path style="stroke-width: 0.85 ;&st7;  " d=" M  6925.15,   536.19  L  6924.88,   536.66  L  6924.78,   537.20  L  6924.88,   537.73  L  6925.15,   538.20  L  6925.56,   538.54  L  6926.07,   538.73  L  6926.61,   538.73  L  6927.12,   538.54  L  6927.53,   538.20  L  6927.80,   537.73  L  6927.90,   537.20  L  6927.80,   536.66  L  6927.53,   536.19  L  6927.12,   535.85  L  6926.61,   535.66  L  6926.07,   535.66  L  6925.56,   535.85  L  6925.15,   536.19  L  6925.54,   536.90  L  6925.54,   537.49  L  6925.91,   537.93  L  6926.49,   538.03  L  6926.99,   537.74  L  6927.19,   537.20  L  6926.99,   536.65  L  6926.49,   536.36  L  6925.91,   536.46  L  6926.34,   537.20  " /><path style="stroke-width: 0.85 ;&st7;  " d=" M  6925.15,   502.20  L  6924.88,   502.67  L  6924.78,   503.20  L  6924.88,   503.73  L  6925.15,   504.20  L  6925.56,   504.55  L  6926.07,   504.74  L  6926.61,   504.74  L  6927.12,   504.55  L  6927.53,   504.20  L  6927.80,   503.73  L  6927.90,   503.20  L  6927.80,   502.67  L  6927.53,   502.20  L  6927.12,   501.85  L  6926.61,   501.67  L  6926.07,   501.67  L  6925.56,   501.85  L  6925.15,   502.20  L  6925.54,   502.91  L  6925.54,   503.49  L  6925.91,   503.94  L  6926.49,   504.04  L  6926.99,   503.75  L  6927.19,   503.20  L  6926.99,   502.65  L  6926.49,   502.37  L  6925.91,   502.46  L  6926.34,   503.20  " /><path style="stroke-width: 0.85 ;&st7;  " d=" M  6926.34,   503.20  L  6951.84,   503.20  " /><path style="stroke-width: 0.85 ;&st7;  " d=" M  6926.34,   537.20  L  6951.84,   537.20  " /><path style="stroke-width: 0.85 ;&st7;  " d=" M  6951.84,   571.19  L  6892.35,   571.19  L  6892.35,   435.21  " /><path style="stroke-width: 0.85 ;&st7;  " d=" M  7011.33,   435.21  L  7011.33,   571.19  L  6985.83,   571.19  " /><text style="&st18;" transform="matrix(&st16;  6960.75  512.25 )">- SET</text><text style="&st18;" transform="matrix(&st16;  6960.83  546.25 )">+ RES</text><text style="&st18;" transform="matrix(&st16;  6956.53  580.24 )">ON-OFF</text><text style="&st18;" transform="matrix(&st16;  6956.45  478.26 )">CANCEL</text><text style="&st18;" transform="matrix(&st16;  6894.93  443.41 )">CCS</text><text style="&st18;" transform="matrix(&st16;  7013.91  443.41 )">ECC</text><text style="&st18;" transform="matrix(&st16;  7002.63  432.65 )">1</text><path style="stroke-width: 1.42 ;&st7;   " d=" M  7015.86,   430.68  C  7015.86    428.18   7013.83    426.15   7011.33    426.15  " /><path style="stroke-width: 1.42 ;&st7;   " d=" M  7011.33,   426.15  C  7008.83    426.15   7006.80    428.18   7006.80    430.68  " /><path style="stroke-width: 1.42 ;&st7;   " d=" M  7006.80,   430.68  C  7006.80    433.18   7008.83    435.21   7011.33    435.21  " /><path style="stroke-width: 1.42 ;&st7;   " d=" M  7011.33,   435.21  C  7013.83    435.21   7015.86    433.18   7015.86    430.68  " /><text style="&st18;" transform="matrix(&st16;  7008.87  432.65 )">G</text><path style="stroke-width: 1.42 ;&st7;   " d=" M  6896.88,   430.68  C  6896.88    428.18   6894.85    426.15   6892.35    426.15  " /><path style="stroke-width: 1.42 ;&st7;   " d=" M  6892.35,   426.15  C  6889.85    426.15   6887.82    428.18   6887.82    430.68  " /><path style="stroke-width: 1.42 ;&st7;   " d=" M  6887.82,   430.68  C  6887.82    433.18   6889.85    435.21   6892.35    435.21  " /><path style="stroke-width: 1.42 ;&st7;   " d=" M  6892.35,   435.21  C  6894.85    435.21   6896.88    433.18   6896.88    430.68  " /><text style="&st18;" transform="matrix(&st16;  6883.65  432.65 )">3</text><text style="&st18;" transform="matrix(&st16;  6889.89  432.65 )">G</text><g ewd:figtype="title"><text style="&st18;" transform="matrix(&st16;  6871.94  612.79 )">z6(G)</text><text style="&st18;" transform="matrix(&st16;  6871.95  619.9 )" ewd:textID="22">Cruise Control Main Switch</text></g></g><g ewd:figtype="conn" ewd:figID="5" ewd:code="E8,z4"><path style="stroke-width: 0.85 ;&st7;  " d=" M  7011.33,   350.23  L  7011.33,   316.23  " /><path style="stroke-width: 0.85 ;&st7;  " d=" M  6892.35,   316.23  L  6892.35,   350.23  " /><text style="&st18;" transform="matrix(&st16;  6894.93  324.43 )">CCS</text><text style="&st18;" transform="matrix(&st16;  7013.91  324.43 )">ECC</text><path style="stroke-width: 1.42 ;&st7;  " d=" M  6875.35,   316.23  L  7045.32,   316.23  L  7045.32,   350.23  L  6875.35,   350.23  L  6875.35,   316.23  " /><text style="&st18;" transform="matrix(&st16;  6883.65  313.67 )">1</text><text style="&st18;" transform="matrix(&st16;  6890.04  313.67 )">A</text><path style="stroke-width: 1.42 ;&st7;   " d=" M  6896.88,   311.70  C  6896.88    309.20   6894.85    307.17   6892.35    307.17  " /><path style="stroke-width: 1.42 ;&st7;   " d=" M  6892.35,   307.17  C  6889.85    307.17   6887.82    309.20   6887.82    311.70  " /><path style="stroke-width: 1.42 ;&st7;   " d=" M  6887.82,   311.70  C  6887.82    314.20   6889.85    316.23   6892.35    316.23  " /><path style="stroke-width: 1.42 ;&st7;   " d=" M  6892.35,   316.23  C  6894.85    316.23   6896.88    314.20   6896.88    311.70  " /><text style="&st18;" transform="matrix(&st16;  7002.63  313.67 )">2</text><text style="&st18;" transform="matrix(&st16;  7009.02  313.67 )">A</text><path style="stroke-width: 1.42 ;&st7;   " d=" M  7015.86,   311.70  C  7015.86    309.20   7013.83    307.17   7011.33    307.17  " /><path style="stroke-width: 1.42 ;&st7;   " d=" M  7011.33,   307.17  C  7008.83    307.17   7006.80    309.20   7006.80    311.70  " /><path style="stroke-width: 1.42 ;&st7;   " d=" M  7006.80,   311.70  C  7006.80    314.20   7008.83    316.23   7011.33    316.23  " /><path style="stroke-width: 1.42 ;&st7;   " d=" M  7011.33,   316.23  C  7013.83    316.23   7015.86    314.20   7015.86    311.70  " /><path style="stroke-width: 1.42 ;&st7;   " d=" M  6896.88,   354.76  C  6896.88    352.26   6894.85    350.23   6892.35    350.23  " /><path style="stroke-width: 1.42 ;&st7;   " d=" M  6892.35,   350.23  C  6889.85    350.23   6887.82    352.26   6887.82    354.76  " /><path style="stroke-width: 1.42 ;&st7;   " d=" M  6887.82,   354.76  C  6887.82    357.26   6889.85    359.29   6892.35    359.29  " /><path style="stroke-width: 1.42 ;&st7;   " d=" M  6892.35,   359.29  C  6894.85    359.29   6896.88    357.26   6896.88    354.76  " /><text style="&st18;" transform="matrix(&st16;  6883.65  356.73 )">3</text><text style="&st18;" transform="matrix(&st16;  6889.97  356.73 )">D</text><path style="stroke-width: 1.42 ;&st7;   " d=" M  7015.86,   354.76  C  7015.86    352.26   7013.83    350.23   7011.33    350.23  " /><path style="stroke-width: 1.42 ;&st7;   " d=" M  7011.33,   350.23  C  7008.83    350.23   7006.80    352.26   7006.80    354.76  " /><path style="stroke-width: 1.42 ;&st7;   " d=" M  7006.80,   354.76  C  7006.80    357.26   7008.83    359.29   7011.33    359.29  " /><path style="stroke-width: 1.42 ;&st7;   " d=" M  7011.33,   359.29  C  7013.83    359.29   7015.86    357.26   7015.86    354.76  " /><text style="&st18;" transform="matrix(&st16;  7008.95  356.73 )">D</text><text style="&st18;" transform="matrix(&st16;  7002.63  356.73 )">4</text><g ewd:figtype="title"><text style="&st18;" transform="matrix(&st17;  6871.66  353.13 )" ewd:textID="67">Spiral Cable Sub-Assembly</text><text style="&st18;" transform="matrix(&st17;  6864.83  353.13 )">E8(A),z4(D)</text></g></g><g ewd:figtype="conn" ewd:figID="53" ewd:code="z4,z6"><path style="stroke:#FF0000;stroke-width: 5.10 ;&st6;" d=" M  6892.35,   359.29  L  6892.35,   426.15  " /><path style="stroke:#000000;stroke-width: 5.10 ;&st6;" d=" M  7011.33,   359.29  L  7011.33,   426.15  " /><path style="stroke-width: 1.42 ;&st7;  " d=" M  6875.35,   359.29  L  6875.35,   426.15  L  7045.32,   426.15  L  7045.32,   359.29  L  6875.35,   359.29  " /><text style="&st18;" transform="matrix(&st17;  7007.63  394.41 )">B</text><text style="&st18;" transform="matrix(&st17;  6888.65  394.33 )">R</text><g ewd:figtype="title"><text style="&st18;" transform="matrix(&st17;  7052.93  430.18 )">z4(D),z6(G)</text><text style="&st18;" transform="matrix(&st17;  7060.04  430.19 )" ewd:textID="24">Cruise Control <tspan x="0 " dy="6.0">Switch Wire</tspan></text></g></g><g ewd:figtype="rb" ewd:figID="58" ewd:code="FUSE3"><path style="stroke-width: 1.42 ;&st7;  " d=" M  6529.03,    95.27  L  6524.78,    95.27  " /><path style="stroke-width: 1.42 ;&st7;  " d=" M  6529.03,   103.77  L  6524.78,   103.77  " /><path style="stroke-width: 1.42 ;&st7;   " d=" M  6524.78,    95.27  C  6522.44     95.27   6520.54     97.17   6520.54     99.52  " /><path style="stroke-width: 1.42 ;&st7;   " d=" M  6520.54,    99.52  C  6520.54    101.87   6522.44    103.77   6524.78    103.77  " /><path style="stroke-width: 1.42 ;&st7;   " d=" M  6529.03,   103.77  C  6531.38    103.77   6533.28    101.87   6533.28     99.52  " /><path style="stroke-width: 1.42 ;&st7;   " d=" M  6533.28,    99.52  C  6533.28     97.17   6531.38     95.27   6529.03     95.27  " /><path style="stroke-width: 0.28 ;&st9;  " d=" M  6526.91,    90.37  L  6524.07,    87.54  L  6524.07,    91.79  L  6526.91,    94.62  L  6529.74,    91.79  L  6529.74,    87.54  L  6526.91,    90.37  " /><text style="&st18;" transform="matrix(&st16;  6543.33  53.34 )">7.5A <tspan x="0 " dy="6.0">ECU-B </tspan><tspan x="0 " dy="6.0">NO.2</tspan></text><text style="&st18;" transform="matrix(&st16;  6525.11  101.49 )">1</text><text style="&st18;" transform="matrix(&st16;  6520.73  86.47 )">2</text><text style="&st18;" transform="matrix(&st16;  6518.87  32.08 )">(BAT)</text><path style="stroke-width: 0.85 ;&st7;  " d=" M  6526.91,    78.27  L  6526.91,    95.27  " /><path style="stroke-width: 0.85 ;&st7;  " d=" M  6526.91,    69.77  L  6526.91,    78.27  " /><path style="stroke-width: 1.42 ;&st7;   " d=" M  6526.91,    66.94  C  6529.65     65.33   6530.56     61.80   6528.95     59.06  " /><path style="stroke-width: 1.42 ;&st7;   " d=" M  6528.95,    59.06  C  6528.43     58.18   6527.79     57.55   6526.91     57.03  " /><path style="stroke-width: 0.85 ;&st7;   " d=" M  6528.33,    45.69  C  6528.33     44.91   6527.69     44.28   6526.91     44.28  " /><path style="stroke-width: 0.85 ;&st7;   " d=" M  6526.91,    44.28  C  6526.13     44.28   6525.49     44.91   6525.49     45.69  " /><path style="stroke-width: 0.85 ;&st7;   " d=" M  6525.49,    45.69  C  6525.49     46.48   6526.13     47.11   6526.91     47.11  " /><path style="stroke-width: 0.85 ;&st7;   " d=" M  6526.91,    47.11  C  6527.69     47.11   6528.33     46.48   6528.33     45.69  " /><path style="stroke-width: 0.85 ;&st7;   " d=" M  6528.33,    68.36  C  6528.33     67.57   6527.69     66.94   6526.91     66.94  " /><path style="stroke-width: 0.85 ;&st7;   " d=" M  6526.91,    66.94  C  6526.13     66.94   6525.49     67.57   6525.49     68.36  " /><path style="stroke-width: 0.85 ;&st7;   " d=" M  6525.49,    68.36  C  6525.49     69.14   6526.13     69.77   6526.91     69.77  " /><path style="stroke-width: 0.85 ;&st7;   " d=" M  6526.91,    69.77  C  6527.69     69.77   6528.33     69.14   6528.33     68.36  " /><path style="stroke-width: 1.42 ;&st7;   " d=" M  6526.91,    47.11  C  6524.17     48.72   6523.26     52.25   6524.87     54.99  " /><path style="stroke-width: 1.42 ;&st7;   " d=" M  6524.87,    54.99  C  6525.39     55.87   6526.03     56.51   6526.91     57.03  " /><path style="stroke-width: 1.42 ;&st7;  " d=" M  6514.16,    35.78  L  6514.16,    78.27  L  6539.65,    78.27  L  6539.65,    35.78  L  6514.16,    35.78  " /></g><g ewd:figtype="w2w" ewd:figID="167" ewd:code="AE3"><path style="stroke-width: 1.42 ;&st7;  " d=" M  6896.59,   257.31  L  6892.35,   253.06  L  6888.10,   257.31  " /><path style="stroke-width: 1.42 ;&st7;  " d=" M  6896.59,   253.91  L  6892.35,   249.66  L  6888.10,   253.91  " /><text style="&st18;" transform="matrix(&st16;  6879.72  245.96 )">6</text></g><g ewd:figtype="gp" ewd:figID="177" ewd:code="ED"><path style="stroke-width: 0.85 ;&st7;  " d=" M  6696.88,   697.25  L  6696.88,   701.50  " /><path style="stroke-width: 0.85 ;&st7;  " d=" M  6688.38,   701.50  L  6705.38,   701.50  " /><path style="stroke-width: 0.85 ;&st7;  " d=" M  6692.63,   704.33  L  6701.13,   704.33  " /><path style="stroke-width: 0.85 ;&st7;  " d=" M  6694.05,   707.17  L  6699.71,   707.17  " /><path style="stroke-width: 0.85 ;&st7;  " d=" M  6695.46,   710.00  L  6698.29,   710.00  " /></g></svg>