﻿<?xml version="1.0" encoding="utf-8"?>
<!DOCTYPE svg PUBLIC "-//W3C//DTD SVG 1.0//EN" "http://www.w3.org/TR/2001/REC-SVG-20010904/DTD/svg10.dtd"[
	<!ENTITY ns_flows "http://ns.adobe.com/Flows/1.0/">
	<!ENTITY ns_svg "http://www.w3.org/2000/svg">
	<!ENTITY ns_xlink "http://www.w3.org/1999/xlink">
	<!ENTITY st0 "font-size:7px;font-family:'MS-PGothic';adobe-font-script:japanese;">
	<!ENTITY st1 "font-size:6px;font-family:'ArialMT';">
	<!-- White fill  -->
	<!ENTITY st2 "fill:#FFFFFF;stroke:#000000; stroke-width:1.41;stroke-linecap:round;stroke-linejoin:round;">
	<!-- Yellow fill  -->
	<!ENTITY st3 "fill:#FFFFCC;stroke:#FFFFCC; stroke-width:0.1;stroke-linecap:round;stroke-linejoin:round;">
	<!-- Gray fill  -->
	<!ENTITY st4 "fill:#CCCCCC;stroke:#CCCCCC; stroke-width:0.1;stroke-linecap:round;stroke-linejoin:round;">
	<!-- Light-blue fill -->
	<!ENTITY st5 "fill:#CCECF4;stroke:#000000; stroke-width:1.133;stroke-linecap:round;stroke-linejoin:round;">
	<!ENTITY st6 "fill:none;stroke-linecap:butt; stroke-linejoin:round;">
	<!ENTITY st7 "fill:none;stroke:#000000;stroke-linecap:round;stroke-linejoin:round;">
	<!ENTITY st8 "enable-background:new    ;">
	<!-- Black fill -->
	<!ENTITY st9 "fill:#000000;stroke:#000000; stroke-linecap:round;stroke-linejoin:round;">
	<!-- SRS note   -->
	<!ENTITY st10 "font-size:9px;font-family:'ArialMT';">
	<!ENTITY st11 "font-size:9px;font-family:'Svg Symbol';">
	<!ENTITY st12 "font-size:6px;font-family:'Svg Symbol';">
	<!ENTITY st13 "fill:none;stroke:#ff0000;stroke-linecap:round;stroke-linejoin:round;">
	<!-- Yellow fill  -->
	<!ENTITY st14 "fill:#FFFF00;stroke:#FFFF00; stroke-width:0.1;stroke-linecap:round;stroke-linejoin:round;">
	<!ENTITY st15 "font-size:6px;font-family:'MS-PGothic';adobe-font-script:japanese;">
	<!ENTITY st16 "1.00 0.00 0.00 1.00">
	<!ENTITY st17 "0.00 -1.00 1.00 0.00">
	<!ENTITY st18 "font-size:6px;font-family:'Arial';">
	<!ENTITY st19 "font-size:9px;font-family:'Arial';">
	<!ENTITY st20 "font-size:6px;font-family:'MS-PGothic','MS PGothic';adobe-font-script:japanese;">
	<!ENTITY st21 "font-size:7px;font-family:'MS-PGothic','MS PGothic';adobe-font-script:japanese;">
	<!ATTLIST svg
		xmlns:ewd CDATA #FIXED "http://shcl.co.jp/ewd"
		xmlns:a CDATA #FIXED "http://ns.adobe.com/AdobeSVGViewerExtensions/3.0/"
		ewd:ver CDATA #IMPLIED
	>
	<!ATTLIST a
		ewd:lineID CDATA #IMPLIED
		ewd:groupID CDATA #IMPLIED
		ewd:figtype CDATA #IMPLIED
		ewd:code CDATA #IMPLIED
		ewd:figID CDATA #IMPLIED
		ewd:pinNo CDATA #IMPLIED
		ewd:comment CDATA #IMPLIED >
	<!ATTLIST g
		ewd:lineID CDATA #IMPLIED
		ewd:groupID CDATA #IMPLIED
		ewd:figtype CDATA #IMPLIED
		ewd:code CDATA #IMPLIED
		ewd:figID CDATA #IMPLIED
		ewd:pinNo CDATA #IMPLIED
		ewd:comment CDATA #IMPLIED >
	<!ATTLIST text
		ewd:textID CDATA #IMPLIED >
	<!ATTLIST title
		ewd:textID CDATA #IMPLIED >
]>
<!-- Generator: Shintec Hozumi YS   -->
<svg onload="call_execInitLoadProc_svg('system')" style="overflow:visible;  enable-background:new 0 0 9829.629 710.000" viewBox="0 0 9829.629 710.000" height="710.000" width="9829.629" xml:space="preserve" ewd:ver="2.1.2.7" xmlns="&ns_svg;" xmlns:a="http://ns.adobe.com/AdobeSVGViewerExtensions/3.0/" xmlns:ewd="http://shcl.co.jp/ewd" xmlns:xlink="&ns_xlink;">
<path style="stroke-width: 1.42 ;&st7;  " d=" M   152.97,   307.73  L   161.47,   307.73  " /><path style="stroke-width: 1.42 ;&st7;  " d=" M   407.93,   409.72  L   416.43,   409.72  " /><text style="&st18;" transform="matrix(&st16;  176.4  278.54 )">L</text><text style="&st18;" transform="matrix(&st17;  424.07  498.05 )">(*11,*21)</text><text style="&st18;" transform="matrix(&st17;  412.73  489.99 )">LG</text><text style="&st18;" transform="matrix(&st17;  424.07  345.08 )">(*11,*21)</text><text style="&st18;" transform="matrix(&st17;  412.73  337.01 )">LG</text><text style="&st18;" transform="matrix(&st17;  157.78  343.3 )">L</text><text style="&st18;" transform="matrix(&st17;  200.27  140.23 )">W</text><text style="&st18;" transform="matrix(&st17;  38.8  440.31 )">B-R</text><text style="&st18;" transform="matrix(&st17;  225.77  339.18 )">W-B</text><text style="&st18;" transform="matrix(&st17;  225.77  662.13 )">W-B</text><text style="&st18;" transform="matrix(&st17;  319.25  192.54 )">LG</text><text style="&st18;" transform="matrix(&st17;  466.56  337.94 )">(*7)</text><text style="&st18;" transform="matrix(&st17;  455.23  337.01 )">LG</text><text style="&st18;" transform="matrix(&st17;  319.25  335.19 )">G</text><text style="&st18;" transform="matrix(&st17;  38.8  672.26 )">B-DG</text><text style="&st18;" transform="matrix(&st17;  98.29  672.26 )">B-DG</text><path style="stroke-width: 1.42 ;&st7;  " d=" M   225.93,   562.69  L   220.96,   567.66  " /><path style="stroke-width: 1.42 ;&st7;  " d=" M   232.99,   579.69  L   237.96,   574.72  " /><path style="stroke-width: 1.42 ;&st7;  " d=" M   220.96,   574.72  L   225.93,   579.69  " /><path style="stroke-width: 1.42 ;&st7;  " d=" M   237.96,   567.66  L   232.99,   562.69  " /><text style="&st18;" transform="matrix(&st16;  488.64  550.5 )">LG</text><text style="&st18;" transform="matrix(&st16;  480.57  561.83 )">(*11,*21)</text><text style="&st18;" transform="matrix(&st16;  490.46  601.49 )">G</text><text style="&st18;" transform="matrix(&st16;  489.95  457.01 )">W</text><text style="&st18;" transform="matrix(&st16;  487.71  468.34 )">(*7)</text><text style="&st18;" transform="matrix(&st16;  490.85  168.06 )">L</text><g ewd:figtype="conn" ewd:figID="18" ewd:code="A4"><path style="stroke-width: 1.42 ;&st7;  " d=" M   458.92,   399.80  L   464.59,   422.46  " /><path style="stroke-width: 0.85 ;&st7;  " d=" M   458.92,   426.71  L   458.92,   422.46  " /><path style="stroke-width: 0.85 ;&st7;  " d=" M   458.92,   396.97  L   458.92,   392.72  " /><path style="stroke-width: 0.85 ;&st7;   " d=" M   460.34,   421.05  C   460.34    420.27    459.71    419.63    458.92    419.63  " /><path style="stroke-width: 0.85 ;&st7;   " d=" M   458.92,   419.63  C   458.14    419.63    457.51    420.27    457.51    421.05  " /><path style="stroke-width: 0.85 ;&st7;   " d=" M   457.51,   421.05  C   457.51    421.83    458.14    422.46    458.92    422.46  " /><path style="stroke-width: 0.85 ;&st7;   " d=" M   458.92,   422.46  C   459.71    422.46    460.34    421.83    460.34    421.05  " /><path style="stroke-width: 0.85 ;&st7;   " d=" M   460.34,   398.39  C   460.34    397.60    459.71    396.97    458.92    396.97  " /><path style="stroke-width: 0.85 ;&st7;   " d=" M   458.92,   396.97  C   458.14    396.97    457.51    397.60    457.51    398.39  " /><path style="stroke-width: 0.85 ;&st7;   " d=" M   457.51,   398.39  C   457.51    399.17    458.14    399.80    458.92    399.80  " /><path style="stroke-width: 0.85 ;&st7;   " d=" M   458.92,   399.80  C   459.71    399.80    460.34    399.17    460.34    398.39  " /><path style="stroke-width: 1.42 ;&st7;  " d=" M   467.42,   426.71  L   467.42,   392.72  L   450.42,   392.72  L   450.42,   426.71  L   467.42,   426.71  " /><text style="&st18;" transform="matrix(&st16;  452.74  389.03 )">1</text><text style="&st18;" transform="matrix(&st16;  452.74  434.91 )">2</text><g ewd:figtype="title"><text style="&st18;" transform="matrix(&st17;  482.14  429.62 )" ewd:textID="17">Clutch Start <tspan x="0 " dy="6.0">Switch Assembly</tspan></text><text style="&st18;" transform="matrix(&st17;  475.03  429.61 )">A4</text></g></g><g ewd:figtype="rb" ewd:figID="19" ewd:code="FUSE28"><path style="stroke-width: 1.42 ;&st7;  " d=" M   206.09,    95.27  L   201.84,    95.27  " /><path style="stroke-width: 1.42 ;&st7;  " d=" M   206.09,   103.77  L   201.84,   103.77  " /><path style="stroke-width: 1.42 ;&st7;   " d=" M   201.84,    95.27  C   199.49     95.27    197.59     97.17    197.59     99.52  " /><path style="stroke-width: 1.42 ;&st7;   " d=" M   197.59,    99.52  C   197.59    101.87    199.49    103.77    201.84    103.77  " /><path style="stroke-width: 1.42 ;&st7;   " d=" M   206.09,   103.77  C   208.44    103.77    210.34    101.87    210.34     99.52  " /><path style="stroke-width: 1.42 ;&st7;   " d=" M   210.34,    99.52  C   210.34     97.17    208.44     95.27    206.09     95.27  " /><path style="stroke-width: 0.28 ;&st9;  " d=" M   203.97,    90.37  L   201.13,    87.54  L   201.13,    91.79  L   203.97,    94.62  L   206.80,    91.79  L   206.80,    87.54  L   203.97,    90.37  " /><text style="&st18;" transform="matrix(&st16;  220.39  56.17 )">30A <tspan x="0 " dy="6.0">ST</tspan></text><text style="&st18;" transform="matrix(&st16;  202.17  101.49 )">1</text><text style="&st18;" transform="matrix(&st16;  197.78  86.47 )">2</text><text style="&st18;" transform="matrix(&st16;  195.92  32.08 )">(BAT)</text><path style="stroke-width: 0.85 ;&st7;  " d=" M   203.97,    78.27  L   203.97,    95.27  " /><path style="stroke-width: 0.85 ;&st7;  " d=" M   203.97,    69.77  L   203.97,    78.27  " /><path style="stroke-width: 1.42 ;&st7;   " d=" M   203.97,    47.11  C   201.23     48.72    200.32     52.25    201.93     54.99  " /><path style="stroke-width: 1.42 ;&st7;   " d=" M   201.93,    54.99  C   202.45     55.87    203.08     56.51    203.97     57.03  " /><path style="stroke-width: 1.42 ;&st7;   " d=" M   203.97,    66.94  C   206.70     65.33    207.62     61.80    206.00     59.06  " /><path style="stroke-width: 1.42 ;&st7;   " d=" M   206.00,    59.06  C   205.48     58.18    204.85     57.55    203.97     57.03  " /><path style="stroke-width: 0.85 ;&st7;   " d=" M   205.38,    45.69  C   205.38     44.91    204.75     44.28    203.97     44.28  " /><path style="stroke-width: 0.85 ;&st7;   " d=" M   203.97,    44.28  C   203.18     44.28    202.55     44.91    202.55     45.69  " /><path style="stroke-width: 0.85 ;&st7;   " d=" M   202.55,    45.69  C   202.55     46.48    203.18     47.11    203.97     47.11  " /><path style="stroke-width: 0.85 ;&st7;   " d=" M   203.97,    47.11  C   204.75     47.11    205.38     46.48    205.38     45.69  " /><path style="stroke-width: 0.85 ;&st7;   " d=" M   205.38,    68.36  C   205.38     67.57    204.75     66.94    203.97     66.94  " /><path style="stroke-width: 0.85 ;&st7;   " d=" M   203.97,    66.94  C   203.18     66.94    202.55     67.57    202.55     68.36  " /><path style="stroke-width: 0.85 ;&st7;   " d=" M   202.55,    68.36  C   202.55     69.14    203.18     69.77    203.97     69.77  " /><path style="stroke-width: 0.85 ;&st7;   " d=" M   203.97,    69.77  C   204.75     69.77    205.38     69.14    205.38     68.36  " /><path style="stroke-width: 1.42 ;&st7;  " d=" M   191.22,    35.78  L   191.22,    78.27  L   216.71,    78.27  L   216.71,    35.78  L   191.22,    35.78  " /></g><g ewd:figtype="rb" ewd:figID="21" ewd:code="1"><path style="stroke-width: 1.42 ;&st7;  " d=" M   206.09,   171.76  L   201.84,   171.76  " /><path style="stroke-width: 1.42 ;&st7;  " d=" M   206.09,   180.26  L   201.84,   180.26  " /><path style="stroke-width: 1.42 ;&st7;  " d=" M   231.59,   171.76  L   227.34,   171.76  " /><path style="stroke-width: 1.42 ;&st7;  " d=" M   231.59,   180.26  L   227.34,   180.26  " /><path style="stroke-width: 1.42 ;&st7;  " d=" M   206.09,   248.24  L   201.84,   248.24  " /><path style="stroke-width: 1.42 ;&st7;  " d=" M   206.09,   256.74  L   201.84,   256.74  " /><path style="stroke-width: 1.42 ;&st7;  " d=" M   231.59,   248.24  L   227.34,   248.24  " /><path style="stroke-width: 1.42 ;&st7;  " d=" M   231.59,   256.74  L   227.34,   256.74  " /><path style="stroke-width: 1.42 ;&st7;   " d=" M   231.59,   180.26  C   233.93    180.26    235.84    178.35    235.84    176.01  " /><path style="stroke-width: 1.42 ;&st7;   " d=" M   201.84,   171.76  C   199.49    171.76    197.59    173.66    197.59    176.01  " /><path style="stroke-width: 1.42 ;&st7;   " d=" M   197.59,   176.01  C   197.59    178.35    199.49    180.26    201.84    180.26  " /><path style="stroke-width: 1.42 ;&st7;   " d=" M   206.09,   180.26  C   208.44    180.26    210.34    178.35    210.34    176.01  " /><path style="stroke-width: 1.42 ;&st7;   " d=" M   210.34,   176.01  C   210.34    173.66    208.44    171.76    206.09    171.76  " /><path style="stroke-width: 1.42 ;&st7;   " d=" M   227.34,   171.76  C   224.99    171.76    223.09    173.66    223.09    176.01  " /><path style="stroke-width: 1.42 ;&st7;   " d=" M   223.09,   176.01  C   223.09    178.35    224.99    180.26    227.34    180.26  " /><path style="stroke-width: 1.42 ;&st7;   " d=" M   235.84,   176.01  C   235.84    173.66    233.93    171.76    231.59    171.76  " /><path style="stroke-width: 1.42 ;&st7;   " d=" M   201.84,   248.24  C   199.49    248.24    197.59    250.15    197.59    252.49  " /><path style="stroke-width: 1.42 ;&st7;   " d=" M   197.59,   252.49  C   197.59    254.84    199.49    256.74    201.84    256.74  " /><path style="stroke-width: 1.42 ;&st7;   " d=" M   206.09,   256.74  C   208.44    256.74    210.34    254.84    210.34    252.49  " /><path style="stroke-width: 1.42 ;&st7;   " d=" M   210.34,   252.49  C   210.34    250.15    208.44    248.24    206.09    248.24  " /><path style="stroke-width: 1.42 ;&st7;   " d=" M   227.34,   248.24  C   224.99    248.24    223.09    250.15    223.09    252.49  " /><path style="stroke-width: 1.42 ;&st7;   " d=" M   223.09,   252.49  C   223.09    254.84    224.99    256.74    227.34    256.74  " /><path style="stroke-width: 1.42 ;&st7;   " d=" M   231.59,   256.74  C   233.93    256.74    235.84    254.84    235.84    252.49  " /><path style="stroke-width: 1.42 ;&st7;   " d=" M   235.84,   252.49  C   235.84    250.15    233.93    248.24    231.59    248.24  " /><path style="stroke-width: 0.28 ;&st9;  " d=" M   203.97,   185.15  L   206.80,   187.98  L   206.80,   183.73  L   203.97,   180.90  L   201.13,   183.73  L   201.13,   187.98  L   203.97,   185.15  " /><path style="stroke-width: 0.85 ;&st7;  " d=" M   203.97,   180.26  L   203.97,   197.25  " /><path style="stroke-width: 0.28 ;&st9;  " d=" M   229.46,   185.15  L   232.29,   187.98  L   232.29,   183.73  L   229.46,   180.90  L   226.63,   183.73  L   226.63,   187.98  L   229.46,   185.15  " /><path style="stroke-width: 0.85 ;&st7;  " d=" M   229.46,   180.26  L   229.46,   197.25  " /><path style="stroke-width: 0.28 ;&st9;  " d=" M   203.97,   243.35  L   201.13,   240.52  L   201.13,   244.77  L   203.97,   247.60  L   206.80,   244.77  L   206.80,   240.52  L   203.97,   243.35  " /><path style="stroke-width: 0.85 ;&st7;  " d=" M   229.46,   231.25  L   229.46,   248.24  " /><path style="stroke-width: 0.28 ;&st9;  " d=" M   229.46,   243.35  L   226.63,   240.52  L   226.63,   244.77  L   229.46,   247.60  L   232.29,   244.77  L   232.29,   240.52  L   229.46,   243.35  " /><path style="stroke-width: 0.85 ;&st7;  " d=" M   203.97,   231.25  L   203.97,   248.24  " /><text style="&st18;" transform="matrix(&st16;  240.22  213.39 )" ewd:textID="68">ST NO.1 <tspan x="0 " dy="6.0">Relay</tspan></text><text style="&st18;" transform="matrix(&st16;  197.78  239.44 )">3</text><text style="&st18;" transform="matrix(&st16;  223.28  239.44 )">1</text><text style="&st18;" transform="matrix(&st16;  197.78  193.56 )">5</text><text style="&st18;" transform="matrix(&st16;  223.28  193.56 )">2</text><text style="&st18;" transform="matrix(&st16;  202.17  177.98 )">1</text><text style="&st18;" transform="matrix(&st16;  227.66  177.98 )">1</text><text style="&st18;" transform="matrix(&st16;  202.17  254.46 )">1</text><text style="&st18;" transform="matrix(&st16;  227.66  254.46 )">1</text><path style="stroke-width: 1.42 ;&st7;  " d=" M   203.97,   224.16  L   198.30,   201.50  " /><path style="stroke-width: 0.85 ;&st7;  " d=" M   203.97,   231.25  L   203.97,   227.00  " /><path style="stroke-width: 0.85 ;&st7;  " d=" M   203.97,   201.50  L   203.97,   197.25  " /><path style="stroke-width: 0.85 ;&st7;  " d=" M   229.46,   197.25  L   229.46,   205.75  " /><path style="stroke-width: 0.85 ;&st7;  " d=" M   229.46,   222.75  L   229.46,   231.25  " /><path style="stroke-width: 0.85 ;&st7;   " d=" M   205.38,   225.58  C   205.38    224.80    204.75    224.16    203.97    224.16  " /><path style="stroke-width: 0.85 ;&st7;   " d=" M   203.97,   224.16  C   203.18    224.16    202.55    224.80    202.55    225.58  " /><path style="stroke-width: 0.85 ;&st7;   " d=" M   202.55,   225.58  C   202.55    226.36    203.18    227.00    203.97    227.00  " /><path style="stroke-width: 0.85 ;&st7;   " d=" M   203.97,   227.00  C   204.75    227.00    205.38    226.36    205.38    225.58  " /><path style="stroke-width: 0.85 ;&st7;   " d=" M   205.38,   202.92  C   205.38    202.14    204.75    201.50    203.97    201.50  " /><path style="stroke-width: 0.85 ;&st7;   " d=" M   203.97,   201.50  C   203.18    201.50    202.55    202.14    202.55    202.92  " /><path style="stroke-width: 0.85 ;&st7;   " d=" M   202.55,   202.92  C   202.55    203.70    203.18    204.33    203.97    204.33  " /><path style="stroke-width: 0.85 ;&st7;   " d=" M   203.97,   204.33  C   204.75    204.33    205.38    203.70    205.38    202.92  " /><path style="stroke-width: 0.85 ;&st7;   " d=" M   226.93,   211.77  C   228.30    213.17    230.54    213.19    231.94    211.82  " /><path style="stroke-width: 0.85 ;&st7;   " d=" M   231.94,   211.82  C   233.34    210.45    233.36    208.21    231.99    206.81  " /><path style="stroke-width: 0.85 ;&st7;   " d=" M   231.99,   206.81  C   231.30    206.11    230.45    205.75    229.46    205.75  " /><path style="stroke-width: 0.85 ;&st7;   " d=" M   226.93,   216.73  C   228.30    218.13    230.54    218.15    231.94    216.78  " /><path style="stroke-width: 0.85 ;&st7;   " d=" M   231.94,   216.78  C   233.34    215.41    233.36    213.17    231.99    211.77  " /><path style="stroke-width: 0.85 ;&st7;   " d=" M   231.99,   211.77  C   230.62    210.37    228.38    210.35    226.98    211.72  " /><path style="stroke-width: 0.85 ;&st7;   " d=" M   226.98,   211.72  C   226.96    211.74    226.95    211.75    226.93    211.77  " /><path style="stroke-width: 0.85 ;&st7;   " d=" M   229.46,   222.75  C   231.42    222.75    233.00    221.16    233.00    219.21  " /><path style="stroke-width: 0.85 ;&st7;   " d=" M   233.00,   219.21  C   233.00    217.25    231.42    215.67    229.46    215.67  " /><path style="stroke-width: 0.85 ;&st7;   " d=" M   229.46,   215.67  C   228.47    215.67    227.63    216.02    226.93    216.73  " /><path style="stroke-width: 1.42 ;&st7;  " d=" M   237.96,   197.25  L   195.47,   197.25  L   195.47,   231.25  L   237.96,   231.25  L   237.96,   197.25  " /></g><g ewd:figtype="conn" ewd:figID="23" ewd:code="B5,B9"><path style="stroke-width: 1.42 ;&st7;  " d=" M   127.48,   408.30  L   123.23,   391.30  " /><path style="stroke-width: 0.85 ;&st7;  " d=" M   126.06,   409.72  L   110.48,   409.72  " /><path style="stroke-width: 0.85 ;&st7;  " d=" M   161.47,   392.72  L   161.47,   375.72  " /><path style="stroke-width: 0.85 ;&st7;  " d=" M   172.80,   409.72  L   186.97,   409.72  " /><path style="stroke-width: 0.85 ;&st7;  " d=" M   128.90,   392.72  L   140.23,   392.72  " /><path style="stroke-width: 0.85 ;&st7;  " d=" M   157.22,   392.72  L   165.72,   392.72  " /><path style="stroke-width: 0.85 ;&st7;   " d=" M   128.90,   409.72  C   128.90    408.93    128.26    408.30    127.48    408.30  " /><path style="stroke-width: 0.85 ;&st7;   " d=" M   127.48,   408.30  C   126.70    408.30    126.06    408.93    126.06    409.72  " /><path style="stroke-width: 0.85 ;&st7;   " d=" M   126.06,   409.72  C   126.06    410.50    126.70    411.13    127.48    411.13  " /><path style="stroke-width: 0.85 ;&st7;   " d=" M   127.48,   411.13  C   128.26    411.13    128.90    410.50    128.90    409.72  " /><path style="stroke-width: 0.85 ;&st7;   " d=" M   128.90,   392.72  C   128.90    391.94    128.26    391.30    127.48    391.30  " /><path style="stroke-width: 0.85 ;&st7;   " d=" M   127.48,   391.30  C   126.70    391.30    126.06    391.94    126.06    392.72  " /><path style="stroke-width: 0.85 ;&st7;   " d=" M   126.06,   392.72  C   126.06    393.50    126.70    394.14    127.48    394.14  " /><path style="stroke-width: 0.85 ;&st7;   " d=" M   127.48,   394.14  C   128.26    394.14    128.90    393.50    128.90    392.72  " /><path style="stroke-width: 1.42 ;&st7;   " d=" M   169.97,   409.72  C   169.97    405.02    166.17    401.22    161.47    401.22  " /><path style="stroke-width: 1.42 ;&st7;   " d=" M   161.47,   401.22  C   156.78    401.22    152.97    405.02    152.97    409.72  " /><path style="stroke-width: 1.42 ;&st7;   " d=" M   152.97,   409.72  C   152.97    414.41    156.78    418.22    161.47    418.22  " /><path style="stroke-width: 1.42 ;&st7;   " d=" M   161.47,   418.22  C   166.17    418.22    169.97    414.41    169.97    409.72  " /><path style="stroke-width: 0.85 ;&st7;   " d=" M   146.25,   395.25  C   147.64    393.88    147.67    391.64    146.30    390.24  " /><path style="stroke-width: 0.85 ;&st7;   " d=" M   146.30,   390.24  C   144.93    388.84    142.69    388.82    141.29    390.19  " /><path style="stroke-width: 0.85 ;&st7;   " d=" M   141.29,   390.19  C   140.58    390.88    140.23    391.73    140.23    392.72  " /><path style="stroke-width: 0.85 ;&st7;   " d=" M   151.20,   395.25  C   152.60    393.88    152.62    391.64    151.25    390.24  " /><path style="stroke-width: 0.85 ;&st7;   " d=" M   151.25,   390.24  C   149.89    388.84    147.64    388.82    146.25    390.19  " /><path style="stroke-width: 0.85 ;&st7;   " d=" M   146.25,   390.19  C   144.85    391.56    144.83    393.80    146.20    395.20  " /><path style="stroke-width: 0.85 ;&st7;   " d=" M   146.20,   395.20  C   146.21    395.22    146.23    395.23    146.25    395.25  " /><path style="stroke-width: 0.85 ;&st7;   " d=" M   157.22,   392.72  C   157.22    390.76    155.64    389.18    153.68    389.18  " /><path style="stroke-width: 0.85 ;&st7;   " d=" M   153.68,   389.18  C   151.73    389.18    150.14    390.76    150.14    392.72  " /><path style="stroke-width: 0.85 ;&st7;   " d=" M   150.14,   392.72  C   150.14    393.71    150.50    394.56    151.20    395.25  " /><path style="stroke-width: 0.85 ;&st7;   " d=" M   171.74,   395.25  C   173.14    393.88    173.16    391.64    171.79    390.24  " /><path style="stroke-width: 0.85 ;&st7;   " d=" M   171.79,   390.24  C   170.42    388.84    168.18    388.82    166.78    390.19  " /><path style="stroke-width: 0.85 ;&st7;   " d=" M   166.78,   390.19  C   166.08    390.88    165.72    391.73    165.72    392.72  " /><path style="stroke-width: 0.85 ;&st7;   " d=" M   176.70,   395.25  C   178.10    393.88    178.12    391.64    176.75    390.24  " /><path style="stroke-width: 0.85 ;&st7;   " d=" M   176.75,   390.24  C   175.38    388.84    173.14    388.82    171.74    390.19  " /><path style="stroke-width: 0.85 ;&st7;   " d=" M   171.74,   390.19  C   170.35    391.56    170.32    393.80    171.69    395.20  " /><path style="stroke-width: 0.85 ;&st7;   " d=" M   171.69,   395.20  C   171.71    395.22    171.72    395.23    171.74    395.25  " /><path style="stroke-width: 0.85 ;&st7;   " d=" M   182.72,   392.72  C   182.72    390.76    181.13    389.18    179.18    389.18  " /><path style="stroke-width: 0.85 ;&st7;   " d=" M   179.18,   389.18  C   177.22    389.18    175.64    390.76    175.64    392.72  " /><path style="stroke-width: 0.85 ;&st7;   " d=" M   175.64,   392.72  C   175.64    393.71    175.99    394.56    176.70    395.25  " /><path style="stroke-width: 0.85 ;&st7;  " d=" M   182.72,   392.72  L   186.97,   392.72  L   186.97,   409.72  " /><path style="stroke-width: 0.85 ;&st7;  " d=" M   135.98,   392.72  L   135.98,   409.72  L   150.14,   409.72  " /><path style="stroke-width: 1.42 ;&st7;  " d=" M   195.47,   426.71  L   110.48,   426.71  L   110.48,   375.72  L   195.47,   375.72  L   195.47,   426.71  " /><path style="stroke-width: 1.42 ;&st7;  " d=" M   154.11,   405.47  L   150.14,   405.47  L   150.14,   413.97  L   154.11,   413.97  " /><path style="stroke-width: 1.42 ;&st7;  " d=" M   168.84,   405.47  L   172.80,   405.47  L   172.80,   413.97  L   168.84,   413.97  " /><path style="stroke-width: 0.85 ;&st7;  " d=" M   160.28,   391.72  L   160.01,   392.19  L   159.91,   392.72  L   160.01,   393.25  L   160.28,   393.72  L   160.69,   394.07  L   161.20,   394.26  L   161.74,   394.26  L   162.25,   394.07  L   162.67,   393.72  L   162.94,   393.25  L   163.03,   392.72  L   162.94,   392.19  L   162.67,   391.72  L   162.25,   391.37  L   161.74,   391.18  L   161.20,   391.18  L   160.69,   391.37  L   160.28,   391.72  L   160.67,   392.43  L   160.67,   393.01  L   161.05,   393.46  L   161.62,   393.56  L   162.12,   393.27  L   162.32,   392.72  L   162.12,   392.17  L   161.62,   391.88  L   161.05,   391.98  L   161.47,   392.72  " /><path style="stroke-width: 0.85 ;&st7;  " d=" M   134.78,   391.72  L   134.51,   392.19  L   134.42,   392.72  L   134.51,   393.25  L   134.78,   393.72  L   135.20,   394.07  L   135.71,   394.26  L   136.25,   394.26  L   136.76,   394.07  L   137.17,   393.72  L   137.44,   393.25  L   137.54,   392.72  L   137.44,   392.19  L   137.17,   391.72  L   136.76,   391.37  L   136.25,   391.18  L   135.71,   391.18  L   135.20,   391.37  L   134.78,   391.72  L   135.18,   392.43  L   135.18,   393.01  L   135.55,   393.46  L   136.12,   393.56  L   136.63,   393.27  L   136.83,   392.72  L   136.63,   392.17  L   136.12,   391.88  L   135.55,   391.98  L   135.98,   392.72  " /><path style="stroke-width: 0.85 ;&st7;  " d=" M   186.97,   409.72  L   186.97,   426.71  " /><path style="stroke-width: 0.85 ;&st7;  " d=" M   185.78,   408.71  L   185.50,   409.18  L   185.41,   409.72  L   185.50,   410.25  L   185.78,   410.72  L   186.19,   411.07  L   186.70,   411.25  L   187.24,   411.25  L   187.75,   411.07  L   188.16,   410.72  L   188.43,   410.25  L   188.53,   409.72  L   188.43,   409.18  L   188.16,   408.71  L   187.75,   408.37  L   187.24,   408.18  L   186.70,   408.18  L   186.19,   408.37  L   185.78,   408.71  L   186.17,   409.43  L   186.17,   410.01  L   186.54,   410.45  L   187.12,   410.55  L   187.62,   410.26  L   187.82,   409.72  L   187.62,   409.17  L   187.12,   408.88  L   186.54,   408.98  L   186.97,   409.72  " /><text style="&st18;" transform="matrix(&st16;  158.74  411.69 )">M</text><path style="stroke-width: 1.42 ;&st7;   " d=" M   110.48,   409.72  C   110.48    407.21    108.45    405.18    105.95    405.18  " /><path style="stroke-width: 1.42 ;&st7;   " d=" M   105.95,   405.18  C   103.45    405.18    101.42    407.21    101.42    409.72  " /><path style="stroke-width: 1.42 ;&st7;   " d=" M   101.42,   409.72  C   101.42    412.22    103.45    414.25    105.95    414.25  " /><path style="stroke-width: 1.42 ;&st7;   " d=" M   105.95,   414.25  C   108.45    414.25    110.48    412.22    110.48    409.72  " /><text style="&st18;" transform="matrix(&st16;  104.15  403.19 )">1</text><path style="stroke-width: 1.42 ;&st7;   " d=" M   110.48,   409.72  C   110.48    407.21    108.45    405.18    105.95    405.18  " /><path style="stroke-width: 1.42 ;&st7;   " d=" M   105.95,   405.18  C   103.45    405.18    101.42    407.21    101.42    409.72  " /><path style="stroke-width: 1.42 ;&st7;   " d=" M   101.42,   409.72  C   101.42    412.22    103.45    414.25    105.95    414.25  " /><path style="stroke-width: 1.42 ;&st7;   " d=" M   105.95,   414.25  C   108.45    414.25    110.48    412.22    110.48    409.72  " /><text style="&st18;" transform="matrix(&st16;  103.64  411.69 )">A</text><text style="&st18;" transform="matrix(&st16;  152.78  373.16 )">1</text><path style="stroke-width: 1.42 ;&st7;   " d=" M   166.01,   371.19  C   166.01    368.69    163.98    366.66    161.47    366.66  " /><path style="stroke-width: 1.42 ;&st7;   " d=" M   161.47,   366.66  C   158.97    366.66    156.94    368.69    156.94    371.19  " /><path style="stroke-width: 1.42 ;&st7;   " d=" M   156.94,   371.19  C   156.94    373.69    158.97    375.72    161.47    375.72  " /><path style="stroke-width: 1.42 ;&st7;   " d=" M   161.47,   375.72  C   163.98    375.72    166.01    373.69    166.01    371.19  " /><text style="&st18;" transform="matrix(&st16;  159.28  373.16 )">B</text><g ewd:figtype="title"><text style="&st18;" transform="matrix(&st17;  203.08  429.61 )">B5(A),B9(B)</text><text style="&st18;" transform="matrix(&st17;  210.19  429.62 )" ewd:textID="74">Starter Assembly</text></g></g><g ewd:code="B3,C1,C2" ewd:figID="27" ewd:comment="10,9" ewd:figtype="conn"><path style="stroke-width: 0.85 ;&st7;  " d=" M    33.99,   511.70  L    50.99,   511.70  " /><path style="stroke-width: 0.85 ;&st7;  " d=" M    33.99,   531.53  L    50.99,   531.53  " /><path style="stroke-width: 0.85 ;&st7;  " d=" M    42.49,   511.70  L    42.49,   494.70  " /><path style="stroke-width: 0.85 ;&st7;  " d=" M    42.49,   517.37  L    42.49,   520.20  " /><path style="stroke-width: 0.85 ;&st7;  " d=" M    42.49,   523.03  L    42.49,   525.86  " /><path style="stroke-width: 0.85 ;&st7;  " d=" M    42.49,   528.70  L    42.49,   531.53  " /><path style="stroke-width: 1.42 ;&st7;  " d=" M    46.74,   517.37  L    38.24,   517.37  L    38.24,   515.95  L    46.74,   515.95  L    46.74,   517.37  " /><path style="stroke-width: 1.42 ;&st7;  " d=" M    46.74,   537.20  L    46.74,   535.78  L    38.24,   535.78  L    38.24,   537.20  L    46.74,   537.20  " /><path style="stroke-width: 1.42 ;&st7;  " d=" M    25.50,   494.70  L    59.49,   494.70  L    59.49,   554.19  L    25.50,   554.19  L    25.50,   494.70  " /><path style="stroke-width: 0.85 ;&st7;  " d=" M    42.49,   554.19  L    42.49,   537.20  " /><text style="&st18;" transform="matrix(&st16;  33.8  569.76 )">1</text><text style="&st18;" transform="matrix(&st16;  33.8  560.69 )">1</text><text style="&st18;" transform="matrix(&st16;  40.07  560.69 )">C</text><path style="stroke-width: 1.42 ;&st7;   " d=" M    47.03,   567.79  C    47.03    565.29     45.00    563.26     42.49    563.26  " /><path style="stroke-width: 1.42 ;&st7;   " d=" M    42.49,   563.26  C    39.99    563.26     37.96    565.29     37.96    567.79  " /><path style="stroke-width: 1.42 ;&st7;   " d=" M    37.96,   567.79  C    37.96    570.29     39.99    572.32     42.49    572.32  " /><path style="stroke-width: 1.42 ;&st7;   " d=" M    42.49,   572.32  C    45.00    572.32     47.03    570.29     47.03    567.79  " /><path style="stroke-width: 1.42 ;&st7;   " d=" M    47.03,   558.73  C    47.03    556.22     45.00    554.19     42.49    554.19  " /><path style="stroke-width: 1.42 ;&st7;   " d=" M    42.49,   554.19  C    39.99    554.19     37.96    556.22     37.96    558.73  " /><path style="stroke-width: 1.42 ;&st7;   " d=" M    37.96,   558.73  C    37.96    561.23     39.99    563.26     42.49    563.26  " /><path style="stroke-width: 1.42 ;&st7;   " d=" M    42.49,   563.26  C    45.00    563.26     47.03    561.23     47.03    558.73  " /><text style="&st18;" transform="matrix(&st16;  40.11  569.76 )">D</text><text style="&st18;" transform="matrix(&st16;  33.8  492.14 )">1</text><path style="stroke-width: 1.42 ;&st7;   " d=" M    47.03,   490.17  C    47.03    487.67     45.00    485.64     42.49    485.64  " /><path style="stroke-width: 1.42 ;&st7;   " d=" M    42.49,   485.64  C    39.99    485.64     37.96    487.67     37.96    490.17  " /><path style="stroke-width: 1.42 ;&st7;   " d=" M    37.96,   490.17  C    37.96    492.67     39.99    494.70     42.49    494.70  " /><path style="stroke-width: 1.42 ;&st7;   " d=" M    42.49,   494.70  C    45.00    494.70     47.03    492.67     47.03    490.17  " /><text style="&st18;" transform="matrix(&st16;  40.19  492.14 )">A</text><g ewd:figtype="title"><text style="&st18;" transform="matrix(&st17;  67.1  555.96 )">B3(A),C1(C),C2(D)</text><text style="&st18;" transform="matrix(&st17;  74.21  555.97 )" ewd:textID="12">Battery</text></g><g ewd:code="" ewd:figID="234" ewd:comment="10" ewd:figtype="commref"><text style="&st18;" transform="matrix(&st16;  47.59  560.69 )">(*10)</text></g><g ewd:code="" ewd:figID="235" ewd:comment="9" ewd:figtype="commref"><text style="&st18;" transform="matrix(&st16;  47.59  569.76 )">(*9)</text></g></g><g ewd:figtype="jb" ewd:figID="95" ewd:code="3"><path style="stroke-width: 1.42 ;&st7;  " d=" M   325.07,   214.25  L   320.82,   214.25  " /><path style="stroke-width: 1.42 ;&st7;  " d=" M   325.07,   222.75  L   320.82,   222.75  " /><path style="stroke-width: 1.42 ;&st7;  " d=" M   325.07,   256.74  L   320.82,   256.74  " /><path style="stroke-width: 1.42 ;&st7;  " d=" M   325.07,   265.24  L   320.82,   265.24  " /><path style="stroke-width: 1.42 ;&st7;   " d=" M   320.82,   214.25  C   318.47    214.25    316.57    216.15    316.57    218.50  " /><path style="stroke-width: 1.42 ;&st7;   " d=" M   316.57,   218.50  C   316.57    220.85    318.47    222.75    320.82    222.75  " /><path style="stroke-width: 1.42 ;&st7;   " d=" M   325.07,   222.75  C   327.42    222.75    329.32    220.85    329.32    218.50  " /><path style="stroke-width: 1.42 ;&st7;   " d=" M   329.32,   218.50  C   329.32    216.15    327.42    214.25    325.07    214.25  " /><path style="stroke-width: 1.42 ;&st7;   " d=" M   320.82,   256.74  C   318.47    256.74    316.57    258.64    316.57    260.99  " /><path style="stroke-width: 1.42 ;&st7;   " d=" M   316.57,   260.99  C   316.57    263.34    318.47    265.24    320.82    265.24  " /><path style="stroke-width: 1.42 ;&st7;   " d=" M   325.07,   265.24  C   327.42    265.24    329.32    263.34    329.32    260.99  " /><path style="stroke-width: 1.42 ;&st7;   " d=" M   329.32,   260.99  C   329.32    258.64    327.42    256.74    325.07    256.74  " /><path style="stroke-width: 0.28 ;&st9;  " d=" M   322.95,   227.64  L   325.78,   230.48  L   325.78,   226.23  L   322.95,   223.39  L   320.11,   226.23  L   320.11,   230.48  L   322.95,   227.64  " /><path style="stroke-width: 0.28 ;&st9;  " d=" M   322.95,   251.85  L   320.11,   249.01  L   320.11,   253.26  L   322.95,   256.10  L   325.78,   253.26  L   325.78,   249.01  L   322.95,   251.85  " /><path style="stroke-width: 0.85 ;&st7;  " d=" M   322.95,   256.74  L   322.95,   222.75  " /><text style="&st18;" transform="matrix(&st16;  319.09  220.47 )">3A</text><text style="&st18;" transform="matrix(&st16;  309.34  220.47 )">33</text><text style="&st18;" transform="matrix(&st16;  319.09  262.96 )">3A</text><text style="&st18;" transform="matrix(&st16;  309.34  262.96 )">30</text><path style="stroke-width: 1.42 ;&st7;  " d=" M   418.56,   256.74  L   414.31,   256.74  " /><path style="stroke-width: 1.42 ;&st7;  " d=" M   418.56,   265.24  L   414.31,   265.24  " /><path style="stroke-width: 1.42 ;&st7;   " d=" M   414.31,   256.74  C   411.96    256.74    410.06    258.64    410.06    260.99  " /><path style="stroke-width: 1.42 ;&st7;   " d=" M   410.06,   260.99  C   410.06    263.34    411.96    265.24    414.31    265.24  " /><path style="stroke-width: 1.42 ;&st7;   " d=" M   418.56,   265.24  C   420.90    265.24    422.80    263.34    422.80    260.99  " /><path style="stroke-width: 1.42 ;&st7;   " d=" M   422.80,   260.99  C   422.80    258.64    420.90    256.74    418.56    256.74  " /><path style="stroke-width: 0.28 ;&st9;  " d=" M   416.43,   251.85  L   413.60,   249.01  L   413.60,   253.26  L   416.43,   256.10  L   419.26,   253.26  L   419.26,   249.01  L   416.43,   251.85  " /><text style="&st18;" transform="matrix(&st16;  412.57  262.96 )">3A</text><text style="&st18;" transform="matrix(&st16;  402.82  262.96 )">29</text><path style="stroke-width: 0.85 ;&st7;  " d=" M   321.75,   238.74  L   321.48,   239.21  L   321.39,   239.75  L   321.48,   240.28  L   321.75,   240.75  L   322.17,   241.09  L   322.67,   241.28  L   323.22,   241.28  L   323.72,   241.09  L   324.14,   240.75  L   324.41,   240.28  L   324.50,   239.75  L   324.41,   239.21  L   324.14,   238.74  L   323.72,   238.40  L   323.22,   238.21  L   322.67,   238.21  L   322.17,   238.40  L   321.75,   238.74  L   322.15,   239.45  L   322.15,   240.04  L   322.52,   240.48  L   323.09,   240.58  L   323.60,   240.29  L   323.80,   239.75  L   323.60,   239.20  L   323.09,   238.91  L   322.52,   239.01  L   322.95,   239.75  " /><path style="stroke-width: 0.85 ;&st7;  " d=" M   416.43,   222.75  L   416.43,   256.74  " /><path style="stroke-width: 0.85 ;&st7;  " d=" M   415.24,   238.74  L   414.97,   239.21  L   414.87,   239.75  L   414.97,   240.28  L   415.24,   240.75  L   415.65,   241.09  L   416.16,   241.28  L   416.70,   241.28  L   417.21,   241.09  L   417.62,   240.75  L   417.89,   240.28  L   417.99,   239.75  L   417.89,   239.21  L   417.62,   238.74  L   417.21,   238.40  L   416.70,   238.21  L   416.16,   238.21  L   415.65,   238.40  L   415.24,   238.74  L   415.63,   239.45  L   415.63,   240.04  L   416.01,   240.48  L   416.58,   240.58  L   417.08,   240.29  L   417.28,   239.75  L   417.08,   239.20  L   416.58,   238.91  L   416.01,   239.01  L   416.43,   239.75  " /><path style="stroke-width: 1.42 ;&st7;  " d=" M   418.56,   214.25  L   414.31,   214.25  " /><path style="stroke-width: 1.42 ;&st7;  " d=" M   418.56,   222.75  L   414.31,   222.75  " /><path style="stroke-width: 1.42 ;&st7;   " d=" M   414.31,   214.25  C   411.96    214.25    410.06    216.15    410.06    218.50  " /><path style="stroke-width: 1.42 ;&st7;   " d=" M   410.06,   218.50  C   410.06    220.85    411.96    222.75    414.31    222.75  " /><path style="stroke-width: 1.42 ;&st7;   " d=" M   418.56,   222.75  C   420.90    222.75    422.80    220.85    422.80    218.50  " /><path style="stroke-width: 1.42 ;&st7;   " d=" M   422.80,   218.50  C   422.80    216.15    420.90    214.25    418.56    214.25  " /><path style="stroke-width: 0.28 ;&st9;  " d=" M   416.43,   227.64  L   419.26,   230.48  L   419.26,   226.23  L   416.43,   223.39  L   413.60,   226.23  L   413.60,   230.48  L   416.43,   227.64  " /><text style="&st18;" transform="matrix(&st16;  412.57  220.47 )">3A</text><text style="&st18;" transform="matrix(&st16;  402.82  220.47 )">32</text><path style="stroke-width: 0.85 ;&st7;  " d=" M   322.95,   239.75  L   416.43,   239.75  " /></g><g ewd:figtype="w2w" ewd:figID="105" ewd:code="BA3"><path style="stroke-width: 1.42 ;&st7;  " d=" M   165.72,   302.07  L   161.47,   306.32  L   157.22,   302.07  " /><path style="stroke-width: 1.42 ;&st7;  " d=" M   157.22,   298.67  L   161.47,   302.92  L   165.72,   298.67  " /><text style="&st18;" transform="matrix(&st16;  148.84  313.95 )">1</text></g><g ewd:figtype="w2w" ewd:figID="106" ewd:code="BA1"><path style="stroke-width: 1.42 ;&st7;  " d=" M   420.68,   404.05  L   416.43,   408.30  L   412.18,   404.05  " /><path style="stroke-width: 1.42 ;&st7;  " d=" M   412.18,   400.65  L   416.43,   404.90  L   420.68,   400.65  " /><text style="&st18;" transform="matrix(&st16;  400.7  415.94 )">18</text></g><g ewd:figtype="gp" ewd:figID="164" ewd:code="CB"><path style="stroke-width: 0.85 ;&st7;  " d=" M    42.49,   697.25  L    42.49,   701.50  " /><path style="stroke-width: 0.85 ;&st7;  " d=" M    33.99,   701.50  L    50.99,   701.50  " /><path style="stroke-width: 0.85 ;&st7;  " d=" M    38.24,   704.33  L    46.74,   704.33  " /><path style="stroke-width: 0.85 ;&st7;  " d=" M    39.66,   707.17  L    45.33,   707.17  " /><path style="stroke-width: 0.85 ;&st7;  " d=" M    41.08,   710.00  L    43.91,   710.00  " /></g><g ewd:figtype="gp" ewd:figID="165" ewd:code="CA"><path style="stroke-width: 0.85 ;&st7;  " d=" M   101.98,   697.25  L   101.98,   701.50  " /><path style="stroke-width: 0.85 ;&st7;  " d=" M    93.48,   701.50  L   110.48,   701.50  " /><path style="stroke-width: 0.85 ;&st7;  " d=" M    97.73,   704.33  L   106.23,   704.33  " /><path style="stroke-width: 0.85 ;&st7;  " d=" M    99.15,   707.17  L   104.82,   707.17  " /><path style="stroke-width: 0.85 ;&st7;  " d=" M   100.57,   710.00  L   103.40,   710.00  " /></g><g ewd:figtype="gp" ewd:figID="166" ewd:code="AB"><path style="stroke-width: 0.85 ;&st7;  " d=" M   229.46,   697.25  L   229.46,   701.50  " /><path style="stroke-width: 0.85 ;&st7;  " d=" M   220.96,   701.50  L   237.96,   701.50  " /><path style="stroke-width: 0.85 ;&st7;  " d=" M   225.21,   704.33  L   233.71,   704.33  " /><path style="stroke-width: 0.85 ;&st7;  " d=" M   226.63,   707.17  L   232.29,   707.17  " /><path style="stroke-width: 0.85 ;&st7;  " d=" M   228.05,   710.00  L   230.88,   710.00  " /></g><g ewd:figtype="annex" ewd:figID="225" ewd:code=" "><path style="stroke-width: 0.85 ;&st7;  " d=" M   178.47,   435.21  L   195.47,   435.21  " /><path style="stroke-width: 0.85 ;&st7;  " d=" M   182.72,   438.05  L   191.22,   438.05  " /><path style="stroke-width: 0.85 ;&st7;  " d=" M   185.55,   443.71  L   188.39,   443.71  " /><path style="stroke-width: 0.85 ;&st7;  " d=" M   184.14,   440.88  L   189.80,   440.88  " /><path style="stroke-width: 0.85 ;&st7;  " d=" M   186.97,   426.71  L   186.97,   435.21  " /></g></svg>