﻿<?xml version="1.0" encoding="utf-8"?>
<!DOCTYPE svg PUBLIC "-//W3C//DTD SVG 1.0//EN" "http://www.w3.org/TR/2001/REC-SVG-20010904/DTD/svg10.dtd"[
	<!ENTITY ns_flows "http://ns.adobe.com/Flows/1.0/">
	<!ENTITY ns_svg "http://www.w3.org/2000/svg">
	<!ENTITY ns_xlink "http://www.w3.org/1999/xlink">
	<!ENTITY st0 "font-size:7px;font-family:'MS-PGothic';adobe-font-script:japanese;">
	<!ENTITY st1 "font-size:6px;font-family:'ArialMT';">
	<!-- White fill  -->
	<!ENTITY st2 "fill:#FFFFFF;stroke:#000000; stroke-width:1.41;stroke-linecap:round;stroke-linejoin:round;">
	<!-- Yellow fill  -->
	<!ENTITY st3 "fill:#FFFFCC;stroke:#FFFFCC; stroke-width:0.1;stroke-linecap:round;stroke-linejoin:round;">
	<!-- Gray fill  -->
	<!ENTITY st4 "fill:#CCCCCC;stroke:#CCCCCC; stroke-width:0.1;stroke-linecap:round;stroke-linejoin:round;">
	<!-- Light-blue fill -->
	<!ENTITY st5 "fill:#CCECF4;stroke:#000000; stroke-width:1.133;stroke-linecap:round;stroke-linejoin:round;">
	<!ENTITY st6 "fill:none;stroke-linecap:butt; stroke-linejoin:round;">
	<!ENTITY st7 "fill:none;stroke:#000000;stroke-linecap:round;stroke-linejoin:round;">
	<!ENTITY st8 "enable-background:new    ;">
	<!-- Black fill -->
	<!ENTITY st9 "fill:#000000;stroke:#000000; stroke-linecap:round;stroke-linejoin:round;">
	<!-- SRS note   -->
	<!ENTITY st10 "font-size:9px;font-family:'ArialMT';">
	<!ENTITY st11 "font-size:9px;font-family:'Svg Symbol';">
	<!ENTITY st12 "font-size:6px;font-family:'Svg Symbol';">
	<!ENTITY st13 "fill:none;stroke:#ff0000;stroke-linecap:round;stroke-linejoin:round;">
	<!-- Yellow fill  -->
	<!ENTITY st14 "fill:#FFFF00;stroke:#FFFF00; stroke-width:0.1;stroke-linecap:round;stroke-linejoin:round;">
	<!ENTITY st15 "font-size:6px;font-family:'MS-PGothic';adobe-font-script:japanese;">
	<!ENTITY st16 "1.00 0.00 0.00 1.00">
	<!ENTITY st17 "0.00 -1.00 1.00 0.00">
	<!ENTITY st18 "font-size:6px;font-family:'Arial';">
	<!ENTITY st19 "font-size:9px;font-family:'Arial';">
	<!ENTITY st20 "font-size:6px;font-family:'MS-PGothic','MS PGothic';adobe-font-script:japanese;">
	<!ENTITY st21 "font-size:7px;font-family:'MS-PGothic','MS PGothic';adobe-font-script:japanese;">
	<!ATTLIST svg
		xmlns:ewd CDATA #FIXED "http://shcl.co.jp/ewd"
		xmlns:a CDATA #FIXED "http://ns.adobe.com/AdobeSVGViewerExtensions/3.0/"
		ewd:ver CDATA #IMPLIED
	>
	<!ATTLIST a
		ewd:lineID CDATA #IMPLIED
		ewd:groupID CDATA #IMPLIED
		ewd:figtype CDATA #IMPLIED
		ewd:code CDATA #IMPLIED
		ewd:figID CDATA #IMPLIED
		ewd:pinNo CDATA #IMPLIED
		ewd:comment CDATA #IMPLIED >
	<!ATTLIST g
		ewd:lineID CDATA #IMPLIED
		ewd:groupID CDATA #IMPLIED
		ewd:figtype CDATA #IMPLIED
		ewd:code CDATA #IMPLIED
		ewd:figID CDATA #IMPLIED
		ewd:pinNo CDATA #IMPLIED
		ewd:comment CDATA #IMPLIED >
	<!ATTLIST text
		ewd:textID CDATA #IMPLIED >
	<!ATTLIST title
		ewd:textID CDATA #IMPLIED >
]>
<!-- Generator: Shintec Hozumi YS   -->
<svg onload="call_execInitLoadProc_svg('system')" style="overflow:visible;  enable-background:new 0 0 2590.650 710.000" viewBox="0 0 2590.650 710.000" height="710.000" width="2590.650" xml:space="preserve" ewd:ver="2.1.2.7" xmlns="&ns_svg;" xmlns:a="http://ns.adobe.com/AdobeSVGViewerExtensions/3.0/" xmlns:ewd="http://shcl.co.jp/ewd" xmlns:xlink="&ns_xlink;"><script type="text/javascript" xlink:href="../../../../../system/js/ewd/fig/svgfig.js" xmlns:xlink="http://www.w3.org/1999/xlink" />
<g id="ewd_top"><a ewd:code="FUSE13" ewd:figID="1" ewd:figtype="rb" style="cursor:pointer;"><path d=" M   620.40,   422.46  L   620.40,   447.96  L   662.89,   447.96  L   662.89,   422.46  L   620.40,   422.46 " style="fill:#CCECF4;stroke:#000000; stroke-width:0; stroke-linecap:round;stroke-linejoin:round; " /></a><a ewd:code="FUSE11" ewd:figID="2" ewd:figtype="rb" style="cursor:pointer;"><path d=" M   620.40,   473.46  L   620.40,   498.95  L   662.89,   498.95  L   662.89,   473.46  L   620.40,   473.46 " style="fill:#CCECF4;stroke:#000000; stroke-width:0; stroke-linecap:round;stroke-linejoin:round; " /></a><a ewd:code="FUSE5" ewd:figID="3" ewd:figtype="rb" style="cursor:pointer;"><path d=" M   960.34,   193.00  L   960.34,   218.50  L  1002.83,   218.50  L  1002.83,   193.00  L   960.34,   193.00 " style="fill:#CCECF4;stroke:#000000; stroke-width:0; stroke-linecap:round;stroke-linejoin:round; " /></a><a ewd:code="FUSE31" ewd:figID="4" ewd:figtype="rb" style="cursor:pointer;"><path d=" M  1104.82,   320.48  L  1104.82,   345.98  L  1147.31,   345.98  L  1147.31,   320.48  L  1104.82,   320.48 " style="fill:#CCECF4;stroke:#000000; stroke-width:0; stroke-linecap:round;stroke-linejoin:round; " /></a><a ewd:code="FUSE1" ewd:figID="5" ewd:figtype="rb" style="cursor:pointer;"><path d=" M   161.47,   422.46  L   161.47,   447.96  L   203.97,   447.96  L   203.97,   422.46  L   161.47,   422.46 " style="fill:#CCECF4;stroke:#000000; stroke-width:0; stroke-linecap:round;stroke-linejoin:round; " /></a><a ewd:code="FUSE32" ewd:figID="6" ewd:figtype="rb" style="cursor:pointer;"><path d=" M  1104.82,   447.96  L  1104.82,   473.46  L  1147.31,   473.46  L  1147.31,   447.96  L  1104.82,   447.96 " style="fill:#CCECF4;stroke:#000000; stroke-width:0; stroke-linecap:round;stroke-linejoin:round; " /></a><a ewd:code="FUSE9" ewd:figID="7" ewd:figtype="rb" style="cursor:pointer;"><path d=" M  1104.82,   235.50  L  1104.82,   260.99  L  1147.31,   260.99  L  1147.31,   235.50  L  1104.82,   235.50 " style="fill:#CCECF4;stroke:#000000; stroke-width:0; stroke-linecap:round;stroke-linejoin:round; " /></a><a ewd:code="FUSE26" ewd:figID="8" ewd:figtype="rb" style="cursor:pointer;"><path d=" M  1376.77,   159.01  L  1376.77,   184.50  L  1419.26,   184.50  L  1419.26,   159.01  L  1376.77,   159.01 " style="fill:#CCECF4;stroke:#000000; stroke-width:0; stroke-linecap:round;stroke-linejoin:round; " /></a><a ewd:code="FUSE19" ewd:figID="9" ewd:figtype="rb" style="cursor:pointer;"><path d=" M   254.96,   286.49  L   254.96,   311.98  L   297.45,   311.98  L   297.45,   286.49  L   254.96,   286.49 " style="fill:#CCECF4;stroke:#000000; stroke-width:0; stroke-linecap:round;stroke-linejoin:round; " /></a><a ewd:code="FUSE12" ewd:figID="10" ewd:figtype="rb" style="cursor:pointer;"><path d=" M   960.34,   337.48  L   960.34,   362.97  L  1002.83,   362.97  L  1002.83,   337.48  L   960.34,   337.48 " style="fill:#CCECF4;stroke:#000000; stroke-width:0; stroke-linecap:round;stroke-linejoin:round; " /></a><a ewd:code="FUSE30" ewd:figID="11" ewd:figtype="rb" style="cursor:pointer;"><path d=" M   254.96,   422.46  L   254.96,   447.96  L   297.45,   447.96  L   297.45,   422.46  L   254.96,   422.46 " style="fill:#CCECF4;stroke:#000000; stroke-width:0; stroke-linecap:round;stroke-linejoin:round; " /></a><a ewd:code="FUSE15" ewd:figID="12" ewd:figtype="rb" style="cursor:pointer;"><path d=" M  1436.26,   447.96  L  1436.26,   473.46  L  1478.75,   473.46  L  1478.75,   447.96  L  1436.26,   447.96 " style="fill:#CCECF4;stroke:#000000; stroke-width:0; stroke-linecap:round;stroke-linejoin:round; " /></a><a ewd:code="FUSE23" ewd:figID="13" ewd:figtype="rb" style="cursor:pointer;"><path d=" M  1104.82,   405.47  L  1104.82,   430.96  L  1147.31,   430.96  L  1147.31,   405.47  L  1104.82,   405.47 " style="fill:#CCECF4;stroke:#000000; stroke-width:0; stroke-linecap:round;stroke-linejoin:round; " /></a><a ewd:code="FUSE27" ewd:figID="14" ewd:figtype="rb" style="cursor:pointer;"><path d=" M  1104.82,   362.97  L  1104.82,   388.47  L  1147.31,   388.47  L  1147.31,   362.97  L  1104.82,   362.97 " style="fill:#CCECF4;stroke:#000000; stroke-width:0; stroke-linecap:round;stroke-linejoin:round; " /></a><a ewd:code="FUSE4" ewd:figID="15" ewd:figtype="rb" style="cursor:pointer;"><path d=" M   960.34,   150.51  L   960.34,   176.01  L  1002.83,   176.01  L  1002.83,   150.51  L   960.34,   150.51 " style="fill:#CCECF4;stroke:#000000; stroke-width:0; stroke-linecap:round;stroke-linejoin:round; " /></a><a ewd:code="FUSE6" ewd:figID="16" ewd:figtype="rb" style="cursor:pointer;"><path d=" M   798.87,   235.50  L   798.87,   260.99  L   841.36,   260.99  L   841.36,   235.50  L   798.87,   235.50 " style="fill:#CCECF4;stroke:#000000; stroke-width:0; stroke-linecap:round;stroke-linejoin:round; " /></a><a ewd:code="FUSE18" ewd:figID="17" ewd:figtype="rb" style="cursor:pointer;"><path d=" M   254.96,   583.94  L   254.96,   609.43  L   297.45,   609.43  L   297.45,   583.94  L   254.96,   583.94 " style="fill:#CCECF4;stroke:#000000; stroke-width:0; stroke-linecap:round;stroke-linejoin:round; " /></a><a ewd:code="FUSE33" ewd:figID="18" ewd:figtype="rb" style="cursor:pointer;"><path d=" M  1104.82,   277.99  L  1104.82,   303.48  L  1147.31,   303.48  L  1147.31,   277.99  L  1104.82,   277.99 " style="fill:#CCECF4;stroke:#000000; stroke-width:0; stroke-linecap:round;stroke-linejoin:round; " /></a><a ewd:code="FUSE7" ewd:figID="19" ewd:figtype="rb" style="cursor:pointer;"><path d=" M   798.87,   277.99  L   798.87,   303.48  L   841.36,   303.48  L   841.36,   277.99  L   798.87,   277.99 " style="fill:#CCECF4;stroke:#000000; stroke-width:0; stroke-linecap:round;stroke-linejoin:round; " /></a><a ewd:code="FUSE25" ewd:figID="20" ewd:figtype="rb" style="cursor:pointer;"><path d=" M  1376.77,   201.50  L  1376.77,   227.00  L  1419.26,   227.00  L  1419.26,   201.50  L  1376.77,   201.50 " style="fill:#CCECF4;stroke:#000000; stroke-width:0; stroke-linecap:round;stroke-linejoin:round; " /></a><a ewd:code="E60" ewd:figID="21" ewd:figtype="conn" style="cursor:pointer;"><path d=" M  1674.22,   469.21  L  1674.22,   554.19  L  1895.18,   554.19  L  1895.18,   469.21  L  1674.22,   469.21 " style="fill:#CCECF4;stroke:#000000; stroke-width:1.133; stroke-linecap:round;stroke-linejoin:round; " /><title ewd:textID="10">Engine Switch</title></a><a ewd:code="1" ewd:figID="22" ewd:figtype="rb" style="cursor:pointer;"><path d=" M   654.39,   282.24  L   654.39,   239.75  L   620.40,   239.75  L   620.40,   282.24  L   654.39,   282.24 " style="fill:#CCECF4;stroke:#000000; stroke-width:0; stroke-linecap:round;stroke-linejoin:round; " /></a><a ewd:code="B32,C1,C2" ewd:figID="23" ewd:figtype="conn" style="cursor:pointer;"><path d=" M    50.99,   545.69  L    84.99,   545.69  L    84.99,   605.18  L    50.99,   605.18  L    50.99,   545.69 " style="fill:#CCECF4;stroke:#000000; stroke-width:1.133; stroke-linecap:round;stroke-linejoin:round; " /><title ewd:textID="5">Battery</title></a><a ewd:code="1" ewd:figID="24" ewd:figtype="rb" style="cursor:pointer;"><path d=" M   424.93,   469.21  L   424.93,   426.71  L   390.93,   426.71  L   390.93,   469.21  L   424.93,   469.21 " style="fill:#CCECF4;stroke:#000000; stroke-width:0; stroke-linecap:round;stroke-linejoin:round; " /></a><a ewd:code="1" ewd:figID="25" ewd:figtype="rb" style="cursor:pointer;"><path d=" M   832.86,   426.71  L   832.86,   384.22  L   798.87,   384.22  L   798.87,   426.71  L   832.86,   426.71 " style="fill:#CCECF4;stroke:#000000; stroke-width:0; stroke-linecap:round;stroke-linejoin:round; " /></a><a ewd:code="1" ewd:figID="26" ewd:figtype="rb" style="cursor:pointer;"><path d=" M   654.39,   605.18  L   654.39,   562.69  L   620.40,   562.69  L   620.40,   605.18  L   654.39,   605.18 " style="fill:#CCECF4;stroke:#000000; stroke-width:0; stroke-linecap:round;stroke-linejoin:round; " /></a><a ewd:code="1" ewd:figID="27" ewd:figtype="rb" style="cursor:pointer;"><path d=" M  1283.29,   452.21  L  1283.29,   494.70  L  1317.28,   494.70  L  1317.28,   452.21  L  1283.29,   452.21 " style="fill:#CCECF4;stroke:#000000; stroke-width:0; stroke-linecap:round;stroke-linejoin:round; " /></a><a ewd:code="E4" ewd:figID="28" ewd:figtype="conn" style="cursor:pointer;"><path d=" M  1648.72,   307.73  L  1708.21,   307.73  L  1708.21,   188.75  L  1648.72,   188.75  L  1648.72,   307.73 " style="fill:#CCECF4;stroke:#000000; stroke-width:1.133; stroke-linecap:round;stroke-linejoin:round; " /><title ewd:textID="18">Ignition or Starter Switch Assembly</title></a><a ewd:code="E57,E59" ewd:figID="29" ewd:figtype="conn" style="cursor:pointer;"><path d=" M  1648.72,   401.22  L  1886.68,   401.22  L  1886.68,   358.73  L  1648.72,   358.73  L  1648.72,   401.22 " style="fill:#CCECF4;stroke:#000000; stroke-width:1.133; stroke-linecap:round;stroke-linejoin:round; " /><title ewd:textID="6">Certification ECU</title></a><a ewd:code="FUSE35" ewd:figID="30" ewd:figtype="rb" style="cursor:pointer;"><path d=" M   254.96,    82.52  L   254.96,   108.02  L   297.45,   108.02  L   297.45,    82.52  L   254.96,    82.52 " style="fill:#CCECF4;stroke:#000000; stroke-width:0; stroke-linecap:round;stroke-linejoin:round; " /></a><a ewd:code="FUSE28" ewd:figID="31" ewd:figtype="rb" style="cursor:pointer;"><path d=" M   254.96,   379.97  L   254.96,   405.47  L   297.45,   405.47  L   297.45,   379.97  L   254.96,   379.97 " style="fill:#CCECF4;stroke:#000000; stroke-width:0; stroke-linecap:round;stroke-linejoin:round; " /></a><a ewd:code="FUSE21" ewd:figID="32" ewd:figtype="rb" style="cursor:pointer;"><path d=" M   883.85,   193.00  L   883.85,   218.50  L   926.35,   218.50  L   926.35,   193.00  L   883.85,   193.00 " style="fill:#CCECF4;stroke:#000000; stroke-width:0; stroke-linecap:round;stroke-linejoin:round; " /></a><a ewd:code="FUSE24" ewd:figID="33" ewd:figtype="rb" style="cursor:pointer;"><path d=" M   254.96,   150.51  L   254.96,   176.01  L   297.45,   176.01  L   297.45,   150.51  L   254.96,   150.51 " style="fill:#CCECF4;stroke:#000000; stroke-width:0; stroke-linecap:round;stroke-linejoin:round; " /></a><a ewd:code="FUSE22" ewd:figID="34" ewd:figtype="rb" style="cursor:pointer;"><path d=" M   161.47,   286.49  L   161.47,   311.98  L   203.97,   311.98  L   203.97,   286.49  L   161.47,   286.49 " style="fill:#CCECF4;stroke:#000000; stroke-width:0; stroke-linecap:round;stroke-linejoin:round; " /></a><a ewd:code="FUSE29" ewd:figID="35" ewd:figtype="rb" style="cursor:pointer;"><path d=" M   254.96,   464.96  L   254.96,   490.45  L   297.45,   490.45  L   297.45,   464.96  L   254.96,   464.96 " style="fill:#CCECF4;stroke:#000000; stroke-width:0; stroke-linecap:round;stroke-linejoin:round; " /></a><a ewd:code="FUSE14" ewd:figID="36" ewd:figtype="rb" style="cursor:pointer;"><path d=" M   161.47,   150.51  L   161.47,   176.01  L   203.97,   176.01  L   203.97,   150.51  L   161.47,   150.51 " style="fill:#CCECF4;stroke:#000000; stroke-width:0; stroke-linecap:round;stroke-linejoin:round; " /></a><a ewd:code="FUSE3" ewd:figID="37" ewd:figtype="rb" style="cursor:pointer;"><path d=" M   161.47,   328.98  L   161.47,   354.48  L   203.97,   354.48  L   203.97,   328.98  L   161.47,   328.98 " style="fill:#CCECF4;stroke:#000000; stroke-width:0; stroke-linecap:round;stroke-linejoin:round; " /></a><a ewd:code="FUSE34" ewd:figID="38" ewd:figtype="rb" style="cursor:pointer;"><path d=" M   161.47,   464.96  L   161.47,   490.45  L   203.97,   490.45  L   203.97,   464.96  L   161.47,   464.96 " style="fill:#CCECF4;stroke:#000000; stroke-width:0; stroke-linecap:round;stroke-linejoin:round; " /></a><a ewd:code="FUSE10" ewd:figID="39" ewd:figtype="rb" style="cursor:pointer;"><path d=" M   960.34,   379.97  L   960.34,   405.47  L  1002.83,   405.47  L  1002.83,   379.97  L   960.34,   379.97 " style="fill:#CCECF4;stroke:#000000; stroke-width:0; stroke-linecap:round;stroke-linejoin:round; " /></a><a ewd:code="FUSE20" ewd:figID="40" ewd:figtype="rb" style="cursor:pointer;"><path d=" M   254.96,   235.50  L   254.96,   260.99  L   297.45,   260.99  L   297.45,   235.50  L   254.96,   235.50 " style="fill:#CCECF4;stroke:#000000; stroke-width:0; stroke-linecap:round;stroke-linejoin:round; " /></a><a ewd:code="FUSE8" ewd:figID="41" ewd:figtype="rb" style="cursor:pointer;"><path d=" M   161.47,   379.97  L   161.47,   405.47  L   203.97,   405.47  L   203.97,   379.97  L   161.47,   379.97 " style="fill:#CCECF4;stroke:#000000; stroke-width:0; stroke-linecap:round;stroke-linejoin:round; " /></a><a ewd:code="FUSE2" ewd:figID="42" ewd:figtype="rb" style="cursor:pointer;"><path d=" M   254.96,   515.95  L   254.96,   541.44  L   297.45,   541.44  L   297.45,   515.95  L   254.96,   515.95 " style="fill:#CCECF4;stroke:#000000; stroke-width:0; stroke-linecap:round;stroke-linejoin:round; " /></a><a ewd:code="FUSE17" ewd:figID="43" ewd:figtype="rb" style="cursor:pointer;"><path d=" M   161.47,   235.50  L   161.47,   260.99  L   203.97,   260.99  L   203.97,   235.50  L   161.47,   235.50 " style="fill:#CCECF4;stroke:#000000; stroke-width:0; stroke-linecap:round;stroke-linejoin:round; " /></a><a ewd:code="FUSE16" ewd:figID="44" ewd:figtype="rb" style="cursor:pointer;"><path d=" M  1104.82,   193.00  L  1104.82,   218.50  L  1147.31,   218.50  L  1147.31,   193.00  L  1104.82,   193.00 " style="fill:#CCECF4;stroke:#000000; stroke-width:0; stroke-linecap:round;stroke-linejoin:round; " /></a><a ewd:code="1" ewd:figID="57" ewd:figtype="jb" style="cursor:pointer;"><path d=" M  1325.78,   154.76  L  1325.78,   180.26  L  1338.53,   180.26  L  1338.53,   154.76  L  1325.78,   154.76  " style="&st4; " /></a><a ewd:code="1" ewd:figID="58" ewd:figtype="jb" style="cursor:pointer;"><path d=" M   127.48,   188.75  L   127.48,   214.25  L   140.23,   214.25  L   140.23,   188.75  L   127.48,   188.75  " style="&st4; " /></a><a ewd:code="1" ewd:figID="59" ewd:figtype="jb" style="cursor:pointer;"><path d=" M  1177.05,   154.76  L  1177.05,   180.26  L  1189.80,   180.26  L  1189.80,   154.76  L  1177.05,   154.76  " style="&st4; " /></a><a ewd:code="1" ewd:figID="60" ewd:figtype="jb" style="cursor:pointer;"><path d=" M  1177.05,    78.27  L  1177.05,   103.77  L  1189.80,   103.77  L  1189.80,    78.27  L  1177.05,    78.27  " style="&st4; " /></a><a ewd:code="3" ewd:figID="61" ewd:figtype="jb" style="cursor:pointer;"><path d=" M  1937.68,   528.70  L  1937.68,   664.67  L  2056.66,   664.67  L  2056.66,   528.70  L  1937.68,   528.70  " style="&st4; " /></a><a ewd:code="3" ewd:figID="62" ewd:figtype="jb" style="cursor:pointer;"><path d=" M  2133.14,   698.67  L  2532.58,   698.67  L  2532.58,    69.77  L  2133.14,    69.77  L  2133.14,   698.67  " style="&st4; " /></a><a ewd:code="FUSE34" ewd:figID="72" ewd:figtype="fuse" style="cursor:pointer;"><path d=" M   161.47,   464.96  L   161.47,   490.45  L   203.97,   490.45  L   203.97,   464.96  L   161.47,   464.96 " style="&st7; stroke-width:0;" /></a><a ewd:code="FUSE1" ewd:figID="73" ewd:figtype="fuse" style="cursor:pointer;"><path d=" M   161.47,   422.46  L   161.47,   447.96  L   203.97,   447.96  L   203.97,   422.46  L   161.47,   422.46 " style="&st7; stroke-width:0;" /></a><a ewd:code="FUSE8" ewd:figID="74" ewd:figtype="fuse" style="cursor:pointer;"><path d=" M   161.47,   379.97  L   161.47,   405.47  L   203.97,   405.47  L   203.97,   379.97  L   161.47,   379.97 " style="&st7; stroke-width:0;" /></a><a ewd:code="FUSE3" ewd:figID="75" ewd:figtype="fuse" style="cursor:pointer;"><path d=" M   161.47,   328.98  L   161.47,   354.48  L   203.97,   354.48  L   203.97,   328.98  L   161.47,   328.98 " style="&st7; stroke-width:0;" /></a><a ewd:code="FUSE22" ewd:figID="76" ewd:figtype="fuse" style="cursor:pointer;"><path d=" M   161.47,   286.49  L   161.47,   311.98  L   203.97,   311.98  L   203.97,   286.49  L   161.47,   286.49 " style="&st7; stroke-width:0;" /></a><a ewd:code="FUSE17" ewd:figID="77" ewd:figtype="fuse" style="cursor:pointer;"><path d=" M   161.47,   235.50  L   161.47,   260.99  L   203.97,   260.99  L   203.97,   235.50  L   161.47,   235.50 " style="&st7; stroke-width:0;" /></a><a ewd:code="FUSE14" ewd:figID="78" ewd:figtype="fuse" style="cursor:pointer;"><path d=" M   161.47,   150.51  L   161.47,   176.01  L   203.97,   176.01  L   203.97,   150.51  L   161.47,   150.51 " style="&st7; stroke-width:0;" /></a><a ewd:code="FUSE18" ewd:figID="79" ewd:figtype="fuse" style="cursor:pointer;"><path d=" M   254.96,   583.94  L   254.96,   609.43  L   297.45,   609.43  L   297.45,   583.94  L   254.96,   583.94 " style="&st7; stroke-width:0;" /></a><a ewd:code="FUSE2" ewd:figID="80" ewd:figtype="fuse" style="cursor:pointer;"><path d=" M   254.96,   515.95  L   254.96,   541.44  L   297.45,   541.44  L   297.45,   515.95  L   254.96,   515.95 " style="&st7; stroke-width:0;" /></a><a ewd:code="FUSE29" ewd:figID="81" ewd:figtype="fuse" style="cursor:pointer;"><path d=" M   254.96,   464.96  L   254.96,   490.45  L   297.45,   490.45  L   297.45,   464.96  L   254.96,   464.96 " style="&st7; stroke-width:0;" /></a><a ewd:code="FUSE30" ewd:figID="82" ewd:figtype="fuse" style="cursor:pointer;"><path d=" M   254.96,   422.46  L   254.96,   447.96  L   297.45,   447.96  L   297.45,   422.46  L   254.96,   422.46 " style="&st7; stroke-width:0;" /></a><a ewd:code="FUSE28" ewd:figID="83" ewd:figtype="fuse" style="cursor:pointer;"><path d=" M   254.96,   379.97  L   254.96,   405.47  L   297.45,   405.47  L   297.45,   379.97  L   254.96,   379.97 " style="&st7; stroke-width:0;" /></a><a ewd:code="FUSE19" ewd:figID="84" ewd:figtype="fuse" style="cursor:pointer;"><path d=" M   254.96,   286.49  L   254.96,   311.98  L   297.45,   311.98  L   297.45,   286.49  L   254.96,   286.49 " style="&st7; stroke-width:0;" /></a><a ewd:code="FUSE20" ewd:figID="85" ewd:figtype="fuse" style="cursor:pointer;"><path d=" M   254.96,   235.50  L   254.96,   260.99  L   297.45,   260.99  L   297.45,   235.50  L   254.96,   235.50 " style="&st7; stroke-width:0;" /></a><a ewd:code="FUSE24" ewd:figID="86" ewd:figtype="fuse" style="cursor:pointer;"><path d=" M   254.96,   150.51  L   254.96,   176.01  L   297.45,   176.01  L   297.45,   150.51  L   254.96,   150.51 " style="&st7; stroke-width:0;" /></a><a ewd:code="FUSE35" ewd:figID="87" ewd:figtype="fuse" style="cursor:pointer;"><path d=" M   254.96,    82.52  L   254.96,   108.02  L   297.45,   108.02  L   297.45,    82.52  L   254.96,    82.52 " style="&st7; stroke-width:0;" /></a><a ewd:code="FUSE11" ewd:figID="88" ewd:figtype="fuse" style="cursor:pointer;"><path d=" M   620.40,   473.46  L   620.40,   498.95  L   662.89,   498.95  L   662.89,   473.46  L   620.40,   473.46 " style="&st7; stroke-width:0;" /></a><a ewd:code="FUSE13" ewd:figID="89" ewd:figtype="fuse" style="cursor:pointer;"><path d=" M   620.40,   422.46  L   620.40,   447.96  L   662.89,   447.96  L   662.89,   422.46  L   620.40,   422.46 " style="&st7; stroke-width:0;" /></a><a ewd:code="FUSE7" ewd:figID="90" ewd:figtype="fuse" style="cursor:pointer;"><path d=" M   798.87,   277.99  L   798.87,   303.48  L   841.36,   303.48  L   841.36,   277.99  L   798.87,   277.99 " style="&st7; stroke-width:0;" /></a><a ewd:code="FUSE6" ewd:figID="91" ewd:figtype="fuse" style="cursor:pointer;"><path d=" M   798.87,   235.50  L   798.87,   260.99  L   841.36,   260.99  L   841.36,   235.50  L   798.87,   235.50 " style="&st7; stroke-width:0;" /></a><a ewd:code="FUSE21" ewd:figID="92" ewd:figtype="fuse" style="cursor:pointer;"><path d=" M   883.85,   193.00  L   883.85,   218.50  L   926.35,   218.50  L   926.35,   193.00  L   883.85,   193.00 " style="&st7; stroke-width:0;" /></a><a ewd:code="FUSE10" ewd:figID="93" ewd:figtype="fuse" style="cursor:pointer;"><path d=" M   960.34,   379.97  L   960.34,   405.47  L  1002.83,   405.47  L  1002.83,   379.97  L   960.34,   379.97 " style="&st7; stroke-width:0;" /></a><a ewd:code="FUSE12" ewd:figID="94" ewd:figtype="fuse" style="cursor:pointer;"><path d=" M   960.34,   337.48  L   960.34,   362.97  L  1002.83,   362.97  L  1002.83,   337.48  L   960.34,   337.48 " style="&st7; stroke-width:0;" /></a><a ewd:code="FUSE5" ewd:figID="95" ewd:figtype="fuse" style="cursor:pointer;"><path d=" M   960.34,   193.00  L   960.34,   218.50  L  1002.83,   218.50  L  1002.83,   193.00  L   960.34,   193.00 " style="&st7; stroke-width:0;" /></a><a ewd:code="FUSE4" ewd:figID="96" ewd:figtype="fuse" style="cursor:pointer;"><path d=" M   960.34,   150.51  L   960.34,   176.01  L  1002.83,   176.01  L  1002.83,   150.51  L   960.34,   150.51 " style="&st7; stroke-width:0;" /></a><a ewd:code="FUSE32" ewd:figID="97" ewd:figtype="fuse" style="cursor:pointer;"><path d=" M  1104.82,   447.96  L  1104.82,   473.46  L  1147.31,   473.46  L  1147.31,   447.96  L  1104.82,   447.96 " style="&st7; stroke-width:0;" /></a><a ewd:code="FUSE23" ewd:figID="98" ewd:figtype="fuse" style="cursor:pointer;"><path d=" M  1104.82,   405.47  L  1104.82,   430.96  L  1147.31,   430.96  L  1147.31,   405.47  L  1104.82,   405.47 " style="&st7; stroke-width:0;" /></a><a ewd:code="FUSE27" ewd:figID="99" ewd:figtype="fuse" style="cursor:pointer;"><path d=" M  1104.82,   362.97  L  1104.82,   388.47  L  1147.31,   388.47  L  1147.31,   362.97  L  1104.82,   362.97 " style="&st7; stroke-width:0;" /></a><a ewd:code="FUSE31" ewd:figID="100" ewd:figtype="fuse" style="cursor:pointer;"><path d=" M  1104.82,   320.48  L  1104.82,   345.98  L  1147.31,   345.98  L  1147.31,   320.48  L  1104.82,   320.48 " style="&st7; stroke-width:0;" /></a><a ewd:code="FUSE33" ewd:figID="101" ewd:figtype="fuse" style="cursor:pointer;"><path d=" M  1104.82,   277.99  L  1104.82,   303.48  L  1147.31,   303.48  L  1147.31,   277.99  L  1104.82,   277.99 " style="&st7; stroke-width:0;" /></a><a ewd:code="FUSE9" ewd:figID="102" ewd:figtype="fuse" style="cursor:pointer;"><path d=" M  1104.82,   235.50  L  1104.82,   260.99  L  1147.31,   260.99  L  1147.31,   235.50  L  1104.82,   235.50 " style="&st7; stroke-width:0;" /></a><a ewd:code="FUSE16" ewd:figID="103" ewd:figtype="fuse" style="cursor:pointer;"><path d=" M  1104.82,   193.00  L  1104.82,   218.50  L  1147.31,   218.50  L  1147.31,   193.00  L  1104.82,   193.00 " style="&st7; stroke-width:0;" /></a><a ewd:code="FUSE25" ewd:figID="104" ewd:figtype="fuse" style="cursor:pointer;"><path d=" M  1376.77,   201.50  L  1376.77,   227.00  L  1419.26,   227.00  L  1419.26,   201.50  L  1376.77,   201.50 " style="&st7; stroke-width:0;" /></a><a ewd:code="FUSE26" ewd:figID="105" ewd:figtype="fuse" style="cursor:pointer;"><path d=" M  1376.77,   159.01  L  1376.77,   184.50  L  1419.26,   184.50  L  1419.26,   159.01  L  1376.77,   159.01 " style="&st7; stroke-width:0;" /></a><a ewd:code="FUSE15" ewd:figID="106" ewd:figtype="fuse" style="cursor:pointer;"><path d=" M  1436.26,   447.96  L  1436.26,   473.46  L  1478.75,   473.46  L  1478.75,   447.96  L  1436.26,   447.96 " style="&st7; stroke-width:0;" /></a><a ewd:code="FUSE46" ewd:figID="107" ewd:figtype="fuse" style="cursor:pointer;"><path d=" M  1988.67,   626.43  L  1988.67,   651.93  L  2031.16,   651.93  L  2031.16,   626.43  L  1988.67,   626.43 " style="&st7; stroke-width:0;" /></a><a ewd:code="FUSE38" ewd:figID="108" ewd:figtype="fuse" style="cursor:pointer;"><path d=" M  1988.67,   583.94  L  1988.67,   609.43  L  2031.16,   609.43  L  2031.16,   583.94  L  1988.67,   583.94 " style="&st7; stroke-width:0;" /></a><a ewd:code="FUSE44" ewd:figID="109" ewd:figtype="fuse" style="cursor:pointer;"><path d=" M  1988.67,   541.44  L  1988.67,   566.94  L  2031.16,   566.94  L  2031.16,   541.44  L  1988.67,   541.44 " style="&st7; stroke-width:0;" /></a><a ewd:code="FUSE59" ewd:figID="110" ewd:figtype="fuse" style="cursor:pointer;"><path d=" M  2175.64,   583.94  L  2175.64,   609.43  L  2218.13,   609.43  L  2218.13,   583.94  L  2175.64,   583.94 " style="&st7; stroke-width:0;" /></a><a ewd:code="FUSE36" ewd:figID="111" ewd:figtype="fuse" style="cursor:pointer;"><path d=" M  2175.64,   379.97  L  2175.64,   405.47  L  2218.13,   405.47  L  2218.13,   379.97  L  2175.64,   379.97 " style="&st7; stroke-width:0;" /></a><a ewd:code="FUSE62" ewd:figID="112" ewd:figtype="fuse" style="cursor:pointer;"><path d=" M  2175.64,   303.48  L  2175.64,   328.98  L  2218.13,   328.98  L  2218.13,   303.48  L  2175.64,   303.48 " style="&st7; stroke-width:0;" /></a><a ewd:code="FUSE50" ewd:figID="113" ewd:figtype="fuse" style="cursor:pointer;"><path d=" M  2175.64,   167.51  L  2175.64,   193.00  L  2218.13,   193.00  L  2218.13,   167.51  L  2175.64,   167.51 " style="&st7; stroke-width:0;" /></a><a ewd:code="FUSE45" ewd:figID="114" ewd:figtype="fuse" style="cursor:pointer;"><path d=" M  2175.64,   125.01  L  2175.64,   150.51  L  2218.13,   150.51  L  2218.13,   125.01  L  2175.64,   125.01 " style="&st7; stroke-width:0;" /></a><a ewd:code="FUSE47" ewd:figID="115" ewd:figtype="fuse" style="cursor:pointer;"><path d=" M  2252.12,   125.01  L  2252.12,   150.51  L  2294.62,   150.51  L  2294.62,   125.01  L  2252.12,   125.01 " style="&st7; stroke-width:0;" /></a><a ewd:code="FUSE60" ewd:figID="116" ewd:figtype="fuse" style="cursor:pointer;"><path d=" M  2252.12,    82.52  L  2252.12,   108.02  L  2294.62,   108.02  L  2294.62,    82.52  L  2252.12,    82.52 " style="&st7; stroke-width:0;" /></a><a ewd:code="FUSE40" ewd:figID="117" ewd:figtype="fuse" style="cursor:pointer;"><path d=" M  2345.61,   167.51  L  2345.61,   193.00  L  2388.10,   193.00  L  2388.10,   167.51  L  2345.61,   167.51 " style="&st7; stroke-width:0;" /></a><a ewd:code="FUSE41" ewd:figID="118" ewd:figtype="fuse" style="cursor:pointer;"><path d=" M  2345.61,   125.01  L  2345.61,   150.51  L  2388.10,   150.51  L  2388.10,   125.01  L  2345.61,   125.01 " style="&st7; stroke-width:0;" /></a><a ewd:code="FUSE52" ewd:figID="119" ewd:figtype="fuse" style="cursor:pointer;"><path d=" M  2345.61,    82.52  L  2345.61,   108.02  L  2388.10,   108.02  L  2388.10,    82.52  L  2345.61,    82.52 " style="&st7; stroke-width:0;" /></a><a ewd:code="FUSE58" ewd:figID="120" ewd:figtype="fuse" style="cursor:pointer;"><path d=" M  2371.10,   626.43  L  2371.10,   651.93  L  2413.60,   651.93  L  2413.60,   626.43  L  2371.10,   626.43 " style="&st7; stroke-width:0;" /></a><a ewd:code="FUSE43" ewd:figID="121" ewd:figtype="fuse" style="cursor:pointer;"><path d=" M  2388.10,   260.99  L  2388.10,   286.49  L  2430.59,   286.49  L  2430.59,   260.99  L  2388.10,   260.99 " style="&st7; stroke-width:0;" /></a><a ewd:code="FUSE56" ewd:figID="122" ewd:figtype="fuse" style="cursor:pointer;"><path d=" M  2447.59,   668.92  L  2447.59,   694.42  L  2490.08,   694.42  L  2490.08,   668.92  L  2447.59,   668.92 " style="&st7; stroke-width:0;" /></a><a ewd:code="FUSE57" ewd:figID="123" ewd:figtype="fuse" style="cursor:pointer;"><path d=" M  2447.59,   626.43  L  2447.59,   651.93  L  2490.08,   651.93  L  2490.08,   626.43  L  2447.59,   626.43 " style="&st7; stroke-width:0;" /></a><a ewd:code="FUSE63" ewd:figID="124" ewd:figtype="fuse" style="cursor:pointer;"><path d=" M  2447.59,   583.94  L  2447.59,   609.43  L  2490.08,   609.43  L  2490.08,   583.94  L  2447.59,   583.94 " style="&st7; stroke-width:0;" /></a><a ewd:code="FUSE53" ewd:figID="125" ewd:figtype="fuse" style="cursor:pointer;"><path d=" M  2447.59,   515.95  L  2447.59,   541.44  L  2490.08,   541.44  L  2490.08,   515.95  L  2447.59,   515.95 " style="&st7; stroke-width:0;" /></a><a ewd:code="FUSE54" ewd:figID="126" ewd:figtype="fuse" style="cursor:pointer;"><path d=" M  2447.59,   473.46  L  2447.59,   498.95  L  2490.08,   498.95  L  2490.08,   473.46  L  2447.59,   473.46 " style="&st7; stroke-width:0;" /></a><a ewd:code="FUSE55" ewd:figID="127" ewd:figtype="fuse" style="cursor:pointer;"><path d=" M  2447.59,   430.96  L  2447.59,   456.46  L  2490.08,   456.46  L  2490.08,   430.96  L  2447.59,   430.96 " style="&st7; stroke-width:0;" /></a><a ewd:code="FUSE61" ewd:figID="128" ewd:figtype="fuse" style="cursor:pointer;"><path d=" M  2447.59,   388.47  L  2447.59,   413.97  L  2490.08,   413.97  L  2490.08,   388.47  L  2447.59,   388.47 " style="&st7; stroke-width:0;" /></a><a ewd:code="FUSE48" ewd:figID="129" ewd:figtype="fuse" style="cursor:pointer;"><path d=" M  2464.59,   303.48  L  2464.59,   328.98  L  2507.08,   328.98  L  2507.08,   303.48  L  2464.59,   303.48 " style="&st7; stroke-width:0;" /></a><a ewd:code="FUSE42" ewd:figID="130" ewd:figtype="fuse" style="cursor:pointer;"><path d=" M  2464.59,   260.99  L  2464.59,   286.49  L  2507.08,   286.49  L  2507.08,   260.99  L  2464.59,   260.99 " style="&st7; stroke-width:0;" /></a><a ewd:code="FUSE37" ewd:figID="131" ewd:figtype="fuse" style="cursor:pointer;"><path d=" M  2464.59,   218.50  L  2464.59,   243.99  L  2507.08,   243.99  L  2507.08,   218.50  L  2464.59,   218.50 " style="&st7; stroke-width:0;" /></a><a ewd:code="FUSE49" ewd:figID="132" ewd:figtype="fuse" style="cursor:pointer;"><path d=" M  2464.59,   176.01  L  2464.59,   201.50  L  2507.08,   201.50  L  2507.08,   176.01  L  2464.59,   176.01 " style="&st7; stroke-width:0;" /></a><a ewd:code="FUSE51" ewd:figID="133" ewd:figtype="fuse" style="cursor:pointer;"><path d=" M  2464.59,   125.01  L  2464.59,   150.51  L  2507.08,   150.51  L  2507.08,   125.01  L  2464.59,   125.01 " style="&st7; stroke-width:0;" /></a><a ewd:code="FUSE39" ewd:figID="134" ewd:figtype="fuse" style="cursor:pointer;"><path d=" M  2464.59,    82.52  L  2464.59,   108.02  L  2507.08,   108.02  L  2507.08,    82.52  L  2464.59,    82.52 " style="&st7; stroke-width:0;" /></a><a ewd:lineID="1" style="cursor:pointer;"><path d=" M    67.99,   681.67  L    67.99,   623.31  " style="stroke:#000000;stroke-width: 5.10 ;&st6;" /><path d=" M    67.99,   681.67  L    67.99,   623.31  " style="stroke:#FFFFFF;stroke-width: 2.27 ;&st6;" /><path d=" M    67.99,   681.67  L    67.99,   623.31  " style="stroke:#666666;stroke-width: 1.13 ;&st6;" /></a><a ewd:lineID="2" style="cursor:pointer;"><path d=" M    67.99,   623.31  L    67.99,   630.68  L    59.49,   639.18  L    33.99,   639.18  L    33.99,   681.67  " style="stroke:#000000;stroke-width: 5.10 ;&st6;" /><path d=" M    67.99,   623.31  L    67.99,   630.68  L    59.49,   639.18  L    33.99,   639.18  L    33.99,   681.67  " style="stroke:#FFFFFF;stroke-width: 2.27 ;&st6;" /><path d=" M    67.99,   623.31  L    67.99,   630.68  L    59.49,   639.18  L    33.99,   639.18  L    33.99,   681.67  " style="stroke:#666666;stroke-width: 1.13 ;&st6;" /></a><a ewd:lineID="3" style="cursor:pointer;"><path d=" M    67.99,   460.71  L    67.99,   205.75  L   127.48,   205.75  " style="stroke:#000000;stroke-width: 5.10 ;&st6;" /><path d=" M    67.99,   460.71  L    67.99,   205.75  L   127.48,   205.75  " style="stroke:#FFFFFF;stroke-width: 2.27 ;&st6;" /><path d=" M    67.99,   460.71  L    67.99,   205.75  L   127.48,   205.75  " style="stroke:#FF0000;stroke-width: 1.13 ;&st6;" /></a><a ewd:lineID="4" style="cursor:pointer;"><path d=" M   331.44,   596.69  L   586.40,   596.69  " style="stroke:#FF0000;stroke-width: 5.10 ;&st6;" /></a><a ewd:lineID="5" style="cursor:pointer;"><path d=" M   331.44,   528.70  L  1597.73,   528.70  L  1597.73,   477.71  " style="stroke:#00A0C6;stroke-width: 5.10 ;&st6;" /></a><a ewd:lineID="6" style="cursor:pointer;"><path d=" M   331.44,   248.24  L   399.43,   248.24  " style="stroke:#000000;stroke-width: 5.10 ;&st6;" /></a><a ewd:lineID="7" style="cursor:pointer;"><path d=" M   356.94,   435.21  L   331.44,   435.21  " style="stroke:#FF0000;stroke-width: 5.10 ;&st6;" /></a><a ewd:lineID="8" style="cursor:pointer;"><path d=" M   416.43,   248.24  L   586.40,   248.24  " style="stroke:#000000;stroke-width: 5.10 ;&st6;" /></a><a ewd:lineID="9" style="cursor:pointer;"><path d=" M   458.92,   435.21  L   560.91,   435.21  " style="stroke:#FF0000;stroke-width: 5.10 ;&st6;" /></a><a ewd:lineID="10" style="cursor:pointer;"><path d=" M   586.40,   571.19  L   569.40,   571.19  L   569.40,   545.69  L  1597.73,   545.69  L  1597.73,   571.19  L  1920.68,   571.19  L  1920.68,   477.71  " style="stroke:#999999;stroke-width: 5.10 ;&st6;" /></a><a ewd:comment="4" ewd:lineID="11" style="cursor:pointer;"><path d=" M   688.38,   596.69  L   815.86,   596.69  " style="stroke:#00A0C6;stroke-width: 5.10 ;&st6;" /></a><a ewd:comment="3" ewd:lineID="12" style="cursor:pointer;"><path d=" M   688.38,   596.69  L   696.88,   596.69  L   705.38,   605.18  L   705.38,   622.18  L  1920.68,   622.18  L  1920.68,   605.18  L  1929.18,   596.69  L  1937.68,   596.69  " style="stroke:#00A0C6;stroke-width: 5.10 ;&st6;" /></a><a ewd:lineID="13" style="cursor:pointer;"><path d=" M   688.38,   571.19  L   773.37,   571.19  " style="stroke:#000000;stroke-width: 5.10 ;&st6;" /><path d=" M   688.38,   571.19  L   773.37,   571.19  " style="stroke:#FFFFFF;stroke-width: 4.53 ;&st6;" /><path d=" M   688.38,   571.19  L   773.37,   571.19  " style="stroke:#000000;stroke-width: 1.13 ;&st6;" /></a><a ewd:lineID="14" style="cursor:pointer;"><path d=" M   747.88,   248.24  L   688.38,   248.24  " style="stroke:#000000;stroke-width: 5.10 ;&st6;" /></a><a ewd:lineID="15" style="cursor:pointer;"><path d=" M   764.87,   392.72  L   475.92,   392.72  L   475.92,   426.71  L   467.42,   435.21  L   458.92,   435.21  " style="stroke:#FF0000;stroke-width: 5.10 ;&st6;" /></a><a ewd:lineID="16" style="cursor:pointer;"><path d=" M   781.87,   681.67  L   781.87,   579.69  " style="stroke:#000000;stroke-width: 5.10 ;&st6;" /><path d=" M   781.87,   681.67  L   781.87,   579.69  " style="stroke:#FFFFFF;stroke-width: 4.53 ;&st6;" /><path d=" M   781.87,   681.67  L   781.87,   579.69  " style="stroke:#000000;stroke-width: 1.13 ;&st6;" /></a><a ewd:comment="4" ewd:lineID="17" style="cursor:pointer;"><path d=" M   832.86,   596.69  L  1937.68,   596.69  " style="stroke:#00A0C6;stroke-width: 5.10 ;&st6;" /></a><a ewd:lineID="18" style="cursor:pointer;"><path d=" M   900.85,   392.72  L   866.86,   392.72  " style="stroke:#FF0000;stroke-width: 5.10 ;&st6;" /><path d=" M   900.85,   392.72  L   866.86,   392.72  " style="stroke:#FFFFFF;stroke-width: 2.27 ;&st6;" /><path d=" M   900.85,   392.72  L   866.86,   392.72  " style="stroke:#000000;stroke-width: 1.13 ;&st6;" /></a><a ewd:lineID="19" style="cursor:pointer;"><path d=" M  1249.29,   460.71  L  1198.30,   460.71  " style="stroke:#000000;stroke-width: 5.10 ;&st6;" /></a><a ewd:comment="12" ewd:lineID="20" style="cursor:pointer;"> d=" M  1325.78,   171.76  L  1189.80,   171.76 
	
		<path d=" M  1325.78,   171.76  L  1189.80,   171.76  " style="stroke:#000000;stroke-width: 5.10 ;&st6;" /><path d=" M  1325.78,   171.76  L  1189.80,   171.76  " style="stroke:#FFFFFF;stroke-width: 4.53 ;&st6;" /></a><a ewd:lineID="21" style="cursor:pointer;"><path d=" M  1351.27,   460.71  L  1402.27,   460.71  " style="stroke:#000000;stroke-width: 5.10 ;&st6;" /></a><a ewd:comment="6" ewd:lineID="22" style="cursor:pointer;"><path d=" M  1597.73,   462.97  L  1597.73,   460.71  L  1614.73,   443.71  L  1665.72,   443.71  L  1665.72,   410.28  " style="stroke:#00A0C6;stroke-width: 5.10 ;&st6;" /></a><a ewd:comment="5" ewd:lineID="23" style="cursor:pointer;"><path d=" M  1648.72,   273.74  L  1597.73,   273.74  L  1597.73,   462.97  " style="stroke:#00A0C6;stroke-width: 5.10 ;&st6;" /></a><a ewd:comment="6" ewd:lineID="24" style="cursor:pointer;"><path d=" M  1699.72,   410.28  L  1699.72,   469.21  " style="stroke:#992903;stroke-width: 5.10 ;&st6;" /></a><a ewd:comment="5" ewd:lineID="25" style="cursor:pointer;"><path d=" M  1708.21,   273.74  L  1920.68,   273.74  L  1920.68,   462.97  " style="stroke:#999999;stroke-width: 5.10 ;&st6;" /></a><a ewd:comment="5" ewd:lineID="26" style="cursor:pointer;"><path d=" M  1708.21,   205.75  L  2133.14,   205.75  " style="stroke:#000000;stroke-width: 5.10 ;&st6;" /></a><a ewd:comment="6" ewd:lineID="27" style="cursor:pointer;"><path d=" M  1793.20,   410.28  L  1793.20,   469.21  " style="stroke:#99D9E8;stroke-width: 5.10 ;&st6;" /></a><a ewd:comment="6" ewd:lineID="28" style="cursor:pointer;"><path d=" M  1827.19,   410.28  L  1827.19,   469.21  " style="stroke:#000000;stroke-width: 5.10 ;&st6;" /></a><a ewd:comment="6" ewd:lineID="29" style="cursor:pointer;"><path d=" M  1869.69,   349.66  L  1869.69,   316.23  L  2116.15,   316.23  L  2116.15,   333.23  L  2124.65,   341.73  L  2133.14,   341.73  " style="stroke:#008837;stroke-width: 5.10 ;&st6;" /></a><a ewd:comment="6" ewd:lineID="30" style="cursor:pointer;"><path d=" M  1920.68,   462.97  L  1920.68,   460.71  L  1903.68,   443.71  L  1869.69,   443.71  L  1869.69,   410.28  " style="stroke:#999999;stroke-width: 5.10 ;&st6;" /></a><a ewd:comment="5" ewd:lineID="31" style="cursor:pointer;"><path d=" M  2133.14,   392.72  L  1937.68,   392.72  L  1937.68,   333.23  L  1631.73,   333.23  L  1631.73,   222.75  L  1648.72,   222.75  " style="stroke:#7FC97F;stroke-width: 5.10 ;&st6;" /></a><a ewd:comment="5" ewd:lineID="32" style="cursor:pointer;"><path d=" M  2133.14,   341.73  L  1954.67,   341.73  L  1954.67,   222.75  L  1708.21,   222.75  " style="stroke:#008837;stroke-width: 5.10 ;&st6;" /></a><a ewd:comment="6" ewd:lineID="33" style="cursor:pointer;"><path d=" M  2133.14,   205.75  L  2124.65,   205.75  L  2116.15,   214.25  L  2116.15,   248.24  L  1810.20,   248.24  L  1810.20,   349.66  " style="stroke:#000000;stroke-width: 5.10 ;&st6;" /></a><a ewd:lineID="34" style="cursor:pointer;"> d=" M  2133.14,    95.27  L  1189.80,    95.27 
	
		<path d=" M  2133.14,    95.27  L  1189.80,    95.27  " style="stroke:#000000;stroke-width: 5.10 ;&st6;" /><path d=" M  2133.14,    95.27  L  1189.80,    95.27  " style="stroke:#FFFFFF;stroke-width: 4.53 ;&st6;" /></a><a ewd:lineID="35" style="cursor:pointer;"><path d=" M  2575.07,   681.67  L  2575.07,   554.19  L  2532.58,   554.19  " style="stroke:#000000;stroke-width: 5.10 ;&st6;" /><path d=" M  2575.07,   681.67  L  2575.07,   554.19  L  2532.58,   554.19  " style="stroke:#FFFFFF;stroke-width: 4.53 ;&st6;" /><path d=" M  2575.07,   681.67  L  2575.07,   554.19  L  2532.58,   554.19  " style="stroke:#000000;stroke-width: 1.13 ;&st6;" /></a><a ewd:lineID="36" style="cursor:pointer;"><path d=" M    67.99,   494.70  L    67.99,   536.63  " style="stroke:#000000;stroke-width: 0.85 ;&st6;" /></a><a ewd:code="AE3" ewd:figID="63" ewd:figtype="w2w" ewd:pinNo="2" style="cursor:pointer;"><path d=" M  1606.23,   469.21  L  1589.23,   469.21  L  1589.23,   477.71  L  1606.23,   477.71  L  1606.23,   469.21 " style="&st2;" /><text style="&st8;" transform="matrix(&st16;  1592.43  475.58 )"><tspan style="&st18;" x="0" y="0">AE3</tspan></text></a><a ewd:code="AE3" ewd:figID="64" ewd:figtype="w2w" ewd:pinNo="12" style="cursor:pointer;"><path d=" M  1929.18,   469.21  L  1912.18,   469.21  L  1912.18,   477.71  L  1929.18,   477.71  L  1929.18,   469.21 " style="&st2;" /><text style="&st8;" transform="matrix(&st16;  1915.37  475.58 )"><tspan style="&st18;" x="0" y="0">AE3</tspan></text></a><a ewd:code="CB" ewd:figID="65" ewd:figtype="gp" style="cursor:pointer;"><path d=" M    23.37,   681.67  L    44.62,   681.67  L    33.99,   697.25  L    23.37,   681.67 " style="&st2;" /><text style="&st8;" transform="matrix(&st16;  30.01  689.46 )"><tspan style="&st18;" x="0" y="0">CB</tspan></text></a><a ewd:code="CA" ewd:figID="66" ewd:figtype="gp" style="cursor:pointer;"><path d=" M    57.37,   681.67  L    78.61,   681.67  L    67.99,   697.25  L    57.37,   681.67 " style="&st2;" /><text style="&st8;" transform="matrix(&st16;  63.89  689.46 )"><tspan style="&st18;" x="0" y="0">CA</tspan></text></a><a ewd:code="AB" ewd:figID="67" ewd:figtype="gp" style="cursor:pointer;"><path d=" M   771.25,   681.67  L   792.49,   681.67  L   781.87,   697.25  L   771.25,   681.67 " style="&st2;" /><text style="&st8;" transform="matrix(&st16;  777.99  689.46 )"><tspan style="&st18;" x="0" y="0">AB</tspan></text></a><a ewd:code="EB" ewd:figID="68" ewd:figtype="gp" style="cursor:pointer;"><path d=" M  2564.45,   681.67  L  2585.69,   681.67  L  2575.07,   697.25  L  2564.45,   681.67 " style="&st2;" /><text style="&st8;" transform="matrix(&st16;  2571.38  689.46 )"><tspan style="&st18;" x="0" y="0">EB</tspan></text></a><a ewd:code="SP7" ewd:figID="69" ewd:figtype="sp" style="cursor:pointer;"><path d=" M   403.68,   239.75  L   412.18,   239.75  L   416.43,   243.99  L   416.43,   252.49  L   412.18,   256.74  L   403.68,   256.74  L   399.43,   252.49  L   399.43,   243.99  L   403.68,   239.75 " style="&st2;" /></a><a ewd:code="SP3" ewd:figID="70" ewd:figtype="sp" style="cursor:pointer;"><path d=" M   777.62,   562.69  L   786.12,   562.69  L   790.37,   566.94  L   790.37,   575.44  L   786.12,   579.69  L   777.62,   579.69  L   773.37,   575.44  L   773.37,   566.94  L   777.62,   562.69 " style="&st2;" /></a><a ewd:code="SP5" ewd:figID="71" ewd:figtype="sp" style="cursor:pointer;"><path d=" M   820.11,   588.19  L   828.61,   588.19  L   832.86,   592.44  L   832.86,   600.93  L   828.61,   605.18  L   820.11,   605.18  L   815.86,   600.93  L   815.86,   592.44  L   820.11,   588.19 " style="&st2;" /></a></g></svg>