﻿<?xml version="1.0" encoding="utf-8"?>
<!DOCTYPE svg PUBLIC "-//W3C//DTD SVG 1.0//EN" "http://www.w3.org/TR/2001/REC-SVG-20010904/DTD/svg10.dtd"[
	<!ENTITY ns_flows "http://ns.adobe.com/Flows/1.0/">
	<!ENTITY ns_svg "http://www.w3.org/2000/svg">
	<!ENTITY ns_xlink "http://www.w3.org/1999/xlink">
	<!ENTITY st0 "font-size:7px;font-family:'MS-PGothic';adobe-font-script:japanese;">
	<!ENTITY st1 "font-size:6px;font-family:'ArialMT';">
	<!-- White fill  -->
	<!ENTITY st2 "fill:#FFFFFF;stroke:#000000; stroke-width:1.41;stroke-linecap:round;stroke-linejoin:round;">
	<!-- Yellow fill  -->
	<!ENTITY st3 "fill:#FFFFCC;stroke:#FFFFCC; stroke-width:0.1;stroke-linecap:round;stroke-linejoin:round;">
	<!-- Gray fill  -->
	<!ENTITY st4 "fill:#CCCCCC;stroke:#CCCCCC; stroke-width:0.1;stroke-linecap:round;stroke-linejoin:round;">
	<!-- Light-blue fill -->
	<!ENTITY st5 "fill:#CCECF4;stroke:#000000; stroke-width:1.133;stroke-linecap:round;stroke-linejoin:round;">
	<!ENTITY st6 "fill:none;stroke-linecap:butt; stroke-linejoin:round;">
	<!ENTITY st7 "fill:none;stroke:#000000;stroke-linecap:round;stroke-linejoin:round;">
	<!ENTITY st8 "enable-background:new    ;">
	<!-- Black fill -->
	<!ENTITY st9 "fill:#000000;stroke:#000000; stroke-linecap:round;stroke-linejoin:round;">
	<!-- SRS note   -->
	<!ENTITY st10 "font-size:9px;font-family:'ArialMT';">
	<!ENTITY st11 "font-size:9px;font-family:'Svg Symbol';">
	<!ENTITY st12 "font-size:6px;font-family:'Svg Symbol';">
	<!ENTITY st13 "fill:none;stroke:#ff0000;stroke-linecap:round;stroke-linejoin:round;">
	<!-- Yellow fill  -->
	<!ENTITY st14 "fill:#FFFF00;stroke:#FFFF00; stroke-width:0.1;stroke-linecap:round;stroke-linejoin:round;">
	<!ENTITY st15 "font-size:6px;font-family:'MS-PGothic';adobe-font-script:japanese;">
	<!ENTITY st16 "1.00 0.00 0.00 1.00">
	<!ENTITY st17 "0.00 -1.00 1.00 0.00">
	<!ENTITY st18 "font-size:6px;font-family:'Arial';">
	<!ENTITY st19 "font-size:9px;font-family:'Arial';">
	<!ENTITY st20 "font-size:6px;font-family:'MS-PGothic','MS PGothic';adobe-font-script:japanese;">
	<!ENTITY st21 "font-size:7px;font-family:'MS-PGothic','MS PGothic';adobe-font-script:japanese;">
	<!ATTLIST svg
		xmlns:ewd CDATA #FIXED "http://shcl.co.jp/ewd"
		xmlns:a CDATA #FIXED "http://ns.adobe.com/AdobeSVGViewerExtensions/3.0/"
		ewd:ver CDATA #IMPLIED
	>
	<!ATTLIST a
		ewd:lineID CDATA #IMPLIED
		ewd:groupID CDATA #IMPLIED
		ewd:figtype CDATA #IMPLIED
		ewd:code CDATA #IMPLIED
		ewd:figID CDATA #IMPLIED
		ewd:pinNo CDATA #IMPLIED
		ewd:comment CDATA #IMPLIED >
	<!ATTLIST g
		ewd:lineID CDATA #IMPLIED
		ewd:groupID CDATA #IMPLIED
		ewd:figtype CDATA #IMPLIED
		ewd:code CDATA #IMPLIED
		ewd:figID CDATA #IMPLIED
		ewd:pinNo CDATA #IMPLIED
		ewd:comment CDATA #IMPLIED >
	<!ATTLIST text
		ewd:textID CDATA #IMPLIED >
	<!ATTLIST title
		ewd:textID CDATA #IMPLIED >
]>
<!-- Generator: Shintec Hozumi YS   -->
<svg onload="call_execInitLoadProc_svg('system')" style="overflow:visible;  enable-background:new 0 0 4133.682 710.000" viewBox="0 0 4133.682 710.000" height="710.000" width="4133.682" xml:space="preserve" ewd:ver="2.1.2.7" xmlns="&ns_svg;" xmlns:a="http://ns.adobe.com/AdobeSVGViewerExtensions/3.0/" xmlns:ewd="http://shcl.co.jp/ewd" xmlns:xlink="&ns_xlink;">
<text style="&st18;" transform="matrix(&st17;  3438.23  235.03 )">LG</text><text style="&st18;" transform="matrix(&st17;  3449.56  237.51 )">(*14)</text><text style="&st18;" transform="matrix(&st17;  3237.35  531.6 )">E54</text><text style="&st18;" transform="matrix(&st17;  3030.3  462.32 )">R</text><text style="&st18;" transform="matrix(&st17;  3030.3  233.21 )">G</text><text style="&st18;" transform="matrix(&st17;  3244.18  531.6 )" ewd:textID="55">No. 3 Junction Connector</text><text style="&st18;" transform="matrix(&st17;  3217.27  233.21 )">G</text><text style="&st18;" transform="matrix(&st17;  3339.08  465.42 )">(*8)</text><text style="&st18;" transform="matrix(&st17;  3339.08  235.96 )">(*8)</text><text style="&st18;" transform="matrix(&st17;  3327.75  233.21 )">G</text><text style="&st18;" transform="matrix(&st17;  3327.75  462.32 )">R</text><text style="&st18;" transform="matrix(&st17;  3438.23  463.17 )">W</text><text style="&st18;" transform="matrix(&st17;  3449.56  466.97 )">(*14)</text><text style="&st18;" transform="matrix(&st17;  3041.63  235.96 )">(*1)</text><text style="&st18;" transform="matrix(&st17;  3041.63  465.42 )">(*1)</text><text style="&st18;" transform="matrix(&st17;  3217.27  463.17 )">W</text><text style="&st18;" transform="matrix(&st16;  3131.69  635.48 )">LG</text><text style="&st18;" transform="matrix(&st16;  3080.7  635.48 )">LG</text><text style="&st18;" transform="matrix(&st16;  3133.01  618.48 )">W</text><text style="&st18;" transform="matrix(&st16;  3082.02  618.48 )">W</text><text style="&st18;" transform="matrix(&st16;  3243.05  100.07 )" ewd:textID="52">No. 2 Junction Connector</text><text style="&st18;" transform="matrix(&st16;  3243.04  92.96 )">E53</text><text style="&st18;" transform="matrix(&st16;  3133.01  601.49 )">W</text><text style="&st18;" transform="matrix(&st16;  3082.02  601.49 )">W</text><text style="&st18;" transform="matrix(&st16;  3133.01  584.49 )">W</text><text style="&st18;" transform="matrix(&st16;  3082.02  584.49 )">W</text><g ewd:figtype="conn" ewd:figID="16" ewd:code="E51"><path style="stroke-width: 0.85 ;&st7;  " d=" M  3038.24,   401.22  L  3029.74,   401.22  " /><path style="stroke-width: 0.85 ;&st7;  " d=" M  3041.37,   322.78  L  3048.73,   318.54  " /><path style="stroke-width: 0.85 ;&st7;  " d=" M  3046.73,   315.07  L  3039.36,   319.32  " /><path style="stroke-width: 0.85 ;&st7;  " d=" M  3038.24,   324.73  L  3029.74,   324.73  " /><path style="stroke-width: 1.42 ;&st7;  " d=" M  3016.99,   299.24  L  3016.99,   418.22  L  3059.49,   418.22  L  3059.49,   299.24  L  3016.99,   299.24  " /><path style="stroke-width: 0.28 ;&st9;  " d=" M  3033.99,   324.73  L  3028.33,   316.23  L  3039.66,   316.23  L  3033.99,   324.73  " /><path style="stroke-width: 0.85 ;&st7;  " d=" M  3046.73,   315.07  L  3044.39,   318.11  L  3042.92,   315.57  L  3046.73,   315.07  L  3045.44,   315.81  L  3044.46,   317.09  L  3043.84,   316.02  L  3045.44,   315.81  L  3044.80,   316.18  L  3044.49,   316.58  L  3044.29,   316.24  L  3044.80,   316.18  " /><path style="stroke-width: 0.85 ;&st7;  " d=" M  3048.73,   318.54  L  3046.39,   321.58  L  3044.93,   319.04  L  3048.73,   318.54  L  3047.45,   319.28  L  3046.46,   320.56  L  3045.84,   319.49  L  3047.45,   319.28  L  3046.80,   319.65  L  3046.49,   320.05  L  3046.30,   319.71  L  3046.80,   319.65  " /><path style="stroke-width: 0.28 ;&st9;  " d=" M  3033.99,   401.22  L  3028.33,   392.72  L  3039.66,   392.72  L  3033.99,   401.22  " /><path style="stroke-width: 0.85 ;&st7;  " d=" M  3033.99,   358.73  L  3033.99,   350.23  L  3031.16,   348.81  L  3036.82,   345.98  L  3031.16,   343.14  L  3036.82,   340.31  L  3031.16,   337.48  L  3036.82,   334.65  L  3033.99,   333.23  L  3033.99,   299.24  " /><path style="stroke-width: 0.85 ;&st7;  " d=" M  3033.99,   418.22  L  3033.99,   384.22  L  3031.16,   382.80  L  3036.82,   379.97  L  3031.16,   377.14  L  3036.82,   374.31  L  3031.16,   371.47  L  3036.82,   368.64  L  3033.99,   367.22  L  3033.99,   358.73  " /><text style="&st18;" transform="matrix(&st16;  3036.58  414.53 )">ILL-</text><text style="&st18;" transform="matrix(&st16;  3036.58  307.43 )">ILL+</text><text style="&st18;" transform="matrix(&st16;  3027.81  426.41 )">2</text><text style="&st18;" transform="matrix(&st16;  3027.81  295.55 )">3</text><g ewd:figtype="title"><text style="&st18;" transform="matrix(&st17;  3067.1  421.11 )">E51</text><text style="&st18;" transform="matrix(&st17;  3074.21  421.12 )" ewd:textID="35">ECO Switch Assembly</text></g></g><g ewd:figtype="conn" ewd:figID="19" ewd:code="E1,E2,E62,E63,E65,E66"><path style="stroke-width: 1.42 ;&st7;  " d=" M  3203.96,   350.23  L  3203.96,   384.22  L  3237.96,   384.22  L  3237.96,   350.23  L  3203.96,   350.23  " /><g ewd:comment="13,12,18" ewd:lineID="65"><text style="&st18;" transform="matrix(&st16;  3212.27  408.85 )">5</text><text style="&st18;" transform="matrix(&st16;  3212.27  390.72 )">5</text><text style="&st18;" transform="matrix(&st16;  3212.27  399.79 )">5</text><path style="stroke-width: 1.42 ;&st7;   " d=" M  3225.49,   388.75  C  3225.49    386.25   3223.47    384.22   3220.96    384.22  " /><path style="stroke-width: 1.42 ;&st7;   " d=" M  3220.96,   384.22  C  3218.46    384.22   3216.43    386.25   3216.43    388.75  " /><path style="stroke-width: 1.42 ;&st7;   " d=" M  3216.43,   388.75  C  3216.43    391.26   3218.46    393.29   3220.96    393.29  " /><path style="stroke-width: 1.42 ;&st7;   " d=" M  3220.96,   393.29  C  3223.47    393.29   3225.49    391.26   3225.49    388.75  " /><text style="&st18;" transform="matrix(&st16;  3219.82  399.79 )">I</text><text style="&st18;" transform="matrix(&st16;  3218.23  408.85 )">M</text><text style="&st18;" transform="matrix(&st16;  3218.77  390.72 )">B</text><path style="stroke-width: 1.42 ;&st7;   " d=" M  3225.49,   397.82  C  3225.49    395.32   3223.47    393.29   3220.96    393.29  " /><path style="stroke-width: 1.42 ;&st7;   " d=" M  3220.96,   393.29  C  3218.46    393.29   3216.43    395.32   3216.43    397.82  " /><path style="stroke-width: 1.42 ;&st7;   " d=" M  3216.43,   397.82  C  3216.43    400.32   3218.46    402.35   3220.96    402.35  " /><path style="stroke-width: 1.42 ;&st7;   " d=" M  3220.96,   402.35  C  3223.47    402.35   3225.49    400.32   3225.49    397.82  " /><path style="stroke-width: 1.42 ;&st7;   " d=" M  3225.49,   406.88  C  3225.49    404.38   3223.47    402.35   3220.96    402.35  " /><path style="stroke-width: 1.42 ;&st7;   " d=" M  3220.96,   402.35  C  3218.46    402.35   3216.43    404.38   3216.43    406.88  " /><path style="stroke-width: 1.42 ;&st7;   " d=" M  3216.43,   406.88  C  3216.43    409.39   3218.46    411.42   3220.96    411.42  " /><path style="stroke-width: 1.42 ;&st7;   " d=" M  3220.96,   411.42  C  3223.47    411.42   3225.49    409.39   3225.49    406.88  " /><text style="&st18;" transform="matrix(&st16;  3214.62  380.52 )">ILL-</text><g ewd:code="" ewd:figID="83" ewd:comment="13" ewd:figtype="commref"><text style="&st18;" transform="matrix(&st16;  3226.05  399.79 )">(*13)</text></g><g ewd:code="" ewd:figID="84" ewd:comment="12" ewd:figtype="commref"><text style="&st18;" transform="matrix(&st16;  3226.05  390.72 )">(*12)</text></g><g ewd:code="" ewd:figID="97" ewd:comment="18" ewd:figtype="commref"><text style="&st18;" transform="matrix(&st16;  3226.05  408.85 )">(*18)</text></g></g><g ewd:comment="13,18,12" ewd:lineID="66"><text style="&st18;" transform="matrix(&st16;  3209.17  329.53 )">10</text><text style="&st18;" transform="matrix(&st16;  3209.17  338.6 )">10</text><text style="&st18;" transform="matrix(&st16;  3209.17  347.66 )">10</text><path style="stroke-width: 1.42 ;&st7;   " d=" M  3225.49,   327.56  C  3225.49    325.06   3223.47    323.03   3220.96    323.03  " /><path style="stroke-width: 1.42 ;&st7;   " d=" M  3220.96,   323.03  C  3218.46    323.03   3216.43    325.06   3216.43    327.56  " /><path style="stroke-width: 1.42 ;&st7;   " d=" M  3216.43,   327.56  C  3216.43    330.07   3218.46    332.10   3220.96    332.10  " /><path style="stroke-width: 1.42 ;&st7;   " d=" M  3220.96,   332.10  C  3223.47    332.10   3225.49    330.07   3225.49    327.56  " /><path style="stroke-width: 1.42 ;&st7;   " d=" M  3225.49,   345.69  C  3225.49    343.19   3223.47    341.16   3220.96    341.16  " /><path style="stroke-width: 1.42 ;&st7;   " d=" M  3220.96,   341.16  C  3218.46    341.16   3216.43    343.19   3216.43    345.69  " /><path style="stroke-width: 1.42 ;&st7;   " d=" M  3216.43,   345.69  C  3216.43    348.20   3218.46    350.23   3220.96    350.23  " /><path style="stroke-width: 1.42 ;&st7;   " d=" M  3220.96,   350.23  C  3223.47    350.23   3225.49    348.20   3225.49    345.69  " /><path style="stroke-width: 1.42 ;&st7;   " d=" M  3225.49,   336.63  C  3225.49    334.13   3223.47    332.10   3220.96    332.10  " /><path style="stroke-width: 1.42 ;&st7;   " d=" M  3220.96,   332.10  C  3218.46    332.10   3216.43    334.13   3216.43    336.63  " /><path style="stroke-width: 1.42 ;&st7;   " d=" M  3216.43,   336.63  C  3216.43    339.13   3218.46    341.16   3220.96    341.16  " /><path style="stroke-width: 1.42 ;&st7;   " d=" M  3220.96,   341.16  C  3223.47    341.16   3225.49    339.13   3225.49    336.63  " /><text style="&st18;" transform="matrix(&st16;  3218.66  329.53 )">A</text><text style="&st18;" transform="matrix(&st16;  3218.89  347.66 )">L</text><text style="&st18;" transform="matrix(&st16;  3218.46  338.6 )">H</text><text style="&st18;" transform="matrix(&st16;  3214.62  357.86 )">ILL+</text><g ewd:code="" ewd:figID="82" ewd:comment="13" ewd:figtype="commref"><text style="&st18;" transform="matrix(&st16;  3226.05  338.6 )">(*13)</text></g><g ewd:code="" ewd:figID="85" ewd:comment="18" ewd:figtype="commref"><text style="&st18;" transform="matrix(&st16;  3226.05  347.66 )">(*18)</text></g><g ewd:code="" ewd:figID="96" ewd:comment="12" ewd:figtype="commref"><text style="&st18;" transform="matrix(&st16;  3226.05  329.53 )">(*12)</text></g></g><g ewd:figtype="title"><text style="&st18;" transform="matrix(&st17;  3200.27  387.13 )" ewd:textID="61">Radio Receiver Assembly</text><text style="&st18;" transform="matrix(&st17;  3193.44  387.12 )">E62(H),E63(I)</text><text style="&st18;" transform="matrix(&st17;  3186.39  387.13 )" ewd:textID="49">Navigation Receiver Assembly</text><text style="&st18;" transform="matrix(&st17;  3179.56  387.12 )">E65(L),E66(M)</text><text style="&st18;" transform="matrix(&st17;  3170.52  387.13 )" ewd:textID="59">Radio &amp; Display Receiver Assembly</text><text style="&st18;" transform="matrix(&st17;  3163.7  387.12 )">E1(A),E2(B)</text></g></g><g ewd:figtype="conn" ewd:figID="22" ewd:code="E21"><path style="stroke-width: 0.85 ;&st7;  " d=" M  3446.17,   401.22  L  3437.68,   401.22  " /><path style="stroke-width: 0.85 ;&st7;  " d=" M  3449.30,   305.79  L  3456.66,   301.54  " /><path style="stroke-width: 0.85 ;&st7;  " d=" M  3454.66,   298.07  L  3447.30,   302.32  " /><path style="stroke-width: 0.85 ;&st7;  " d=" M  3446.17,   307.73  L  3437.68,   307.73  " /><path style="stroke-width: 1.42 ;&st7;  " d=" M  3416.43,   282.24  L  3416.43,   418.22  L  3467.42,   418.22  L  3467.42,   282.24  L  3416.43,   282.24  " /><path style="stroke-width: 0.28 ;&st9;  " d=" M  3441.92,   307.73  L  3436.26,   299.24  L  3447.59,   299.24  L  3441.92,   307.73  " /><path style="stroke-width: 0.85 ;&st7;  " d=" M  3454.66,   298.07  L  3452.32,   301.11  L  3450.86,   298.57  L  3454.66,   298.07  L  3453.37,   298.81  L  3452.39,   300.09  L  3451.77,   299.02  L  3453.37,   298.81  L  3452.73,   299.18  L  3452.42,   299.58  L  3452.23,   299.25  L  3452.73,   299.18  " /><path style="stroke-width: 0.85 ;&st7;  " d=" M  3456.66,   301.54  L  3454.33,   304.58  L  3452.86,   302.04  L  3456.66,   301.54  L  3455.38,   302.28  L  3454.39,   303.56  L  3453.77,   302.49  L  3455.38,   302.28  L  3454.74,   302.65  L  3454.42,   303.05  L  3454.23,   302.72  L  3454.74,   302.65  " /><path style="stroke-width: 0.28 ;&st9;  " d=" M  3441.92,   401.22  L  3436.26,   392.72  L  3447.59,   392.72  L  3441.92,   401.22  " /><path style="stroke-width: 0.85 ;&st7;  " d=" M  3441.92,   350.23  L  3441.92,   341.73  L  3439.09,   340.31  L  3444.76,   337.48  L  3439.09,   334.65  L  3444.76,   331.81  L  3439.09,   328.98  L  3444.76,   326.15  L  3441.92,   324.73  L  3441.92,   316.23  " /><path style="stroke-width: 0.85 ;&st7;  " d=" M  3441.92,   384.22  L  3441.92,   375.72  L  3439.09,   374.31  L  3444.76,   371.47  L  3439.09,   368.64  L  3444.76,   365.81  L  3439.09,   362.97  L  3444.76,   360.14  L  3441.92,   358.73  L  3441.92,   350.23  " /><path style="stroke-width: 0.85 ;&st7;  " d=" M  3441.92,   282.24  L  3441.92,   316.23  " /><path style="stroke-width: 0.85 ;&st7;  " d=" M  3441.92,   384.22  L  3441.92,   418.22  " /><text style="&st18;" transform="matrix(&st16;  3444.51  414.53 )">MSW-</text><text style="&st18;" transform="matrix(&st16;  3444.51  290.43 )">MSW+</text><text style="&st18;" transform="matrix(&st16;  3435.74  426.41 )">4</text><text style="&st18;" transform="matrix(&st16;  3435.74  278.55 )">5</text><g ewd:figtype="title"><text style="&st18;" transform="matrix(&st17;  3482.14  421.12 )" ewd:textID="58">Pattern Select Switch Assembly</text><text style="&st18;" transform="matrix(&st17;  3475.03  421.11 )">E21</text></g></g><g ewd:figtype="conn" ewd:figID="37" ewd:code="E39"><text style="&st18;" transform="matrix(&st16;  3319.87  363.54 )" ewd:textID="66">Shift <tspan x="0 " dy="6.0">Position </tspan><tspan x="0 " dy="6.0">Indicator</tspan></text><path style="stroke-width: 1.42 ;&st7;  " d=" M  3305.95,   341.73  L  3305.95,   392.72  L  3356.94,   392.72  L  3356.94,   341.73  L  3305.95,   341.73  " /><text style="&st18;" transform="matrix(&st16;  3325.11  349.36 )">ILL+</text><text style="&st18;" transform="matrix(&st16;  3325.11  389.02 )">ILL-</text><text style="&st18;" transform="matrix(&st16;  3322.16  400.91 )">14</text><text style="&st18;" transform="matrix(&st16;  3325.26  338.04 )">7</text><g ewd:figtype="title"><text style="&st18;" transform="matrix(&st17;  3371.66  395.63 )" ewd:textID="80">Transmission Floor Shift Assembly</text><text style="&st18;" transform="matrix(&st17;  3364.55  395.62 )">E39</text></g></g><g ewd:code="12" ewd:figID="86" ewd:comment="" ewd:figtype="comment"><text style="&st18;" transform="matrix(&st16;  3353.53  29.25 )" ewd:textID="6">*12 :Radio &amp; Display Receiver Type</text></g><g ewd:code="15" ewd:figID="89" ewd:comment="" ewd:figtype="comment"><text style="&st18;" transform="matrix(&st16;  3353.53  54.75 )" ewd:textID="9">*15 :w/ TFT Display</text></g><g ewd:code="16" ewd:figID="90" ewd:comment="" ewd:figtype="comment"><text style="&st18;" transform="matrix(&st16;  3353.53  63.24 )" ewd:textID="10">*16 :w/o TFT Display</text></g><g ewd:code="18" ewd:figID="95" ewd:comment="" ewd:figtype="comment"><text style="&st18;" transform="matrix(&st16;  3353.53  71.74 )" ewd:textID="11">*18 :Navigation Receiver Type</text></g><g ewd:code="8" ewd:figID="81" ewd:comment="" ewd:figtype="comment"><text style="&st18;" transform="matrix(&st16;  3353.53  20.75 )" ewd:textID="5">* 8 :Except M/T</text></g><g ewd:code="13" ewd:figID="87" ewd:comment="" ewd:figtype="comment"><text style="&st18;" transform="matrix(&st16;  3353.53  37.75 )" ewd:textID="7">*13 :Radio Receiver Type</text></g><g ewd:code="14" ewd:figID="88" ewd:comment="" ewd:figtype="comment"><text style="&st18;" transform="matrix(&st16;  3353.53  46.25 )" ewd:textID="8">*14 :w/ Paddle Shift Switch</text></g><g ewd:code="36" ewd:figID="104" ewd:comment="" ewd:figtype="comment"><text style="&st18;" transform="matrix(&st16;  3353.53  88.74 )" ewd:textID="25">*36 :Mexico w/ TFT Display</text></g><g ewd:code="24" ewd:figID="102" ewd:comment="" ewd:figtype="comment"><text style="&st18;" transform="matrix(&st16;  3353.53  80.24 )" ewd:textID="13">*24 :Canada w/ TFT Display</text></g></svg>