﻿<?xml version="1.0"?>
<!-- Generator: Adobe Illustrator 10.0, SVG Export Plug-In . SVG Version: 3.0.0 Build 77)  -->
<!DOCTYPE svg PUBLIC "-//W3C//DTD SVG 1.0//EN" "http://www.w3.org/TR/2001/REC-SVG-20010904/DTD/svg10.dtd"[
	<!ENTITY ns_flows "http://ns.adobe.com/Flows/1.0/">
	<!ENTITY ns_svg "http://www.w3.org/2000/svg">
	<!ENTITY ns_xlink "http://www.w3.org/1999/xlink">
	<!ENTITY st0 "fill:none;stroke:#000000;stroke-linecap:round;stroke-linejoin:round;">
	<!ENTITY st1 "fill:none;stroke:#000000;stroke-width:0.6;stroke-linecap:round;stroke-linejoin:round;">
	<!ENTITY st2 "font-size:6px;">
	<!ENTITY st3 "font-family:'Arial';">
	<!ATTLIST svg
		ewd:ver CDATA #IMPLIED
		xmlns:ewd CDATA #FIXED "http://shcl.co.jp/ewd"
		xmlns:a CDATA #FIXED "http://ns.adobe.com/AdobeSVGViewerExtensions/3.0/">
	<!ATTLIST g
		ewd:pinNo CDATA #IMPLIED>
]>
<svg width="151.142" height="90.235" viewBox="0 0 151.142 90.235" style="overflow:visible;enable-background:new 0 0 151.142 90.235" xml:space="preserve" onload="call_execInitLoadProc_svg('connector')" ewd:ver="2.1.2.7" xmlns="&ns_svg;" xmlns:ewd="http://shcl.co.jp/ewd" xmlns:a="http://ns.adobe.com/AdobeSVGViewerExtensions/3.0/" xmlns:xlink="&ns_xlink;">
<script type="text/javascript" xlink:href="../../../../../system/js/ewd/fig/svgfig.js"/>
<g id="レイヤー_1">
	<path style="&st0;" d="M146.392,8.999c0-4.694-3.805-8.499-8.499-8.499"/>
	<path style="&st0;" d="M13.248,0.5c-4.694,0-8.499,3.805-8.499,8.499"/>
	<path style="&st0;" d="M4.749,82.554c0,0.979,0.447,1.813,1.261,2.356"/>
	<path style="&st0;" d="M12.534,89.259c0.488,0.325,0.986,0.476,1.572,0.476"/>
	<path style="&st0;" d="M137.035,89.735c0.586,0,1.085-0.151,1.572-0.476"/>
	<path style="&st0;" d="M145.132,84.911c0.814-0.543,1.261-1.378,1.261-2.357"/>
	<path style="&st1;" d="M16.081,81.237c0,1.564,1.269,2.833,2.833,2.833"/>
	<path style="&st1;" d="M27.412,84.07c1.564,0,2.833-1.269,2.833-2.833"/>
	<path style="&st1;" d="M120.896,81.237c0,1.564,1.269,2.833,2.833,2.833"/>
	<path style="&st1;" d="M132.228,84.07c1.564,0,2.833-1.269,2.833-2.833"/>
	<path style="&st1;" d="M47.242,74.155h22.663"/>
	<path style="&st1;" d="M13.248,51.492v22.663h11.331"/>
	<path style="&st1;" d="M24.579,51.492v22.663"/>
	<path style="&st1;" d="M47.242,51.492v22.663"/>
	<path style="&st1;" d="M58.574,51.492v22.663"/>
	<path style="&st1;" d="M69.905,51.492v22.663"/>
	<path style="&st1;" d="M81.236,51.492v22.663"/>
	<path style="&st1;" d="M92.568,51.492v22.663"/>
	<path style="&st1;" d="M103.899,51.492v22.663"/>
	<path style="&st1;" d="M126.562,51.492v22.663"/>
	<path style="&st1;" d="M13.248,62.823h22.663"/>
	<path style="&st1;" d="M81.236,62.823h22.663"/>
	<path style="&st1;" d="M47.242,62.823h22.663"/>
	<path style="&st1;" d="M81.236,74.155h22.663"/>
	<path style="&st1;" d="M115.231,62.823h22.663"/>
	<path style="&st1;" d="M103.899,51.492H81.236"/>
	<path style="&st0;" d="M13.248,0.5h124.646"/>
	<path style="&st0;" d="M146.392,8.999v25.496"/>
	<path style="&st1;" d="M4.749,34.495v4.249"/>
	<path style="&st1;" d="M4.749,79.82h11.332"/>
	<path style="&st1;" d="M16.081,76.987v4.25"/>
	<path style="&st1;" d="M18.914,84.07h8.499"/>
	<path style="&st1;" d="M135.061,79.82h11.331"/>
	<path style="&st1;" d="M135.061,76.987v4.25"/>
	<path style="&st1;" d="M123.729,84.07h8.499"/>
	<path style="&st1;" d="M120.896,76.987v4.25"/>
	<path style="&st1;" d="M30.245,76.987v4.25"/>
	<path style="&st1;" d="M30.245,79.82h90.651"/>
	<path style="&st1;" d="M64.239,28.829v-5.666h22.663v5.666"/>
	<path style="&st1;" d="M126.562,74.155h11.332V51.492h-11.332"/>
	<path style="&st1;" d="M69.905,51.492H47.242"/>
	<path style="&st1;" d="M24.579,51.492H13.248"/>
	<path style="&st1;" d="M146.392,76.987H4.749"/>
	<path style="&st1;" d="M143.559,31.662H119.48v8.499"/>
	<path style="&st1;" d="M31.662,31.662V8.999h87.818v22.663"/>
	<path style="&st1;" d="M18.914,76.987v2.833h8.499v-2.833"/>
	<path style="&st1;" d="M123.729,76.987v2.833h8.499v-2.833"/>
	<path style="&st1;" d="M7.582,31.662h24.08v8.499"/>
	<path style="&st0;" d="M4.749,79.82v2.734"/>
	<path style="&st0;" d="M146.392,79.82v2.734"/>
	<path style="&st0;" d="M6.01,84.911l6.524,4.348"/>
	<path style="&st0;" d="M14.106,89.735h122.929"/>
	<path style="&st0;" d="M145.132,84.911l-6.524,4.348"/>
	<path style="&st1;" d="M46.534,31.662h-7.082V13.248h72.238v18.414h-7.083"/>
	<path style="&st1;" d="M86.902,28.829h17.705v2.833"/>
	<path style="&st1;" d="M46.534,31.662v-2.833h17.706"/>
	<path style="&st1;" d="M46.534,40.16v-8.499h58.074v8.499"/>
	<path style="&st0;" d="M146.392,76.987v2.833"/>
	<path style="&st1;" d="M119.48,40.16l-2.833,2.833h-9.207l-2.833-2.833"/>
	<path style="&st1;" d="M46.534,40.16l-2.833,2.833h-9.207l-2.833-2.833"/>
	<path style="&st0;" d="M4.749,8.999v25.496"/>
	<path style="&st1;" d="M146.392,34.495v4.249"/>
	<path style="&st0;" d="M4.749,38.744v24.08"/>
	<path style="&st0;" d="M4.749,76.987v2.833"/>
	<path style="&st0;" d="M146.392,38.744v24.08"/>
	<path style="&st1;" d="M71.321,48.659V44.41h-2.833l2.833-5.666h8.499l2.833,5.666H79.82v4.249"/>
	<path style="&st1;" d="M64.239,23.163V20.33h22.663v2.833"/>
	<path style="&st1;" d="M46.534,13.248l2.833,2.833h52.408l2.833-2.833"/>
	<path style="&st1;" d="M13.248,51.492V40.16h11.331v11.332"/>
	<path style="&st1;" d="M126.562,51.492V40.16h11.332v11.332"/>
	<path style="&st1;" d="M24.579,0.5v31.162"/>
	<path style="&st1;" d="M126.562,0.5v31.162"/>
	<path style="&st1;" d="M24.579,51.492h11.332v22.663H24.579"/>
	<path style="&st1;" d="M126.562,51.492h-11.331v22.663h11.331"/>
	<path style="&st1;" d="M143.559,31.662l2.833,2.833"/>
	<path style="&st1;" d="M7.582,31.662l-2.833,2.833"/>
	<path style="&st1;" d="M7.582,40.16v7.082h2.833V40.16H7.582"/>
	<path style="&st1;" d="M7.582,51.492v7.082h2.833v-7.082H7.582"/>
	<path style="&st1;" d="M7.582,62.823v7.082h2.833v-7.082H7.582"/>
	<path style="&st1;" d="M140.727,40.16v7.082h2.833V40.16H140.727"/>
	<path style="&st1;" d="M71.321,48.659H24.579"/>
	<path style="&st1;" d="M140.727,51.492v7.082h2.833v-7.082H140.727"/>
	<path style="&st1;" d="M79.82,48.659h46.742"/>
	<path style="&st1;" d="M140.727,62.823v7.082h2.833v-7.082H140.727"/>
	<path style="&st1;" d="M137.894,28.829h8.499l-2.833,2.833"/>
	<path style="&st1;" d="M13.248,28.829H4.749l2.833,2.833"/>
	<path style="&st1;" d="M13.248,8.999v19.83"/>
	<path style="&st1;" d="M137.894,8.999v19.83"/>
	<path style="&st1;" d="M126.562,8.999h11.332"/>
	<path style="&st1;" d="M13.248,8.999h11.331"/>
	<path style="&st1;" d="M126.562,16.081h4.25v5.666h-4.25"/>
	<path style="&st1;" d="M24.579,16.081H20.33v5.666h4.249"/>
	<path style="&st0;" d="M146.392,34.495h2.833v4.249h-2.833"/>
	<path style="&st0;" d="M146.392,62.823h4.25v7.082h-4.25"/>
	<path style="&st0;" d="M149.225,69.905v4.25h-2.833"/>
	<path style="&st0;" d="M146.392,76.987v-2.833"/>
	<path style="&st1;" d="M146.392,62.823v11.332"/>
	<path style="&st0;" d="M4.749,34.495H1.916v4.249h2.833"/>
	<path style="&st0;" d="M4.749,62.823H0.5v7.082h4.249"/>
	<path style="&st0;" d="M1.916,69.905v4.25h2.833"/>
	<path style="&st0;" d="M4.749,76.987v-2.833"/>
	<path style="&st1;" d="M4.749,62.823v11.332"/>
	<g ewd:pinNo="3">
		<text transform="matrix(1 0 0 1 17.1772 59.3711)"><tspan x="0" y="0" style="&st3; &st2;">3</tspan></text>
	</g>
	<g ewd:pinNo="5">
		<text transform="matrix(1 0 0 1 51.1714 59.3711)"><tspan x="0" y="0" style="&st3; &st2;">5</tspan></text>
	</g>
	<g ewd:pinNo="6">
		<text transform="matrix(1 0 0 1 62.5029 59.3711)"><tspan x="0" y="0" style="&st3; &st2;">6</tspan></text>
	</g>
	<g ewd:pinNo="7">
		<text transform="matrix(1 0 0 1 85.1655 59.3711)"><tspan x="0" y="0" style="&st3; &st2;">7</tspan></text>
	</g>
	<g ewd:pinNo="8">
		<text transform="matrix(1 0 0 1 96.4971 59.3711)"><tspan x="0" y="0" style="&st3; &st2;">8</tspan></text>
	</g>
	<g ewd:pinNo="10">
		<text transform="matrix(1 0 0 1 128.7837 59.3711)"><tspan x="0" y="0" style="&st3; &st2;">10</tspan></text>
	</g>
	<g ewd:pinNo="11">
		<text transform="matrix(1 0 0 1 15.6919 70.7026)"><tspan x="0" y="0" style="&st3; &st2;">11</tspan></text>
	</g>
	<g ewd:pinNo="13">
		<text transform="matrix(1 0 0 1 49.4639 70.7026)"><tspan x="0" y="0" style="&st3; &st2;">13</tspan></text>
	</g>
	<g ewd:pinNo="14">
		<text transform="matrix(1 0 0 1 60.7949 70.7026)"><tspan x="0" y="0" style="&st3; &st2;">14</tspan></text>
	</g>
	<g ewd:pinNo="15">
		<text transform="matrix(1 0 0 1 83.458 70.7026)"><tspan x="0" y="0" style="&st3; &st2;">15</tspan></text>
	</g>
	<g ewd:pinNo="16">
		<text transform="matrix(1 0 0 1 94.7896 70.7026)"><tspan x="0" y="0" style="&st3; &st2;">16</tspan></text>
	</g>
	<g ewd:pinNo="18">
		<text transform="matrix(1 0 0 1 128.7837 70.7026)"><tspan x="0" y="0" style="&st3; &st2;">18</tspan></text>
	</g>
	<g ewd:pinNo="1">
		<text transform="matrix(1 0 0 1 17.1772 48.04)"><tspan x="0" y="0" style="&st3; &st2;">1</tspan></text>
	</g>
	<g ewd:pinNo="4">
		<text transform="matrix(1 0 0 1 28.5083 59.3711)"><tspan x="0" y="0" style="&st3; &st2;">4</tspan></text>
	</g>
	<g ewd:pinNo="12">
		<text transform="matrix(1 0 0 1 26.8008 70.7026)"><tspan x="0" y="0" style="&st3; &st2;">12</tspan></text>
	</g>
	<g ewd:pinNo="9">
		<text transform="matrix(1 0 0 1 119.1602 59.3711)"><tspan x="0" y="0" style="&st3; &st2;">9</tspan></text>
	</g>
	<g ewd:pinNo="17">
		<text transform="matrix(1 0 0 1 117.4521 70.7026)"><tspan x="0" y="0" style="&st3; &st2;">17</tspan></text>
	</g>
	<g ewd:pinNo="2">
		<text transform="matrix(1 0 0 1 130.4912 48.04)"><tspan x="0" y="0" style="&st3; &st2;">2</tspan></text>
	</g>
</g>
</svg>