﻿<?xml version="1.0"?>
<!-- Generator: Adobe Illustrator 10.0, SVG Export Plug-In . SVG Version: 3.0.0 Build 77)  -->
<!DOCTYPE svg PUBLIC "-//W3C//DTD SVG 1.0//EN" "http://www.w3.org/TR/2001/REC-SVG-20010904/DTD/svg10.dtd"[
	<!ENTITY ns_flows "http://ns.adobe.com/Flows/1.0/">
	<!ENTITY ns_svg "http://www.w3.org/2000/svg">
	<!ENTITY ns_xlink "http://www.w3.org/1999/xlink">
	<!ENTITY st0 "fill:none;stroke:#000000;stroke-linecap:round;stroke-linejoin:round;">
	<!ENTITY st1 "fill:none;stroke:#000000;stroke-width:0.6;stroke-linecap:round;stroke-linejoin:round;">
	<!ENTITY st2 "font-size:6px;">
	<!ENTITY st3 "font-family:'Arial';">
	<!ATTLIST svg
		ewd:ver CDATA #IMPLIED
		xmlns:ewd CDATA #FIXED "http://shcl.co.jp/ewd"
		xmlns:a CDATA #FIXED "http://ns.adobe.com/AdobeSVGViewerExtensions/3.0/">
	<!ATTLIST g
		ewd:pinNo CDATA #IMPLIED>
]>
<svg width="51.991" height="51.992" viewBox="0 0 51.991 51.992" style="overflow:visible;enable-background:new 0 0 51.991 51.992" xml:space="preserve" onload="call_execInitLoadProc_svg('connector')" ewd:ver="2.1.2.7" xmlns="&ns_svg;" xmlns:ewd="http://shcl.co.jp/ewd" xmlns:a="http://ns.adobe.com/AdobeSVGViewerExtensions/3.0/" xmlns:xlink="&ns_xlink;">
<script type="text/javascript" xlink:href="../../../../../system/js/ewd/fig/svgfig.js"/>
<g id="レイヤー_1">
	<path style="&st1;" d="M28.97,26.704h-5.949"/>
	<path style="&st1;" d="M19.622,28.687v5.949"/>
	<path style="&st1;" d="M32.37,28.687v5.949"/>
	<path style="&st1;" d="M28.97,25.288h-5.949"/>
	<path style="&st1;" d="M28.97,38.036h-5.949"/>
	<path style="&st1;" d="M28.97,43.701h-5.949"/>
	<path style="&st1;" d="M13.956,15.373v3.011"/>
	<path style="&st1;" d="M13.956,28.121v6.516"/>
	<path style="&st1;" d="M31.662,8.999H20.33"/>
	<path style="&st1;" d="M31.662,10.416H20.33"/>
	<path style="&st1;" d="M17.497,13.248v7.969"/>
	<path style="&st1;" d="M34.494,13.248v7.969"/>
	<path style="&st1;" d="M39.806,29.183h-1.771"/>
	<path style="&st1;" d="M40.514,29.891v3.541"/>
	<path style="&st1;" d="M39.806,34.141h-1.771"/>
	<path style="&st1;" d="M13.956,29.183h-1.771"/>
	<path style="&st1;" d="M11.477,29.891v3.541"/>
	<path style="&st1;" d="M13.956,34.141h-1.771"/>
	<path style="&st1;" d="M28.262,19.622h-4.532"/>
	<path style="&st1;" d="M34.494,16.789H17.497"/>
	<path style="&st1;" d="M22.596,16.789v1.7"/>
	<path style="&st1;" d="M29.395,16.789v1.7"/>
	<path style="&st1;" d="M34.494,15.798H17.497"/>
	<path style="&st1;" d="M21.038,28.682v5.104"/>
	<path style="&st1;" d="M30.953,28.682v5.104"/>
	<path style="&st1;" d="M23.871,36.619h4.249"/>
	<path style="&st1;" d="M22.455,40.869h7.082"/>
	<path style="&st1;" d="M22.455,22.455h7.082"/>
	<path style="&st1;" d="M16.789,28.121v7.082"/>
	<path style="&st1;" d="M35.203,28.121v7.082"/>
	<path style="&st1;" d="M22.455,19.622h7.082"/>
	<path style="&st1;" d="M38.035,15.373v0.566"/>
	<path style="&st1;" d="M16.789,21.217h0.708"/>
	<path style="&st1;" d="M13.956,15.373v12.748"/>
	<path style="&st1;" d="M42.285,18.206v2.125"/>
	<path style="&st1;" d="M38.885,16.789h1.983"/>
	<path style="&st1;" d="M38.885,21.747h1.983"/>
	<path style="&st1;" d="M38.035,22.597v12.04"/>
	<path style="&st1;" d="M20.472,7.583H31.52"/>
	<path style="&st1;" d="M12.54,15.515v12.606"/>
	<path style="&st1;" d="M10.061,30.954v1.771"/>
	<path style="&st1;" d="M21.888,45.118h8.499"/>
	<path style="&st1;" d="M39.452,15.373h1.417"/>
	<path style="&st1;" d="M39.452,23.163h1.417"/>
	<path style="&st1;" d="M43.701,18.206v2.125"/>
	<path style="&st1;" d="M39.452,23.163v4.626"/>
	<path style="&st1;" d="M41.931,30.599v2.125"/>
	<path style="&st1;" d="M39.452,35.557v0.496"/>
	<path style="&st1;" d="M34.494,21.217h0.708"/>
	<path style="&st1;" d="M38.035,15.373v3.011"/>
	<path style="&st1;" d="M32.37,28.687c0-1.877-1.522-3.399-3.399-3.399"/>
	<path style="&st1;" d="M23.021,25.288c-1.877,0-3.399,1.522-3.399,3.399"/>
	<path style="&st1;" d="M28.97,38.036c1.877,0,3.399-1.522,3.399-3.399"/>
	<path style="&st1;" d="M19.622,34.636c0,1.877,1.522,3.399,3.399,3.399"/>
	<path style="&st1;" d="M30.953,28.687c0-1.095-0.888-1.983-1.983-1.983"/>
	<path style="&st1;" d="M23.021,26.704c-1.095,0-1.983,0.888-1.983,1.983"/>
	<path style="&st1;" d="M13.956,34.636c0,5.006,4.059,9.065,9.065,9.065"/>
	<path style="&st1;" d="M28.97,43.701c5.006,0,9.065-4.059,9.065-9.065"/>
	<path style="&st1;" d="M20.33,8.999c-3.521,0-6.374,2.854-6.374,6.374"/>
	<path style="&st1;" d="M38.035,15.373c0-3.521-2.854-6.374-6.374-6.374"/>
	<path style="&st1;" d="M20.33,10.416c-1.564,0-2.833,1.268-2.833,2.833"/>
	<path style="&st1;" d="M34.494,13.248c0-1.564-1.268-2.833-2.833-2.833"/>
	<path style="&st1;" d="M40.514,29.891c0-0.391-0.317-0.708-0.708-0.708"/>
	<path style="&st1;" d="M39.806,34.141c0.391,0,0.708-0.317,0.708-0.708"/>
	<path style="&st1;" d="M12.186,29.183c-0.391,0-0.708,0.317-0.708,0.708"/>
	<path style="&st1;" d="M11.477,33.432c0,0.391,0.317,0.708,0.708,0.708"/>
	<path style="&st1;" d="M28.262,19.622c0.626,0,1.133-0.507,1.133-1.133"/>
	<path style="&st1;" d="M22.596,18.489c0,0.626,0.507,1.133,1.133,1.133"/>
	<path style="&st1;" d="M21.038,33.786c0,1.564,1.269,2.833,2.833,2.833"/>
	<path style="&st1;" d="M28.12,36.619c1.565,0,2.833-1.269,2.833-2.833"/>
	<path style="&st1;" d="M22.455,22.455c-3.129,0-5.666,2.536-5.666,5.666"/>
	<path style="&st1;" d="M16.789,35.203c0,3.129,2.537,5.666,5.666,5.666"/>
	<path style="&st1;" d="M29.537,40.869c3.129,0,5.666-2.537,5.666-5.666"/>
	<path style="&st1;" d="M35.203,28.121c0-3.129-2.537-5.666-5.666-5.666"/>
	<path style="&st1;" d="M22.455,19.622c-4.693,0-8.499,3.805-8.499,8.499"/>
	<path style="&st1;" d="M38.035,28.121c0-4.694-3.805-8.499-8.499-8.499"/>
	<path style="&st1;" d="M13.956,18.384c0,1.565,1.268,2.833,2.833,2.833"/>
	<path style="&st1;" d="M35.203,21.217c1.564,0,2.833-1.268,2.833-2.833"/>
	<path style="&st1;" d="M42.285,18.206c0-0.782-0.634-1.417-1.417-1.417"/>
	<path style="&st1;" d="M40.868,21.747c0.782,0,1.417-0.634,1.417-1.417"/>
	<path style="&st1;" d="M20.472,7.583c-4.381,0-7.932,3.551-7.932,7.932"/>
	<path style="&st1;" d="M10.061,32.724c0,1.44,1.052,2.632,2.481,2.811"/>
	<path style="&st1;" d="M12.542,28.143c-1.429,0.179-2.481,1.37-2.481,2.811"/>
	<path style="&st1;" d="M12.542,35.557c-0.118,5.162,3.972,9.441,9.133,9.558"/>
	<path style="&st1;" d="M21.675,45.115c0.075,0.002,0.138,0.002,0.213,0.002"/>
	<path style="&st1;" d="M39.452,15.373c-0.077-4.332-3.6-7.792-7.932-7.792"/>
	<path style="&st1;" d="M43.701,18.206c0-1.564-1.269-2.833-2.833-2.833"/>
	<path style="&st1;" d="M40.868,23.163c1.564,0,2.833-1.268,2.833-2.833"/>
	<path style="&st1;" d="M41.931,30.599c0-1.439-1.05-2.63-2.479-2.811"/>
	<path style="&st1;" d="M39.449,35.534c1.429-0.179,2.481-1.37,2.481-2.81"/>
	<path style="&st1;" d="M30.387,45.118c5.006,0,9.065-4.059,9.065-9.065"/>
	<path style="&st0;" d="M51.491,25.996c0-14.08-11.415-25.496-25.496-25.496"/>
	<path style="&st0;" d="M25.996,0.5C11.915,0.5,0.5,11.916,0.5,25.996"/>
	<path style="&st0;" d="M0.5,25.996c0,14.081,11.415,25.496,25.496,25.496"/>
	<path style="&st0;" d="M25.996,51.492c14.081,0,25.496-11.415,25.496-25.496"/>
	<path style="&st1;" d="M38.035,15.939c0,0.469,0.381,0.85,0.85,0.85"/>
	<path style="&st1;" d="M38.885,21.747c-0.469,0-0.85,0.38-0.85,0.85"/>
	<path style="&st1;" d="M17.497,13.814h5.099v-0.708h6.799v0.708h5.099"/>
	<path style="&st1;" d="M38.035,34.636v-6.516"/>
	<g ewd:pinNo="1">
		<text transform="matrix(1 0 0 1 24.248 33.8735)"><tspan x="0" y="0" style="&st3; &st2;">1</tspan></text>
	</g>
</g>
</svg>