﻿<?xml version="1.0"?>
<!-- Generator: Adobe Illustrator 10.0, SVG Export Plug-In . SVG Version: 3.0.0 Build 77)  -->
<!DOCTYPE svg PUBLIC "-//W3C//DTD SVG 1.0//EN" "http://www.w3.org/TR/2001/REC-SVG-20010904/DTD/svg10.dtd"[
	<!ENTITY ns_flows "http://ns.adobe.com/Flows/1.0/">
	<!ENTITY ns_svg "http://www.w3.org/2000/svg">
	<!ENTITY ns_xlink "http://www.w3.org/1999/xlink">
	<!ENTITY st0 "fill:none;stroke:#000000;stroke-linecap:round;stroke-linejoin:round;">
	<!ENTITY st1 "fill:none;stroke:#000000;stroke-width:0.6;stroke-linecap:round;stroke-linejoin:round;">
	<!ENTITY st2 "font-size:6px;">
	<!ENTITY st3 "font-family:'Arial';">
	<!ATTLIST svg
		ewd:ver CDATA #IMPLIED
		xmlns:ewd CDATA #FIXED "http://shcl.co.jp/ewd"
		xmlns:a CDATA #FIXED "http://ns.adobe.com/AdobeSVGViewerExtensions/3.0/">
	<!ATTLIST g
		ewd:pinNo CDATA #IMPLIED>
]>
<svg width="77.944" height="57.601" viewBox="0 0 77.944 57.601" style="overflow:visible;enable-background:new 0 0 77.944 57.601" xml:space="preserve" onload="call_execInitLoadProc_svg('connector')" ewd:ver="2.1.2.7" xmlns="&ns_svg;" xmlns:ewd="http://shcl.co.jp/ewd" xmlns:a="http://ns.adobe.com/AdobeSVGViewerExtensions/3.0/" xmlns:xlink="&ns_xlink;">
<script type="text/javascript" xlink:href="../../../../../system/js/ewd/fig/svgfig.js"/>
<g id="レイヤー_1">
	<path style="&st1;" d="M64.767,35.03c0.499-0.498,0.749-1.1,0.749-1.804"/>
	<path style="&st1;" d="M18.348,8.149c-6.336,0-11.473,5.137-11.473,11.473"/>
	<path style="&st0;" d="M76.101,45.206c0.884-0.754,1.342-1.747,1.342-2.909"/>
	<path style="&st1;" d="M59.65,47.667c4.224,0,7.649-3.425,7.649-7.649"/>
	<path style="&st1;" d="M71.124,19.622c0-6.336-5.137-11.473-11.473-11.473"/>
	<path style="&st1;" d="M6.875,40.019c0,6.336,5.137,11.473,11.473,11.473"/>
	<path style="&st1;" d="M10.699,40.019c0,4.224,3.424,7.649,7.649,7.649"/>
	<path style="&st1;" d="M13.249,40.019c0,2.816,2.283,5.099,5.099,5.099"/>
	<path style="&st1;" d="M59.141,45.118c2.816,0,5.099-2.283,5.099-5.099"/>
	<path style="&st1;" d="M18.348,14.523c-2.816,0-5.099,2.283-5.099,5.099"/>
	<path style="&st1;" d="M67.299,19.622c0-4.224-3.425-7.648-7.649-7.648"/>
	<path style="&st1;" d="M65.515,26.415c0-0.705-0.25-1.306-0.748-1.804"/>
	<path style="&st1;" d="M59.65,51.492c6.237,0,11.316-4.955,11.47-11.19"/>
	<path style="&st1;" d="M64.24,19.622c0-2.816-2.283-5.099-5.099-5.099"/>
	<path style="&st1;" d="M18.348,11.974c-4.225,0-7.649,3.424-7.649,7.648"/>
	<path style="&st1;" d="M49.58,2.285c0-0.986-0.799-1.785-1.785-1.785"/>
	<path style="&st0;" d="M18.348,4.325c-8.449,0-15.298,6.849-15.298,15.297"/>
	<path style="&st1;" d="M29.693,4.325c-0.985,0-1.785,0.799-1.785,1.785"/>
	<path style="&st0;" d="M3.104,41.288c0.664,7.974,7.243,14.027,15.244,14.027"/>
	<path style="&st1;" d="M47.03,6.109c0-0.986-0.799-1.785-1.785-1.785"/>
	<path style="&st0;" d="M1.249,31.622C0.75,32.12,0.5,32.722,0.5,33.427"/>
	<path style="&st0;" d="M0.5,37.687c0,0.705,0.25,1.307,0.748,1.804"/>
	<path style="&st0;" d="M77.444,15.764c0-0.812-0.337-1.504-0.975-2.005"/>
	<path style="&st1;" d="M27.144,0.5c-0.986,0-1.785,0.799-1.785,1.785"/>
	<path style="&st0;" d="M58.605,55.316c3.796,0,7.034-1.192,9.923-3.655"/>
	<path style="&st0;" d="M68.614,7.591c-2.816-2.211-5.867-3.266-9.448-3.266"/>
	<path style="&st0;" d="M56.591,1.775c0-0.704-0.57-1.275-1.274-1.275"/>
	<path style="&st0;" d="M19.622,0.5c-0.704,0-1.274,0.571-1.274,1.275"/>
	<path style="&st0;" d="M20.974,56.271c0.553,0.553,1.221,0.83,2.002,0.83"/>
	<path style="&st0;" d="M53.378,57.101c0.782,0,1.45-0.276,2.003-0.83"/>
	<path style="&st1;" d="M30.472,57.101c0.782,0,1.45-0.276,2.003-0.83"/>
	<path style="&st1;" d="M64.24,35.557l0.527-0.527"/>
	<path style="&st1;" d="M18.348,11.974H59.65"/>
	<path style="&st1;" d="M65.515,26.415v6.811"/>
	<path style="&st1;" d="M18.348,47.667H59.65"/>
	<path style="&st1;" d="M13.249,19.622v20.396"/>
	<path style="&st0;" d="M1.249,31.622L3.05,29.82V19.622"/>
	<path style="&st1;" d="M25.359,4.325v-2.04"/>
	<path style="&st1;" d="M18.348,22.172v15.297h38.243V22.172H18.348"/>
	<path style="&st1;" d="M25.996,37.469V22.172"/>
	<path style="&st1;" d="M33.645,37.469V22.172"/>
	<path style="&st1;" d="M41.293,37.469V22.172"/>
	<path style="&st1;" d="M48.942,37.469V22.172"/>
	<path style="&st1;" d="M18.348,14.523h40.793"/>
	<path style="&st1;" d="M71.124,19.622v14.022"/>
	<path style="&st1;" d="M18.348,51.492h6.592"/>
	<path style="&st1;" d="M64.24,24.084l0.527,0.527"/>
	<path style="&st1;" d="M18.348,45.118h40.793"/>
	<path style="&st1;" d="M24.939,51.492v3.06h3.569v-3.06"/>
	<path style="&st1;" d="M13.249,34.07h2.549V15.206"/>
	<path style="&st1;" d="M67.299,19.622v20.396"/>
	<path style="&st1;" d="M64.24,34.282v5.736"/>
	<path style="&st1;" d="M42.568,11.974V4.325"/>
	<path style="&st1;" d="M64.24,25.358h-5.099v8.924h5.099"/>
	<path style="&st0;" d="M1.249,39.492l1.801,1.802"/>
	<path style="&st1;" d="M6.875,33.645H3.05v3.824h3.825"/>
	<path style="&st1;" d="M49.58,4.325h7.011"/>
	<path style="&st1;" d="M10.699,19.622v20.396"/>
	<path style="&st1;" d="M28.509,51.492H59.65"/>
	<path style="&st1;" d="M32.37,8.914h10.198"/>
	<path style="&st0;" d="M68.614,7.591l7.855,6.167"/>
	<path style="&st1;" d="M29.693,0.5v1.275h15.553V0.5"/>
	<path style="&st1;" d="M71.124,33.645h3.825v3.824h-3.828"/>
	<path style="&st0;" d="M0.5,37.687v-4.26"/>
	<path style="&st1;" d="M18.348,8.149h9.561"/>
	<path style="&st0;" d="M18.348,1.775v2.55"/>
	<path style="&st0;" d="M77.444,42.296V15.764"/>
	<path style="&st1;" d="M32.37,11.974V4.325"/>
	<path style="&st1;" d="M18.348,4.325h7.011"/>
	<path style="&st0;" d="M68.529,51.662l7.572-6.456"/>
	<path style="&st1;" d="M29.693,4.325h15.553"/>
	<path style="&st1;" d="M49.58,4.325v-2.04"/>
	<path style="&st0;" d="M56.591,4.325h2.575"/>
	<path style="&st0;" d="M19.622,0.5h35.694"/>
	<path style="&st1;" d="M27.908,8.149v-2.04"/>
	<path style="&st1;" d="M47.03,8.149h12.62"/>
	<path style="&st1;" d="M32.37,6.237h10.198"/>
	<path style="&st1;" d="M47.03,8.149v-2.04"/>
	<path style="&st0;" d="M56.591,1.775v2.55"/>
	<path style="&st1;" d="M27.908,8.149h4.462"/>
	<path style="&st1;" d="M30.138,8.149v3.825"/>
	<path style="&st1;" d="M44.801,8.149v3.825"/>
	<path style="&st1;" d="M47.03,8.149h-4.462"/>
	<path style="&st1;" d="M23.056,8.149v3.825"/>
	<path style="&st1;" d="M51.883,8.149v3.825"/>
	<path style="&st0;" d="M53.378,57.101H22.976"/>
	<path style="&st0;" d="M20.019,55.316l0.955,0.955"/>
	<path style="&st0;" d="M55.381,56.271l0.955-0.955"/>
	<path style="&st0;" d="M18.348,55.316h1.671"/>
	<path style="&st1;" d="M33.43,55.316h22.906"/>
	<path style="&st0;" d="M56.336,55.316h2.269"/>
	<path style="&st1;" d="M33.43,55.316l-0.955,0.955"/>
	<path style="&st1;" d="M18.348,29.82h38.243"/>
	<path style="&st1;" d="M6.875,19.622v14.022"/>
	<path style="&st1;" d="M6.875,37.469v2.55"/>
	<path style="&st1;" d="M71.121,40.302v-2.833"/>
	<path style="&st1;" d="M64.24,25.358v-5.736"/>
	<g ewd:pinNo="1">
		<text transform="matrix(1 0 0 1 20.1655 28.1865)"><tspan x="0" y="0" style="&st3; &st2;">1</tspan></text>
	</g>
	<g ewd:pinNo="2">
		<text transform="matrix(1 0 0 1 27.814 28.1865)"><tspan x="0" y="0" style="&st3; &st2;">2</tspan></text>
	</g>
	<g ewd:pinNo="3">
		<text transform="matrix(1 0 0 1 35.4629 28.1865)"><tspan x="0" y="0" style="&st3; &st2;">3</tspan></text>
	</g>
	<g ewd:pinNo="4">
		<text transform="matrix(1 0 0 1 43.1113 28.1865)"><tspan x="0" y="0" style="&st3; &st2;">4</tspan></text>
	</g>
	<g ewd:pinNo="5">
		<text transform="matrix(1 0 0 1 50.7603 28.1865)"><tspan x="0" y="0" style="&st3; &st2;">5</tspan></text>
	</g>
	<g ewd:pinNo="6">
		<text transform="matrix(1 0 0 1 20.1655 35.835)"><tspan x="0" y="0" style="&st3; &st2;">6</tspan></text>
	</g>
	<g ewd:pinNo="7">
		<text transform="matrix(1 0 0 1 27.814 35.835)"><tspan x="0" y="0" style="&st3; &st2;">7</tspan></text>
	</g>
	<g ewd:pinNo="8">
		<text transform="matrix(1 0 0 1 35.4629 35.835)"><tspan x="0" y="0" style="&st3; &st2;">8</tspan></text>
	</g>
	<g ewd:pinNo="9">
		<text transform="matrix(1 0 0 1 43.1113 35.835)"><tspan x="0" y="0" style="&st3; &st2;">9</tspan></text>
	</g>
	<g ewd:pinNo="10">
		<text transform="matrix(1 0 0 1 49.1519 35.835)"><tspan x="0" y="0" style="&st3; &st2;">10</tspan></text>
	</g>
</g>
</svg>