﻿<?xml version="1.0"?>
<!-- Generator: Adobe Illustrator 10.0, SVG Export Plug-In . SVG Version: 3.0.0 Build 77)  -->
<!DOCTYPE svg PUBLIC "-//W3C//DTD SVG 1.0//EN" "http://www.w3.org/TR/2001/REC-SVG-20010904/DTD/svg10.dtd"[
	<!ENTITY ns_flows "http://ns.adobe.com/Flows/1.0/">
	<!ENTITY ns_svg "http://www.w3.org/2000/svg">
	<!ENTITY ns_xlink "http://www.w3.org/1999/xlink">
	<!ENTITY st0 "fill:none;stroke:#000000;stroke-linecap:round;stroke-linejoin:round;">
	<!ENTITY st1 "fill:none;stroke:#000000;stroke-width:0.6;stroke-linecap:round;stroke-linejoin:round;">
	<!ENTITY st2 "font-size:6px;">
	<!ENTITY st3 "font-family:'Arial';">
	<!ATTLIST svg
		ewd:ver CDATA #IMPLIED
		xmlns:ewd CDATA #FIXED "http://shcl.co.jp/ewd"
		xmlns:a CDATA #FIXED "http://ns.adobe.com/AdobeSVGViewerExtensions/3.0/">
	<!ATTLIST g
		ewd:pinNo CDATA #IMPLIED>
]>
<svg width="63.025" height="65.237" viewBox="0 0 63.025 65.237" style="overflow:visible;enable-background:new 0 0 63.025 65.237" xml:space="preserve" onload="call_execInitLoadProc_svg('connector')" ewd:ver="2.1.2.7" xmlns="&ns_svg;" xmlns:ewd="http://shcl.co.jp/ewd" xmlns:a="http://ns.adobe.com/AdobeSVGViewerExtensions/3.0/" xmlns:xlink="&ns_xlink;">
<script type="text/javascript" xlink:href="../../../../../system/js/ewd/fig/svgfig.js"/>
<g id="レイヤー_1">
	<path style="&st1;" d="M31.487,34.721v11.332"/>
	<path style="&st1;" d="M22.535,11.945h5.552"/>
	<path style="&st0;" d="M21.289,0.5h20.396"/>
	<path style="&st0;" d="M48.484,7.299v5.793"/>
	<path style="&st0;" d="M14.49,7.299v5.793"/>
	<path style="&st1;" d="M19.022,3.899h24.929"/>
	<path style="&st1;" d="M17.889,5.033v13.896"/>
	<path style="&st1;" d="M45.085,5.033v13.896"/>
	<path style="&st1;" d="M23.555,62.937h3.399"/>
	<path style="&st1;" d="M28.087,61.237h6.799"/>
	<path style="&st1;" d="M36.02,62.937h3.399"/>
	<path style="&st1;" d="M34.887,11.945h5.552"/>
	<path style="&st1;" d="M44.722,46.053h-26.47"/>
	<path style="&st0;" d="M22.422,62.415v-1.657"/>
	<path style="&st0;" d="M40.552,60.758v1.657"/>
	<path style="&st1;" d="M28.087,61.237v0.566"/>
	<path style="&st1;" d="M34.887,61.237v0.566"/>
	<path style="&st1;" d="M39.603,33.305H23.371"/>
	<path style="&st1;" d="M13.634,29.679c-5.288,3.508-6.731,10.638-3.224,15.926"/>
	<path style="&st1;" d="M10.411,45.605c0.892,1.345,1.879,2.332,3.224,3.224"/>
	<path style="&st1;" d="M46.753,50.109c5.995-2.079,9.17-8.625,7.091-14.621"/>
	<path style="&st1;" d="M53.844,35.489c-0.862-2.486-2.312-4.355-4.504-5.81"/>
	<path style="&st0;" d="M21.289,0.5c-3.755,0-6.799,3.044-6.799,6.799"/>
	<path style="&st0;" d="M48.484,7.299c0-3.755-3.044-6.799-6.799-6.799"/>
	<path style="&st0;" d="M53.422,56.05c9.276-5.762,12.125-17.953,6.363-27.229"/>
	<path style="&st0;" d="M59.785,28.82c-1.626-2.618-3.507-4.529-6.099-6.196"/>
	<path style="&st0;" d="M9.289,22.625c-9.184,5.908-11.84,18.143-5.932,27.326"/>
	<path style="&st0;" d="M3.357,49.951c1.667,2.592,3.578,4.473,6.196,6.099"/>
	<path style="&st1;" d="M52.411,27.001c-1.368-1.012-2.583-1.788-4.077-2.602"/>
	<path style="&st1;" d="M51.379,52.234c7.169-4.634,9.224-14.203,4.589-21.371"/>
	<path style="&st1;" d="M55.969,30.863c-1.005-1.555-2.083-2.726-3.55-3.855"/>
	<path style="&st1;" d="M11.408,26.396C4.307,31.133,2.39,40.73,7.127,47.832"/>
	<path style="&st1;" d="M7.127,47.832c1.232,1.847,2.602,3.197,4.467,4.403"/>
	<path style="&st1;" d="M14.64,24.398c-1.177,0.642-2.142,1.238-3.242,2.003"/>
	<path style="&st0;" d="M9.289,22.625c3.349-2.154,5.203-5.55,5.203-9.532"/>
	<path style="&st0;" d="M48.484,13.092c0,3.981,1.854,7.377,5.202,9.531"/>
	<path style="&st1;" d="M19.022,3.899c-0.626,0-1.133,0.508-1.133,1.133"/>
	<path style="&st1;" d="M45.085,5.033c0-0.625-0.507-1.133-1.133-1.133"/>
	<path style="&st1;" d="M24.802,3.899c-1.252,0-2.267,1.015-2.267,2.267"/>
	<path style="&st1;" d="M40.439,6.166c0-1.252-1.015-2.267-2.266-2.267"/>
	<path style="&st1;" d="M49.34,29.679c-11.496-6.258-24.209-6.258-35.706,0"/>
	<path style="&st1;" d="M13.634,48.829c10.605,5.772,22.1,6.217,33.119,1.281"/>
	<path style="&st1;" d="M46.983,33.557c-10.003-5.359-20.988-5.359-30.992,0"/>
	<path style="&st1;" d="M15.991,33.557c-3.146,2.206-3.908,6.545-1.702,9.691"/>
	<path style="&st1;" d="M14.289,43.248c0.914,1.304,2.068,2.152,3.586,2.635"/>
	<path style="&st1;" d="M45.099,45.883c3.661-1.166,5.684-5.079,4.518-8.74"/>
	<path style="&st1;" d="M49.617,37.143c-0.483-1.517-1.331-2.671-2.635-3.585"/>
	<path style="&st1;" d="M17.875,45.883c8.98,4.095,18.244,4.095,27.224,0"/>
	<path style="&st1;" d="M11.595,52.234c3.936,2.163,7.553,3.474,11.96,4.336"/>
	<path style="&st0;" d="M9.552,56.05c4.241,2.325,8.13,3.747,12.87,4.708"/>
	<path style="&st1;" d="M45.085,18.928c0,2.348,1.187,4.347,3.249,5.471"/>
	<path style="&st1;" d="M14.64,24.398c2.061-1.124,3.248-3.123,3.248-5.47"/>
	<path style="&st0;" d="M40.552,60.758c4.74-0.96,8.629-2.383,12.87-4.708"/>
	<path style="&st1;" d="M26.955,57.089c3.174,0.351,5.891,0.351,9.065,0"/>
	<path style="&st1;" d="M39.419,56.571c4.408-0.862,8.025-2.173,11.961-4.336"/>
	<path style="&st1;" d="M22.422,61.803c0,0.626,0.507,1.133,1.133,1.133"/>
	<path style="&st1;" d="M26.955,62.937c0.625,0,1.133-0.507,1.133-1.133"/>
	<path style="&st1;" d="M34.887,61.803c0,0.626,0.507,1.133,1.133,1.133"/>
	<path style="&st1;" d="M39.419,62.937c0.626,0,1.133-0.507,1.133-1.133"/>
	<path style="&st0;" d="M23.853,64.095c5.323,0.855,9.946,0.855,15.269,0"/>
	<path style="&st0;" d="M22.422,62.415c0,0.844,0.598,1.545,1.431,1.679"/>
	<path style="&st0;" d="M39.122,64.095c0.834-0.134,1.432-0.835,1.432-1.68"/>
	<path style="&st1;" d="M39.753,32.191c-5.674-1.549-10.858-1.549-16.533,0"/>
	<path style="&st1;" d="M23.221,32.191c-0.302,0.083-0.479,0.395-0.396,0.697"/>
	<path style="&st1;" d="M22.824,32.888c0.069,0.25,0.287,0.417,0.547,0.417"/>
	<path style="&st1;" d="M39.603,33.305c0.313,0,0.567-0.253,0.567-0.566"/>
	<path style="&st1;" d="M40.17,32.738c0-0.26-0.167-0.478-0.417-0.546"/>
	<path style="&st1;" d="M39.419,56.571v4.666H36.02v-4.147"/>
	<path style="&st1;" d="M26.955,57.089v4.147h-3.399v-4.666"/>
	<path style="&st1;" d="M45.085,45.888V34.721H17.889v11.17"/>
	<path style="&st1;" d="M28.087,13.078h6.799V6.846h-6.799V13.078"/>
	<path style="&st1;" d="M40.439,6.166v9.179H22.535V6.166"/>
	<g ewd:pinNo="2">
		<text transform="matrix(1 0 0 1 36.7407 42.4824)"><tspan x="0" y="0" style="&st3; &st2;">2</tspan></text>
	</g>
	<g ewd:pinNo="1">
		<text transform="matrix(1 0 0 1 23.1431 42.4824)"><tspan x="0" y="0" style="&st3; &st2;">1</tspan></text>
	</g>
</g>
</svg>