﻿<?xml version="1.0"?>
<!-- Generator: Adobe Illustrator 10.0, SVG Export Plug-In . SVG Version: 3.0.0 Build 77)  -->
<!DOCTYPE svg PUBLIC "-//W3C//DTD SVG 1.0//EN" "http://www.w3.org/TR/2001/REC-SVG-20010904/DTD/svg10.dtd"[
	<!ENTITY ns_flows "http://ns.adobe.com/Flows/1.0/">
	<!ENTITY ns_svg "http://www.w3.org/2000/svg">
	<!ENTITY ns_xlink "http://www.w3.org/1999/xlink">
	<!ENTITY st0 "fill:none;">
	<!ENTITY st1 "stroke:#000000;">
	<!ENTITY st2 "stroke-linecap:round;">
	<!ENTITY st3 "stroke-linejoin:round;">
	<!ENTITY st4 "stroke-width:0.6;">
	<!ENTITY st5 "font-size:6px;">
	<!ENTITY st6 "font-family:'Arial';">
	<!ENTITY st7 "stroke-width:1.4;">
	<!ATTLIST svg
		ewd:ver CDATA #IMPLIED
		xmlns:ewd CDATA #FIXED "http://shcl.co.jp/ewd"
		xmlns:a CDATA #FIXED "http://ns.adobe.com/AdobeSVGViewerExtensions/3.0/">
	<!ATTLIST g
		ewd:pinNo CDATA #IMPLIED>
]>
<svg width="210.226" height="125.655" viewBox="0 0 210.226 125.655" style="overflow:visible;enable-background:new 0 0 81.737 101.094" xml:space="preserve" onload="call_execInitLoadProc_svg('connector')" ewd:ver="2.1.2.7" xmlns="&ns_svg;" xmlns:ewd="http://shcl.co.jp/ewd" xmlns:a="http://ns.adobe.com/AdobeSVGViewerExtensions/3.0/" xmlns:xlink="&ns_xlink;">
<script type="text/javascript" xlink:href="../../../../../system/js/ewd/fig/svgfig.js"/>
<g id="レイヤー_1" transform="translate(0,17.008)">
	<path style="&st0;&st1;&st2;&st3;" d="M59.542,100.594c1.757,0,3.252-0.453,4.714-1.427"/>
	<path style="&st0;&st1;&st2;&st3;" d="M17.48,99.166c1.462,0.975,2.957,1.427,4.714,1.427"/>
	<path style="&st0;&st1;&st4;&st2;&st3;" d="M67.545,3.333c0-1.564-1.269-2.833-2.833-2.833"/>
	<path style="&st0;&st1;&st4;&st2;&st3;" d="M17.024,0.5c-1.564,0-2.833,1.269-2.833,2.833"/>
	<path style="&st0;&st1;&st4;&st2;&st3;" d="M62.823,6.166c0-1.564-1.268-2.833-2.833-2.833"/>
	<path style="&st0;&st1;&st2;&st3;" d="M0.5,91.996c0,0.979,0.446,1.813,1.261,2.356"/>
	<path style="&st0;&st1;&st4;&st2;&st3;" d="M21.747,3.333c-1.565,0-2.833,1.269-2.833,2.833"/>
	<path style="&st0;&st1;&st2;&st3;" d="M79.976,94.353c0.814-0.543,1.261-1.378,1.261-2.357"/>
	<path style="&st0;&st1;&st2;&st3;" d="M77.231,2.16c-1.106-1.106-2.441-1.659-4.006-1.659"/>
	<path style="&st0;&st1;&st2;&st3;" d="M81.236,8.512c0-1.564-0.553-2.9-1.659-4.006"/>
	<path style="&st0;&st1;&st2;&st3;" d="M8.511,0.5c-1.564,0-2.9,0.554-4.006,1.66"/>
	<path style="&st0;&st1;&st2;&st3;" d="M2.16,4.506C1.054,5.612,0.5,6.947,0.5,8.512"/>
	<path style="&st0;&st1;&st2;&st3;" d="M22.194,100.594h37.349"/>
	<path style="&st0;&st1;&st4;&st2;&st3;" d="M0.5,90.679h80.736"/>
	<path style="&st0;&st1;&st2;&st3;" d="M64.256,99.166l15.719-4.813"/>
	<path style="&st0;&st1;&st2;&st3;" d="M17.48,99.166L1.761,94.353"/>
	<path style="&st0;&st1;&st4;&st2;&st3;" d="M6.166,22.69h18.414v-9.915h32.578v9.915h18.414"/>
	<path style="&st0;&st1;&st4;&st2;&st3;" d="M0.5,14.665l1.89-1.89h1.886l1.89,1.89v8.025"/>
	<path style="&st0;&st1;&st4;&st2;&st3;" d="M81.236,14.665l-1.889-1.89H77.46l-1.89,1.89v8.025"/>
	<path style="&st0;&st1;&st2;&st3;" d="M0.5,91.996V8.512"/>
	<path style="&st0;&st1;&st2;&st3;" d="M81.236,91.996V8.512"/>
	<path style="&st0;&st1;&st2;&st3;" d="M8.511,0.5h64.714"/>
	<path style="&st0;&st1;&st4;&st2;&st3;" d="M14.191,3.333V22.69"/>
	<path style="&st0;&st1;&st4;&st2;&st3;" d="M67.545,22.69V3.333"/>
	<path style="&st0;&st1;&st4;&st2;&st3;" d="M18.914,22.69V6.166"/>
	<path style="&st0;&st1;&st4;&st2;&st3;" d="M62.823,22.69V6.166"/>
	<path style="&st0;&st1;&st4;&st2;&st3;" d="M21.747,3.333H59.99"/>
	<path style="&st0;&st1;&st4;&st2;&st3;" d="M34.848,12.775V7.109h12.04v5.666"/>
	<path style="&st0;&st1;&st4;&st2;&st3;" d="M24.579,12.775v-4.25h4.25l1.983,1.983v2.266"/>
	<path style="&st0;&st1;&st4;&st2;&st3;" d="M30.812,10.509h4.037"/>
	<path style="&st0;&st1;&st4;&st2;&st3;" d="M57.157,12.775v-4.25h-4.25l-1.983,1.983v2.266"/>
	<path style="&st0;&st1;&st4;&st2;&st3;" d="M50.925,10.509h-4.037"/>
	<path style="&st0;&st1;&st4;&st2;&st3;" d="M32.37,86.429V72.265"/>
	<path style="&st0;&st1;&st4;&st2;&st3;" d="M6.874,72.265v14.164h67.988V72.265H6.874"/>
	<path style="&st0;&st1;&st4;&st2;&st3;" d="M57.865,86.429V72.265"/>
	<path style="&st0;&st1;&st4;&st2;&st3;" d="M15.373,86.429V72.265"/>
	<path style="&st0;&st1;&st4;&st2;&st3;" d="M40.868,86.429V72.265"/>
	<path style="&st0;&st1;&st4;&st2;&st3;" d="M49.367,86.429V72.265"/>
	<path style="&st0;&st1;&st4;&st2;&st3;" d="M23.871,86.429V72.265"/>
	<path style="&st0;&st1;&st4;&st2;&st3;" d="M66.364,86.429V72.265"/>
	<path style="&st0;&st1;&st4;&st2;&st3;" d="M35.203,49.602v14.165h11.331V49.602H35.203"/>
	<path style="&st0;&st1;&st4;&st2;&st3;" d="M19.622,62.35V28.355"/>
	<path style="&st0;&st1;&st4;&st2;&st3;" d="M47.95,62.35h28.329V28.355H5.458"/>
	<path style="&st0;&st1;&st4;&st2;&st3;" d="M33.786,62.35V28.355"/>
	<path style="&st0;&st1;&st4;&st2;&st3;" d="M5.458,45.353h70.821"/>
	<path style="&st0;&st1;&st4;&st2;&st3;" d="M5.458,28.355V62.35h28.329"/>
	<path style="&st0;&st1;&st4;&st2;&st3;" d="M47.95,62.35V28.355"/>
	<path style="&st0;&st1;&st4;&st2;&st3;" d="M62.115,62.35V28.355"/>
	<path style="&st0;&st1;&st4;&st2;&st3;" d="M5.458,65.183v2.833h28.329v-2.833H5.458"/>
	<path style="&st0;&st1;&st4;&st2;&st3;" d="M47.95,65.183v2.833h28.329v-2.833H47.95"/>
	<path style="&st0;&st1;&st2;&st3;" d="M77.231,2.16l2.346,2.346"/>
	<path style="&st0;&st1;&st2;&st3;" d="M2.16,4.506L4.506,2.16"/>
	<g ewd:pinNo="9">
		<text transform="matrix(1 0 0 1 67.4126 55.9072)"><tspan x="0" y="0" style="&st6; &st5;">9</tspan></text>
	</g>
	<g ewd:pinNo="1">
		<text transform="matrix(1 0 0 1 10.7554 38.9097)"><tspan x="0" y="0" style="&st6; &st5;">1</tspan></text>
	</g>
	<g ewd:pinNo="2">
		<text transform="matrix(1 0 0 1 24.9194 38.9097)"><tspan x="0" y="0" style="&st6; &st5;">2</tspan></text>
	</g>
	<g ewd:pinNo="3">
		<text transform="matrix(1 0 0 1 39.084 38.9097)"><tspan x="0" y="0" style="&st6; &st5;">3</tspan></text>
	</g>
	<g ewd:pinNo="4">
		<text transform="matrix(1 0 0 1 53.248 38.9097)"><tspan x="0" y="0" style="&st6; &st5;">4</tspan></text>
	</g>
	<g ewd:pinNo="5">
		<text transform="matrix(1 0 0 1 67.4126 38.9097)"><tspan x="0" y="0" style="&st6; &st5;">5</tspan></text>
	</g>
	<g ewd:pinNo="8">
		<text transform="matrix(1 0 0 1 53.248 55.9072)"><tspan x="0" y="0" style="&st6; &st5;">8</tspan></text>
	</g>
	<g ewd:pinNo="7">
		<text transform="matrix(1 0 0 1 24.9194 55.9072)"><tspan x="0" y="0" style="&st6; &st5;">7</tspan></text>
	</g>
	<g ewd:pinNo="6">
		<text transform="matrix(1 0 0 1 10.7554 55.9072)"><tspan x="0" y="0" style="&st6; &st5;">6</tspan></text>
	</g>
	<g ewd:pinNo="17">
		<text transform="matrix(1 0 0 1 66.9663 81.4028)"><tspan x="0" y="0" style="&st6; &st5;">17</tspan></text>
	</g>
	<g ewd:pinNo="16">
		<text transform="matrix(1 0 0 1 58.4678 81.4028)"><tspan x="0" y="0" style="&st6; &st5;">16</tspan></text>
	</g>
	<g ewd:pinNo="15">
		<text transform="matrix(1 0 0 1 49.9692 81.4028)"><tspan x="0" y="0" style="&st6; &st5;">15</tspan></text>
	</g>
	<g ewd:pinNo="14">
		<text transform="matrix(1 0 0 1 41.4707 81.4028)"><tspan x="0" y="0" style="&st6; &st5;">14</tspan></text>
	</g>
	<g ewd:pinNo="13">
		<text transform="matrix(1 0 0 1 32.9722 81.4028)"><tspan x="0" y="0" style="&st6; &st5;">13</tspan></text>
	</g>
	<g ewd:pinNo="12">
		<text transform="matrix(1 0 0 1 24.4736 81.4028)"><tspan x="0" y="0" style="&st6; &st5;">12</tspan></text>
	</g>
	<g ewd:pinNo="11">
		<text transform="matrix(1 0 0 1 16.1978 81.4028)"><tspan x="0" y="0" style="&st6; &st5;">11</tspan></text>
	</g>
	<g ewd:pinNo="10">
		<text transform="matrix(1 0 0 1 7.4761 81.4028)"><tspan x="0" y="0" style="&st6; &st5;">10</tspan></text>
	</g>
</g>
<g id="レイヤー_1" transform="translate(101.578,17.008)">
	<path style="&st0;&st1;&st4;&st2;&st3;" d="M20.33,7.583h3.541"/>
	<path style="&st0;&st1;&st4;&st2;&st3;" d="M20.33,13.248h3.541"/>
	<path style="&st0;&st1;&st4;&st2;&st3;" d="M88.319,13.248h-3.542"/>
	<path style="&st0;&st1;&st4;&st2;&st3;" d="M88.319,7.583h-3.542"/>
	<path style="&st0;&st1;&st2;&st3;" d="M0.5,81.237c0,4.693,3.805,8.499,8.499,8.499"/>
	<path style="&st0;&st1;&st2;&st3;" d="M8.999,0.5C4.305,0.5,0.5,4.305,0.5,8.999"/>
	<path style="&st0;&st1;&st2;&st3;" d="M108.148,8.999c0-4.694-3.805-8.499-8.499-8.499"/>
	<path style="&st0;&st1;&st2;&st3;" d="M99.65,89.735c4.694,0,8.499-3.805,8.499-8.499"/>
	<path style="&st0;&st1;&st2;&st3;" d="M14.664,103.899c0,2.347,1.903,4.25,4.25,4.25"/>
	<path style="&st0;&st1;&st2;&st3;" d="M89.735,108.149c2.347,0,4.25-1.902,4.25-4.25"/>
	<path style="&st0;&st1;&st4;&st2;&st3;" d="M23.871,13.248c1.564,0,2.833-1.269,2.833-2.833"/>
	<path style="&st0;&st1;&st4;&st2;&st3;" d="M26.704,10.416c0-1.565-1.269-2.833-2.833-2.833"/>
	<path style="&st0;&st1;&st4;&st2;&st3;" d="M20.33,7.583c-1.564,0-2.833,1.268-2.833,2.833"/>
	<path style="&st0;&st1;&st4;&st2;&st3;" d="M17.497,10.416c0,1.564,1.269,2.833,2.833,2.833"/>
	<path style="&st0;&st1;&st4;&st2;&st3;" d="M88.319,13.248c1.564,0,2.833-1.269,2.833-2.833"/>
	<path style="&st0;&st1;&st4;&st2;&st3;" d="M91.151,10.416c0-1.565-1.268-2.833-2.833-2.833"/>
	<path style="&st0;&st1;&st4;&st2;&st3;" d="M84.777,7.583c-1.564,0-2.833,1.268-2.833,2.833"/>
	<path style="&st0;&st1;&st4;&st2;&st3;" d="M81.945,10.416c0,1.564,1.268,2.833,2.833,2.833"/>
	<path style="&st0;&st1;&st4;&st2;&st3;" d="M20.33,67.072V79.82h67.989V67.072H20.33"/>
	<path style="&st0;&st1;&st4;&st2;&st3;" d="M47.242,100.358v-5.666h14.164v5.666"/>
	<path style="&st0;&st1;&st4;&st2;&st3;" d="M50.075,100.358v4.25h8.499v-4.25"/>
	<path style="&st0;&st1;&st4;&st2;&st3;" d="M39.452,4.75l2.833,2.833h24.079l2.833-2.833"/>
	<path style="&st0;&st1;&st4;&st2;&st3;" d="M45.117,7.583v2.833h18.414V7.583"/>
	<path style="&st0;&st1;&st4;&st2;&st3;" d="M29.537,16.081V4.75h49.575v11.332"/>
	<path style="&st0;&st1;&st4;&st2;&st3;" d="M79.112,16.081h14.873V7.583h7.082v75.071"/>
	<path style="&st0;&st1;&st4;&st2;&st3;" d="M29.537,16.081H14.664V7.583H7.582v75.071"/>
	<path style="&st0;&st1;&st4;&st2;&st3;" d="M7.582,82.653h93.484"/>
	<path style="&st0;&st1;&st4;&st2;&st3;" d="M80.174,97.526H65.302l-1.983-7.791"/>
	<path style="&st0;&st1;&st4;&st2;&st3;" d="M28.475,97.526h14.873l1.983-7.791"/>
	<path style="&st0;&st1;&st4;&st2;&st3;" d="M7.582,21.747h4.816v12.748H7.582"/>
	<path style="&st0;&st1;&st4;&st2;&st3;" d="M101.066,21.747H96.25v12.748h4.816"/>
	<path style="&st0;&st1;&st4;&st2;&st3;" d="M80.174,97.526v10.623"/>
	<path style="&st0;&st1;&st2;&st3;" d="M8.999,0.5H99.65"/>
	<path style="&st0;&st1;&st4;&st2;&st3;" d="M28.475,97.526v10.623"/>
	<path style="&st0;&st1;&st2;&st3;" d="M0.5,8.999v72.238"/>
	<path style="&st0;&st1;&st2;&st3;" d="M108.148,8.999v72.238"/>
	<path style="&st0;&st1;&st2;&st3;" d="M18.914,108.149h70.821"/>
	<path style="&st0;&st1;&st2;&st3;" d="M14.664,89.735v14.164"/>
	<path style="&st0;&st1;&st4;&st2;&st3;" d="M28.475,100.358h51.7"/>
	<path style="&st0;&st1;&st2;&st3;" d="M93.984,89.735v14.164"/>
	<path style="&st0;&st1;&st4;&st2;&st3;" d="M7.582,64.239h7.649v12.748H7.582"/>
	<path style="&st0;&st1;&st4;&st2;&st3;" d="M101.066,64.239h-7.649v12.748h7.649"/>
	<path style="&st0;&st1;&st2;&st3;" d="M8.999,89.735h5.666"/>
	<path style="&st0;&st1;&st4;&st2;&st3;" d="M14.664,89.735h79.32"/>
	<path style="&st0;&st1;&st2;&st3;" d="M93.984,89.735h5.666"/>
	<path style="&st0;&st1;&st4;&st2;&st3;" d="M28.829,79.82V67.072"/>
	<path style="&st0;&st1;&st4;&st2;&st3;" d="M37.327,79.82V67.072"/>
	<path style="&st0;&st1;&st4;&st2;&st3;" d="M45.826,79.82V67.072"/>
	<path style="&st0;&st1;&st4;&st2;&st3;" d="M54.324,79.82V67.072"/>
	<path style="&st0;&st1;&st4;&st2;&st3;" d="M62.823,79.82V67.072"/>
	<path style="&st0;&st1;&st4;&st2;&st3;" d="M71.321,79.82V67.072"/>
	<path style="&st0;&st1;&st4;&st2;&st3;" d="M79.82,79.82V67.072"/>
	<path style="&st0;&st1;&st4;&st2;&st3;" d="M18.914,37.327h70.821"/>
	<path style="&st0;&st1;&st4;&st2;&st3;" d="M33.078,52.908V21.747"/>
	<path style="&st0;&st1;&st4;&st2;&st3;" d="M47.242,52.908V21.747"/>
	<path style="&st0;&st1;&st4;&st2;&st3;" d="M61.406,52.908V21.747"/>
	<path style="&st0;&st1;&st4;&st2;&st3;" d="M75.571,52.908V21.747"/>
	<path style="&st0;&st1;&st4;&st2;&st3;" d="M18.914,21.747v31.162h28.329"/>
	<path style="&st0;&st1;&st4;&st2;&st3;" d="M61.406,52.908h28.329V21.747H18.914"/>
	<path style="&st0;&st1;&st4;&st2;&st3;" d="M48.659,41.577v16.997H59.99V41.577H48.659"/>
	<path style="&st0;&st1;&st4;&st2;&st3;" d="M7.582,37.327h4.816v12.748H7.582"/>
	<path style="&st0;&st1;&st4;&st2;&st3;" d="M101.066,37.327H96.25v12.748h4.816"/>
	<g ewd:pinNo="1">
		<text transform="matrix(1 0 0 1 80.96 31.6875)"><tspan x="0" y="0" style="&st6; &st5;">1</tspan></text>
	</g>
	<g ewd:pinNo="2">
		<text transform="matrix(1 0 0 1 66.7954 31.6875)"><tspan x="0" y="0" style="&st6; &st5;">2</tspan></text>
	</g>
	<g ewd:pinNo="3">
		<text transform="matrix(1 0 0 1 52.6313 31.6875)"><tspan x="0" y="0" style="&st6; &st5;">3</tspan></text>
	</g>
	<g ewd:pinNo="4">
		<text transform="matrix(1 0 0 1 38.4668 31.6875)"><tspan x="0" y="0" style="&st6; &st5;">4</tspan></text>
	</g>
	<g ewd:pinNo="5">
		<text transform="matrix(1 0 0 1 24.3027 31.6875)"><tspan x="0" y="0" style="&st6; &st5;">5</tspan></text>
	</g>
	<g ewd:pinNo="6">
		<text transform="matrix(1 0 0 1 80.96 47.2681)"><tspan x="0" y="0" style="&st6; &st5;">6</tspan></text>
	</g>
	<g ewd:pinNo="7">
		<text transform="matrix(1 0 0 1 66.7954 47.2681)"><tspan x="0" y="0" style="&st6; &st5;">7</tspan></text>
	</g>
	<g ewd:pinNo="8">
		<text transform="matrix(1 0 0 1 38.4668 47.2681)"><tspan x="0" y="0" style="&st6; &st5;">8</tspan></text>
	</g>
	<g ewd:pinNo="9">
		<text transform="matrix(1 0 0 1 24.3027 47.2681)"><tspan x="0" y="0" style="&st6; &st5;">9</tspan></text>
	</g>
	<g ewd:pinNo="10">
		<text transform="matrix(1 0 0 1 80.5361 75.5967)"><tspan x="0" y="0" style="&st6; &st5;">10</tspan></text>
	</g>
	<g ewd:pinNo="11">
		<text transform="matrix(1 0 0 1 71.9634 75.5967)"><tspan x="0" y="0" style="&st6; &st5;">11</tspan></text>
	</g>
	<g ewd:pinNo="12">
		<text transform="matrix(1 0 0 1 63.5391 75.5967)"><tspan x="0" y="0" style="&st6; &st5;">12</tspan></text>
	</g>
	<g ewd:pinNo="13">
		<text transform="matrix(1 0 0 1 55.0405 75.5967)"><tspan x="0" y="0" style="&st6; &st5;">13</tspan></text>
	</g>
	<g ewd:pinNo="14">
		<text transform="matrix(1 0 0 1 46.542 75.5967)"><tspan x="0" y="0" style="&st6; &st5;">14</tspan></text>
	</g>
	<g ewd:pinNo="15">
		<text transform="matrix(1 0 0 1 38.0435 75.5967)"><tspan x="0" y="0" style="&st6; &st5;">15</tspan></text>
	</g>
	<g ewd:pinNo="16">
		<text transform="matrix(1 0 0 1 29.5449 75.5967)"><tspan x="0" y="0" style="&st6; &st5;">16</tspan></text>
	</g>
	<g ewd:pinNo="17">
		<text transform="matrix(1 0 0 1 21.0464 75.5967)"><tspan x="0" y="0" style="&st6; &st5;">17</tspan></text>
	</g>
</g>
<path d="M40.8685,9.069v-8.504h115.0335v8.504" style="&st0;&st1;&st7;&st2;&st3;"/>
</svg>